{
  "MetaData": {
    "Schema": {
      "ManagerName": "ProcessSchemaManager",
      "UId": "9c899b76-2cd5-44ea-8dea-7d6b5ae33ba0",
      "A2": "CrocProcessCreateAcceptanceStop",
      "A5": "5ec0d7ac-c380-460e-b8e7-844452d0442a",
      "B1": [],
      "B2": [],
      "B3": [],
      "B6": "8027c309-f63e-4894-a830-daa104b3be05",
      "B8": "7.18.5.1500",
      "FJ1": [],
      "IJ1": true,
      "BK8": "bb4d6607-026b-4b27-b640-8f5c77c1e89d",
      "IJ10": true,
      "BK15": [
        {
          "BL1": "Terrasoft.Core.Process.ProcessSchemaMapping",
          "UId": "f6782771-96c6-4cbd-a334-080a46c602f4",
          "A2": "ReadDataUserTask1",
          "A3": "9c899b76-2cd5-44ea-8dea-7d6b5ae33ba0",
          "A4": "9c899b76-2cd5-44ea-8dea-7d6b5ae33ba0",
          "GT2": "[Element:{33dbc029-707c-4e1a-927e-f7f629359b2b}].[Parameter:{d5feafbd-893d-41a8-84a2-25e02ee0e544}]",
          "GT3": "d5feafbd-893d-41a8-84a2-25e02ee0e544",
          "GT5": "5d9ac9a7-7782-49ce-8990-dcb1c73832b0",
          "GT4": "cb455b6f-78ff-4b1e-b241-c2bbc0b37e9f",
          "GT1": {
            "GS1": 1,
            "GS2": "{\"className\":\"Terrasoft.FilterGroup\",\"serializedFilterEditData\":\"{\\\"className\\\":\\\"Terrasoft.FilterGroup\\\",\\\"items\\\":{\\\"050397fa-6c2c-44d5-89d8-28e7d092ea02\\\":{\\\"className\\\":\\\"Terrasoft.CompareFilter\\\",\\\"filterType\\\":1,\\\"comparisonType\\\":3,\\\"isEnabled\\\":true,\\\"trimDateTimeParameterToDate\\\":false,\\\"leftExpression\\\":{\\\"className\\\":\\\"Terrasoft.ColumnExpression\\\",\\\"expressionType\\\":0,\\\"columnPath\\\":\\\"Id\\\"},\\\"isAggregative\\\":false,\\\"key\\\":\\\"050397fa-6c2c-44d5-89d8-28e7d092ea02\\\",\\\"dataValueType\\\":0,\\\"leftExpressionCaption\\\":\\\"Id\\\",\\\"rightExpression\\\":{\\\"className\\\":\\\"Terrasoft.ParameterExpression\\\",\\\"expressionType\\\":2,\\\"parameter\\\":{\\\"className\\\":\\\"Terrasoft.Parameter\\\",\\\"dataValueType\\\":26,\\\"value\\\":{\\\"value\\\":\\\"[IsOwnerSchema:false].[IsSchema:false].[Element:{cbe62bb1-d1b8-4897-bbf2-85f79697048b}].[Parameter:{19287614-a50d-4eca-9456-9d218e6701e0}]\\\",\\\"displayValue\\\":\\\"Добавлена запись с нулевым объемом.Уникальный идентификатор записи\\\"}}}},\\\"f9b63445-a664-4f3b-9c28-2a59f1460dcb\\\":{\\\"className\\\":\\\"Terrasoft.CompareFilter\\\",\\\"filterType\\\":1,\\\"comparisonType\\\":3,\\\"isEnabled\\\":true,\\\"trimDateTimeParameterToDate\\\":false,\\\"leftExpression\\\":{\\\"className\\\":\\\"Terrasoft.ColumnExpression\\\",\\\"expressionType\\\":0,\\\"columnPath\\\":\\\"Id\\\"},\\\"isAggregative\\\":false,\\\"key\\\":\\\"f9b63445-a664-4f3b-9c28-2a59f1460dcb\\\",\\\"dataValueType\\\":0,\\\"leftExpressionCaption\\\":\\\"Id\\\",\\\"rightExpression\\\":{\\\"className\\\":\\\"Terrasoft.ParameterExpression\\\",\\\"expressionType\\\":2,\\\"parameter\\\":{\\\"className\\\":\\\"Terrasoft.Parameter\\\",\\\"dataValueType\\\":26,\\\"value\\\":{\\\"value\\\":\\\"[IsOwnerSchema:false].[IsSchema:false].[Element:{726c68ac-264b-4855-88f5-21e2c27d992b}].[Parameter:{c47a8547-06de-4546-a89c-64960365046a}]\\\",\\\"displayValue\\\":\\\"Изменена запись квоты порта с нулевым обьемом.Уникальный идентификатор записи\\\"}}}}},\\\"logicalOperation\\\":1,\\\"isEnabled\\\":true,\\\"filterType\\\":6,\\\"rootSchemaName\\\":\\\"CrocPortQuota\\\",\\\"key\\\":\\\"\\\"}\",\"dataSourceFilters\":\"{\\\"items\\\":{\\\"050397fa-6c2c-44d5-89d8-28e7d092ea02\\\":{\\\"filterType\\\":1,\\\"comparisonType\\\":3,\\\"isEnabled\\\":true,\\\"trimDateTimeParameterToDate\\\":false,\\\"leftExpression\\\":{\\\"expressionType\\\":0,\\\"columnPath\\\":\\\"Id\\\"},\\\"rightExpression\\\":{\\\"expressionType\\\":2,\\\"parameter\\\":{\\\"dataValueType\\\":26,\\\"value\\\":{\\\"value\\\":\\\"[IsOwnerSchema:false].[IsSchema:false].[Element:{cbe62bb1-d1b8-4897-bbf2-85f79697048b}].[Parameter:{19287614-a50d-4eca-9456-9d218e6701e0}]\\\"}}}},\\\"f9b63445-a664-4f3b-9c28-2a59f1460dcb\\\":{\\\"filterType\\\":1,\\\"comparisonType\\\":3,\\\"isEnabled\\\":true,\\\"trimDateTimeParameterToDate\\\":false,\\\"leftExpression\\\":{\\\"expressionType\\\":0,\\\"columnPath\\\":\\\"Id\\\"},\\\"rightExpression\\\":{\\\"expressionType\\\":2,\\\"parameter\\\":{\\\"dataValueType\\\":26,\\\"value\\\":{\\\"value\\\":\\\"[IsOwnerSchema:false].[IsSchema:false].[Element:{726c68ac-264b-4855-88f5-21e2c27d992b}].[Parameter:{c47a8547-06de-4546-a89c-64960365046a}]\\\"}}}}},\\\"logicalOperation\\\":1,\\\"isEnabled\\\":true,\\\"filterType\\\":6,\\\"rootSchemaName\\\":\\\"CrocPortQuota\\\"}\"}",
            "GS5": "9c899b76-2cd5-44ea-8dea-7d6b5ae33ba0"
          }
        },
        {
          "BL1": "Terrasoft.Core.Process.ProcessSchemaMapping",
          "UId": "74dcb1c9-2a29-4e83-846a-d5b545a80f6c",
          "A2": "ReadDataUserTask1",
          "A3": "9c899b76-2cd5-44ea-8dea-7d6b5ae33ba0",
          "A4": "9c899b76-2cd5-44ea-8dea-7d6b5ae33ba0",
          "GT2": "[Element:{33dbc029-707c-4e1a-927e-f7f629359b2b}].[Parameter:{451d48cb-aec6-423b-b803-547774d3be21}]",
          "GT3": "451d48cb-aec6-423b-b803-547774d3be21",
          "GT5": "643e4d6d-7ec8-49f0-842a-066a996fbe8b",
          "GT4": "cb455b6f-78ff-4b1e-b241-c2bbc0b37e9f",
          "GT1": {
            "GS1": 1,
            "GS2": "0",
            "GS5": "cb455b6f-78ff-4b1e-b241-c2bbc0b37e9f"
          }
        },
        {
          "BL1": "Terrasoft.Core.Process.ProcessSchemaMapping",
          "UId": "f2e26cd0-e7db-4040-96f0-2db9b71032ac",
          "A2": "ReadDataUserTask1",
          "A3": "9c899b76-2cd5-44ea-8dea-7d6b5ae33ba0",
          "A4": "9c899b76-2cd5-44ea-8dea-7d6b5ae33ba0",
          "GT2": "[Element:{33dbc029-707c-4e1a-927e-f7f629359b2b}].[Parameter:{55ccff6b-90ea-4fc2-8254-fa1b1a663ec9}]",
          "GT3": "55ccff6b-90ea-4fc2-8254-fa1b1a663ec9",
          "GT5": "29115add-7520-4ad4-8371-d91f537ac913",
          "GT4": "cb455b6f-78ff-4b1e-b241-c2bbc0b37e9f",
          "GT1": {
            "GS1": 1,
            "GS2": "true"
          }
        },
        {
          "BL1": "Terrasoft.Core.Process.ProcessSchemaMapping",
          "UId": "e1597e5c-fe7b-4462-97a9-7b8fb4f3bcb8",
          "A2": "ReadDataUserTask1",
          "A3": "9c899b76-2cd5-44ea-8dea-7d6b5ae33ba0",
          "A4": "9c899b76-2cd5-44ea-8dea-7d6b5ae33ba0",
          "GT2": "[Element:{33dbc029-707c-4e1a-927e-f7f629359b2b}].[Parameter:{b040079d-522a-4d3b-9793-35c14b12274a}]",
          "GT3": "b040079d-522a-4d3b-9793-35c14b12274a",
          "GT5": "f29e5660-c5ef-4d84-8331-9046c3093519",
          "GT4": "cb455b6f-78ff-4b1e-b241-c2bbc0b37e9f",
          "GT1": {
            "GS1": 1,
            "GS2": "50"
          }
        },
        {
          "BL1": "Terrasoft.Core.Process.ProcessSchemaMapping",
          "UId": "c79f8945-80f0-461f-b502-274e42710268",
          "A2": "ReadDataUserTask1",
          "A3": "9c899b76-2cd5-44ea-8dea-7d6b5ae33ba0",
          "A4": "9c899b76-2cd5-44ea-8dea-7d6b5ae33ba0",
          "GT2": "[Element:{33dbc029-707c-4e1a-927e-f7f629359b2b}].[Parameter:{b099035a-674e-4eb7-bbb1-2bd9362eb83a}]",
          "GT3": "b099035a-674e-4eb7-bbb1-2bd9362eb83a",
          "GT5": "94ba9876-18c1-4a68-bcef-08f7e7f0e25c",
          "GT4": "cb455b6f-78ff-4b1e-b241-c2bbc0b37e9f",
          "GT1": {
            "GS1": 1,
            "GS2": "0"
          }
        },
        {
          "BL1": "Terrasoft.Core.Process.ProcessSchemaMapping",
          "UId": "ddd2955e-0efb-4c2b-9dee-c3a0b1608a04",
          "A2": "ReadDataUserTask1",
          "A3": "9c899b76-2cd5-44ea-8dea-7d6b5ae33ba0",
          "A4": "9c899b76-2cd5-44ea-8dea-7d6b5ae33ba0",
          "GT2": "[Element:{33dbc029-707c-4e1a-927e-f7f629359b2b}].[Parameter:{1e67483d-b5c6-4683-b6dc-40d8405690f7}]",
          "GT3": "1e67483d-b5c6-4683-b6dc-40d8405690f7",
          "GT5": "cb5d6d26-7e81-4cbe-8730-8b7169000d14",
          "GT4": "cb455b6f-78ff-4b1e-b241-c2bbc0b37e9f",
          "GT1": {}
        },
        {
          "BL1": "Terrasoft.Core.Process.ProcessSchemaMapping",
          "UId": "418109c0-5681-4632-a476-284589cf9226",
          "A2": "ReadDataUserTask1",
          "A3": "9c899b76-2cd5-44ea-8dea-7d6b5ae33ba0",
          "A4": "9c899b76-2cd5-44ea-8dea-7d6b5ae33ba0",
          "GT2": "[Element:{33dbc029-707c-4e1a-927e-f7f629359b2b}].[Parameter:{be61d335-9f8e-4eba-ba01-20900425a5f3}]",
          "GT3": "be61d335-9f8e-4eba-ba01-20900425a5f3",
          "GT5": "473e79e2-727e-40a7-8829-7eefc576b403",
          "GT4": "cb455b6f-78ff-4b1e-b241-c2bbc0b37e9f",
          "GT1": {
            "GS1": 1,
            "GS2": "CrocName:1:1"
          }
        },
        {
          "BL1": "Terrasoft.Core.Process.ProcessSchemaMapping",
          "UId": "a3cc75ef-2b03-499a-8e6c-20c0749bb175",
          "A2": "ReadDataUserTask1",
          "A3": "9c899b76-2cd5-44ea-8dea-7d6b5ae33ba0",
          "A4": "9c899b76-2cd5-44ea-8dea-7d6b5ae33ba0",
          "GT2": "[Element:{33dbc029-707c-4e1a-927e-f7f629359b2b}].[Parameter:{15c5530d-3a59-438b-b197-e503762d4c3a}]",
          "GT3": "15c5530d-3a59-438b-b197-e503762d4c3a",
          "GT5": "e2fced10-4842-423e-ada0-523bf7ea8ad3",
          "GT4": "cb455b6f-78ff-4b1e-b241-c2bbc0b37e9f",
          "GT1": {
            "GS1": 1
          }
        },
        {
          "BL1": "Terrasoft.Core.Process.ProcessSchemaMapping",
          "UId": "ead78330-7327-4257-acaf-f76885eb2619",
          "A2": "ReadDataUserTask1",
          "A3": "9c899b76-2cd5-44ea-8dea-7d6b5ae33ba0",
          "A4": "9c899b76-2cd5-44ea-8dea-7d6b5ae33ba0",
          "GT2": "[Element:{33dbc029-707c-4e1a-927e-f7f629359b2b}].[Parameter:{c5f12219-8f3f-4cf9-a01d-f3c13aea3ea4}]",
          "GT3": "c5f12219-8f3f-4cf9-a01d-f3c13aea3ea4",
          "GT5": "2e63ea99-8125-4254-88bd-20d3610bd471",
          "GT4": "cb455b6f-78ff-4b1e-b241-c2bbc0b37e9f",
          "GT1": {}
        },
        {
          "BL1": "Terrasoft.Core.Process.ProcessSchemaMapping",
          "UId": "c9fe8827-be20-472f-8250-bd73673c4de8",
          "A2": "ReadDataUserTask1",
          "A3": "9c899b76-2cd5-44ea-8dea-7d6b5ae33ba0",
          "A4": "9c899b76-2cd5-44ea-8dea-7d6b5ae33ba0",
          "GT2": "[Element:{33dbc029-707c-4e1a-927e-f7f629359b2b}].[Parameter:{644852db-7a84-41a1-bed6-5b0652cac772}]",
          "GT3": "644852db-7a84-41a1-bed6-5b0652cac772",
          "GT5": "a3660fce-a8f9-4a68-a3c1-b4f2f7983635",
          "GT4": "cb455b6f-78ff-4b1e-b241-c2bbc0b37e9f",
          "GT1": {}
        },
        {
          "BL1": "Terrasoft.Core.Process.ProcessSchemaMapping",
          "UId": "4c66f2cf-20fe-4707-864a-03fe464d45e8",
          "A2": "ReadDataUserTask1",
          "A3": "9c899b76-2cd5-44ea-8dea-7d6b5ae33ba0",
          "A4": "9c899b76-2cd5-44ea-8dea-7d6b5ae33ba0",
          "GT2": "[Element:{33dbc029-707c-4e1a-927e-f7f629359b2b}].[Parameter:{a1148bcb-9204-42b3-9cff-adfce904439c}]",
          "GT3": "a1148bcb-9204-42b3-9cff-adfce904439c",
          "GT5": "9a594933-75da-4304-b6a3-5945dba159e3",
          "GT4": "cb455b6f-78ff-4b1e-b241-c2bbc0b37e9f",
          "GT1": {}
        },
        {
          "BL1": "Terrasoft.Core.Process.ProcessSchemaMapping",
          "UId": "7b9de7a7-b1bb-4e80-af54-4bd3e3a0717d",
          "A2": "ReadDataUserTask1",
          "A3": "9c899b76-2cd5-44ea-8dea-7d6b5ae33ba0",
          "A4": "9c899b76-2cd5-44ea-8dea-7d6b5ae33ba0",
          "GT2": "[Element:{33dbc029-707c-4e1a-927e-f7f629359b2b}].[Parameter:{d3845a6a-c142-4fee-b1a2-3cf3da18f18e}]",
          "GT3": "d3845a6a-c142-4fee-b1a2-3cf3da18f18e",
          "GT5": "11fb235f-c06a-4111-84cd-a5dbf9a440d5",
          "GT4": "cb455b6f-78ff-4b1e-b241-c2bbc0b37e9f",
          "GT1": {}
        },
        {
          "BL1": "Terrasoft.Core.Process.ProcessSchemaMapping",
          "UId": "594db3c7-1e11-45e5-add4-8dab374a5e77",
          "A2": "ReadDataUserTask1",
          "A3": "9c899b76-2cd5-44ea-8dea-7d6b5ae33ba0",
          "A4": "9c899b76-2cd5-44ea-8dea-7d6b5ae33ba0",
          "GT2": "[Element:{33dbc029-707c-4e1a-927e-f7f629359b2b}].[Parameter:{3fca1c84-892d-425a-bdd7-74b109034362}]",
          "GT3": "3fca1c84-892d-425a-bdd7-74b109034362",
          "GT5": "78252e95-b759-416a-9c48-c128fbdf59ef",
          "GT4": "cb455b6f-78ff-4b1e-b241-c2bbc0b37e9f",
          "GT1": {}
        },
        {
          "BL1": "Terrasoft.Core.Process.ProcessSchemaMapping",
          "UId": "45dc8cf7-9c76-4200-b52e-d3fdedd505e6",
          "A2": "ReadDataUserTask1",
          "A3": "9c899b76-2cd5-44ea-8dea-7d6b5ae33ba0",
          "A4": "9c899b76-2cd5-44ea-8dea-7d6b5ae33ba0",
          "GT2": "[Element:{33dbc029-707c-4e1a-927e-f7f629359b2b}].[Parameter:{ed9f5848-3dda-4437-9e45-7efdb7489f6a}]",
          "GT3": "ed9f5848-3dda-4437-9e45-7efdb7489f6a",
          "GT5": "2f797429-6f43-4594-96bb-62fbc7b7deec",
          "GT4": "cb455b6f-78ff-4b1e-b241-c2bbc0b37e9f",
          "GT1": {
            "GS1": 1,
            "GS2": "true",
            "GS5": "cb455b6f-78ff-4b1e-b241-c2bbc0b37e9f"
          }
        },
        {
          "BL1": "Terrasoft.Core.Process.ProcessSchemaMapping",
          "UId": "4cbafd23-9bd1-4825-b6f8-41179c7c1996",
          "A2": "ReadDataUserTask1",
          "A3": "9c899b76-2cd5-44ea-8dea-7d6b5ae33ba0",
          "A4": "9c899b76-2cd5-44ea-8dea-7d6b5ae33ba0",
          "GT2": "[Element:{33dbc029-707c-4e1a-927e-f7f629359b2b}].[Parameter:{591de56b-7ce0-4876-87c1-dc4c3091b976}]",
          "GT3": "591de56b-7ce0-4876-87c1-dc4c3091b976",
          "GT5": "be4a0d16-6a15-41cf-ac44-a8b757565428",
          "GT4": "cb455b6f-78ff-4b1e-b241-c2bbc0b37e9f",
          "GT1": {}
        },
        {
          "BL1": "Terrasoft.Core.Process.ProcessSchemaMapping",
          "UId": "d59c4c11-2a6a-42df-9735-ac1e716c7967",
          "A2": "ReadDataUserTask1",
          "A3": "9c899b76-2cd5-44ea-8dea-7d6b5ae33ba0",
          "A4": "9c899b76-2cd5-44ea-8dea-7d6b5ae33ba0",
          "GT2": "[Element:{33dbc029-707c-4e1a-927e-f7f629359b2b}].[Parameter:{0499eeb3-d16c-4dd4-820c-bb25e6285499}]",
          "GT3": "0499eeb3-d16c-4dd4-820c-bb25e6285499",
          "GT5": "cc12005f-f434-4a40-b9d0-dc8f81755545",
          "GT4": "cb455b6f-78ff-4b1e-b241-c2bbc0b37e9f",
          "GT1": {
            "GS1": 1,
            "GS2": "1e7a4b2e-e641-4d63-a993-c5e34c9fe79a;930bde87-00fe-4524-9b24-34390ebe5f90;fe87b05a-82c9-4da5-b8a3-6d3cbeda2698"
          }
        },
        {
          "BL1": "Terrasoft.Core.Process.ProcessSchemaMapping",
          "UId": "3007cbae-6355-4b07-9073-29c6ce804485",
          "A2": "ReadDataUserTask1",
          "A3": "9c899b76-2cd5-44ea-8dea-7d6b5ae33ba0",
          "A4": "9c899b76-2cd5-44ea-8dea-7d6b5ae33ba0",
          "GT2": "[Element:{33dbc029-707c-4e1a-927e-f7f629359b2b}].[Parameter:{261686c5-bba9-448b-a685-25c2612453fb}]",
          "GT3": "261686c5-bba9-448b-a685-25c2612453fb",
          "GT5": "6dada847-859b-4e0a-9297-b3c9572530b6",
          "GT4": "cb455b6f-78ff-4b1e-b241-c2bbc0b37e9f",
          "GT1": {}
        },
        {
          "BL1": "Terrasoft.Core.Process.ProcessSchemaMapping",
          "UId": "dd97861b-667f-49ac-8ff2-bc516c4cd1e3",
          "A2": "ReadDataUserTask1",
          "A3": "9c899b76-2cd5-44ea-8dea-7d6b5ae33ba0",
          "A4": "9c899b76-2cd5-44ea-8dea-7d6b5ae33ba0",
          "GT2": "[Element:{33dbc029-707c-4e1a-927e-f7f629359b2b}].[Parameter:{0f5c2103-c0a7-4155-964e-2048aea51d45}]",
          "GT3": "0f5c2103-c0a7-4155-964e-2048aea51d45",
          "GT5": "555901ef-f707-4803-a887-1bc07e882096",
          "GT4": "cb455b6f-78ff-4b1e-b241-c2bbc0b37e9f",
          "GT1": {}
        },
        {
          "BL1": "Terrasoft.Core.Process.ProcessSchemaMapping",
          "UId": "f6838944-9d9b-4def-90a5-f257a68bbb3a",
          "A2": "ReadDataUserTask1",
          "A3": "9c899b76-2cd5-44ea-8dea-7d6b5ae33ba0",
          "A4": "9c899b76-2cd5-44ea-8dea-7d6b5ae33ba0",
          "GT2": "[Element:{33dbc029-707c-4e1a-927e-f7f629359b2b}].[Parameter:{4ab36ea4-965c-456f-9225-fc2ce4ffda03}]",
          "GT3": "4ab36ea4-965c-456f-9225-fc2ce4ffda03",
          "GT5": "978b550e-1b81-448a-8700-9c9190c3a2a4",
          "GT4": "cb455b6f-78ff-4b1e-b241-c2bbc0b37e9f",
          "GT1": {
            "GS1": 3,
            "GS2": "true",
            "GS5": "cb455b6f-78ff-4b1e-b241-c2bbc0b37e9f",
            "GS8": "false"
          }
        },
        {
          "BL1": "Terrasoft.Core.Process.ProcessSchemaMapping",
          "UId": "8943ea74-a46a-4644-b4fc-b8d00bf9f73a",
          "A2": "AddDataUserTask1",
          "A3": "9c899b76-2cd5-44ea-8dea-7d6b5ae33ba0",
          "A4": "9c899b76-2cd5-44ea-8dea-7d6b5ae33ba0",
          "GT2": "[Element:{2999dd7a-5f03-42c5-998a-77b215d8a3a7}].[Parameter:{f36cbb53-3cbc-4d53-9675-c4d29e4a9eb6}]",
          "GT3": "f36cbb53-3cbc-4d53-9675-c4d29e4a9eb6",
          "GT5": "4573b9c8-b4d4-442e-a499-682e7b31ab10",
          "GT4": "db6abed1-0c5f-455b-8053-2665378cdb71",
          "GT1": {
            "GS1": 1,
            "GS2": "d41e5c00-adff-466e-8e0d-e6a332c9dd48"
          }
        },
        {
          "BL1": "Terrasoft.Core.Process.ProcessSchemaMapping",
          "UId": "748404b5-876c-4346-9c09-22000c43a70f",
          "A2": "AddDataUserTask1",
          "A3": "9c899b76-2cd5-44ea-8dea-7d6b5ae33ba0",
          "A4": "9c899b76-2cd5-44ea-8dea-7d6b5ae33ba0",
          "GT2": "[Element:{2999dd7a-5f03-42c5-998a-77b215d8a3a7}].[Parameter:{0c614d39-156e-47a6-8dea-02aa9213dcd8}]",
          "GT3": "0c614d39-156e-47a6-8dea-02aa9213dcd8",
          "GT5": "24151caf-0cf3-48bb-862c-ba9a0ddc4b29",
          "GT4": "db6abed1-0c5f-455b-8053-2665378cdb71",
          "GT1": {}
        },
        {
          "BL1": "Terrasoft.Core.Process.ProcessSchemaMapping",
          "UId": "60603afc-666c-4afa-8c3b-a8bfb6d0b563",
          "A2": "AddDataUserTask1",
          "A3": "9c899b76-2cd5-44ea-8dea-7d6b5ae33ba0",
          "A4": "9c899b76-2cd5-44ea-8dea-7d6b5ae33ba0",
          "GT2": "[Element:{2999dd7a-5f03-42c5-998a-77b215d8a3a7}].[Parameter:{6eee627a-e95c-4635-a1b0-42c409e2fc23}]",
          "GT3": "6eee627a-e95c-4635-a1b0-42c409e2fc23",
          "GT5": "06ad8e3f-90fc-4aa2-922d-3fa9c386f7fc",
          "GT4": "db6abed1-0c5f-455b-8053-2665378cdb71",
          "GT1": {
            "GS1": 1,
            "GS2": "0"
          }
        },
        {
          "BL1": "Terrasoft.Core.Process.ProcessSchemaMapping",
          "UId": "f3ff7dbe-6a7c-4544-92b4-41246ddcce99",
          "A2": "AddDataUserTask1",
          "A3": "9c899b76-2cd5-44ea-8dea-7d6b5ae33ba0",
          "A4": "9c899b76-2cd5-44ea-8dea-7d6b5ae33ba0",
          "GT2": "[Element:{2999dd7a-5f03-42c5-998a-77b215d8a3a7}].[Parameter:{d21a02e0-d250-4370-b54c-623ac0583c1d}]",
          "GT3": "d21a02e0-d250-4370-b54c-623ac0583c1d",
          "GT5": "cb4a4921-dd8e-4b41-b4f9-539408697296",
          "GT4": "db6abed1-0c5f-455b-8053-2665378cdb71",
          "GT1": {}
        },
        {
          "BL1": "Terrasoft.Core.Process.ProcessSchemaMapping",
          "UId": "06658b7f-e410-4cf5-b761-4e3cf7ad5e7d",
          "A2": "AddDataUserTask1",
          "A3": "9c899b76-2cd5-44ea-8dea-7d6b5ae33ba0",
          "A4": "9c899b76-2cd5-44ea-8dea-7d6b5ae33ba0",
          "GT2": "[Element:{2999dd7a-5f03-42c5-998a-77b215d8a3a7}].[Parameter:{0794026c-11a1-4b97-8ac9-b13680c268a1}]",
          "GT3": "0794026c-11a1-4b97-8ac9-b13680c268a1",
          "GT5": "f1b0cf15-8edd-4df1-948f-7dd046622d22",
          "GT4": "db6abed1-0c5f-455b-8053-2665378cdb71",
          "GT1": {
            "GS1": 1,
            "GS2": "{\"$type\":\"Terrasoft.Core.Process.LocalizableParameterValuesList, Terrasoft.Core\",\"$values\":[{\"ItemUId\":\"0494941b-74a4-4ffc-bfc9-dd24d443affc\",\"columnMetaPath\":{\"value\":\"b95e5ffd-681b-4541-9e26-32f1752cdf8f\"},\"schemaUId\":{\"value\":\"d41e5c00-adff-466e-8e0d-e6a332c9dd48\"},\"value\":{\"value\":\"[#[IsOwnerSchema:false].[IsSchema:false].[Element:{33dbc029-707c-4e1a-927e-f7f629359b2b}].[Parameter:{15c5530d-3a59-438b-b197-e503762d4c3a}].[EntityColumn:{1e7a4b2e-e641-4d63-a993-c5e34c9fe79a}]#]\"},\"displayValue\":{\"value\":\"[#Чтение данных из новой записи Квота порта.Первый элемент результирующей коллекции.Дата#]\"},\"parameterValue\":{\"value\":\"{\\\"$type\\\":\\\"Terrasoft.Core.Process.ProcessSchemaParameterValue, Terrasoft.Core\\\",\\\"Source\\\":3,\\\"DisplayValue\\\":\\\"\\\",\\\"Value\\\":\\\"\\\",\\\"MetaPath\\\":null,\\\"MetaDataValue\\\":null,\\\"ModifiedInSchemaUId\\\":\\\"00000000-0000-0000-0000-000000000000\\\",\\\"SchemaUId\\\":\\\"00000000-0000-0000-0000-000000000000\\\",\\\"SchemaManagerName\\\":\\\"\\\",\\\"DataValueTypeUId\\\":\\\"d21e9ef4-c064-4012-b286-fa1a8171da44\\\",\\\"ReferenceSchemaUId\\\":\\\"00000000-0000-0000-0000-000000000000\\\",\\\"ResourceItemName\\\":null}\"}},{\"ItemUId\":\"3ea01a88-e526-4dec-9015-d5cfaf063571\",\"columnMetaPath\":{\"value\":\"56a2f7d8-5f26-4427-9816-2275989956e3\"},\"schemaUId\":{\"value\":\"d41e5c00-adff-466e-8e0d-e6a332c9dd48\"},\"value\":{\"value\":\"[#[IsOwnerSchema:false].[IsSchema:false].[Element:{3c2f2f60-de7d-4c15-8068-1e804f9825e8}].[Parameter:{050010e8-cca8-49c8-b7a8-d9e6a8cdf64a}].[EntityColumn:{7b86af33-c10a-8572-938e-fb405a2bc302}]#]\"},\"displayValue\":{\"value\":\"[#Читать Терминал.Первый элемент результирующей коллекции.Контрагент#]\"},\"parameterValue\":{\"value\":\"{\\\"$type\\\":\\\"Terrasoft.Core.Process.ProcessSchemaParameterValue, Terrasoft.Core\\\",\\\"Source\\\":3,\\\"DisplayValue\\\":\\\"\\\",\\\"Value\\\":\\\"\\\",\\\"MetaPath\\\":null,\\\"MetaDataValue\\\":null,\\\"ModifiedInSchemaUId\\\":\\\"00000000-0000-0000-0000-000000000000\\\",\\\"SchemaUId\\\":\\\"00000000-0000-0000-0000-000000000000\\\",\\\"SchemaManagerName\\\":\\\"\\\",\\\"DataValueTypeUId\\\":\\\"b295071f-7ea9-4e62-8d1a-919bf3732ff2\\\",\\\"ReferenceSchemaUId\\\":\\\"25d7c1ab-1de0-4501-b402-02e0e5a72d6e\\\",\\\"ResourceItemName\\\":null}\"}},{\"ItemUId\":\"e63e1fa9-6556-4ef4-acc3-bcb28e711aeb\",\"columnMetaPath\":{\"value\":\"09a691ab-6fe3-47aa-8849-6b23b7028a85\"},\"schemaUId\":{\"value\":\"d41e5c00-adff-466e-8e0d-e6a332c9dd48\"},\"value\":{\"value\":\"[#[IsOwnerSchema:false].[IsSchema:false].[Element:{33dbc029-707c-4e1a-927e-f7f629359b2b}].[Parameter:{15c5530d-3a59-438b-b197-e503762d4c3a}].[EntityColumn:{fe87b05a-82c9-4da5-b8a3-6d3cbeda2698}]#]\"},\"displayValue\":{\"value\":\"[#Чтение данных из новой записи Квота порта.Первый элемент результирующей коллекции.Терминал#]\"},\"parameterValue\":{\"value\":\"{\\\"$type\\\":\\\"Terrasoft.Core.Process.ProcessSchemaParameterValue, Terrasoft.Core\\\",\\\"Source\\\":3,\\\"DisplayValue\\\":\\\"\\\",\\\"Value\\\":\\\"\\\",\\\"MetaPath\\\":null,\\\"MetaDataValue\\\":null,\\\"ModifiedInSchemaUId\\\":\\\"00000000-0000-0000-0000-000000000000\\\",\\\"SchemaUId\\\":\\\"00000000-0000-0000-0000-000000000000\\\",\\\"SchemaManagerName\\\":\\\"\\\",\\\"DataValueTypeUId\\\":\\\"b295071f-7ea9-4e62-8d1a-919bf3732ff2\\\",\\\"ReferenceSchemaUId\\\":\\\"be7fccbb-d5d1-43b2-8402-0986e8c2faca\\\",\\\"ResourceItemName\\\":null}\"}}]}",
            "GS5": "9c899b76-2cd5-44ea-8dea-7d6b5ae33ba0"
          }
        },
        {
          "BL1": "Terrasoft.Core.Process.ProcessSchemaMapping",
          "UId": "3d028288-3fe7-450e-be5a-55552c03a544",
          "A2": "AddDataUserTask1",
          "A3": "9c899b76-2cd5-44ea-8dea-7d6b5ae33ba0",
          "A4": "9c899b76-2cd5-44ea-8dea-7d6b5ae33ba0",
          "GT2": "[Element:{2999dd7a-5f03-42c5-998a-77b215d8a3a7}].[Parameter:{80923490-afc8-40c0-bf42-cc9e044a30ed}]",
          "GT3": "80923490-afc8-40c0-bf42-cc9e044a30ed",
          "GT5": "01b58ce0-aa7f-40c5-a5c6-b4ddffb5d0c7",
          "GT4": "db6abed1-0c5f-455b-8053-2665378cdb71",
          "GT1": {}
        },
        {
          "BL1": "Terrasoft.Core.Process.ProcessSchemaMapping",
          "UId": "ef87d3a1-ede0-4ba9-ba36-56f169806da4",
          "A2": "AddDataUserTask1",
          "A3": "9c899b76-2cd5-44ea-8dea-7d6b5ae33ba0",
          "A4": "9c899b76-2cd5-44ea-8dea-7d6b5ae33ba0",
          "GT2": "[Element:{2999dd7a-5f03-42c5-998a-77b215d8a3a7}].[Parameter:{b581960f-0aff-43de-ab88-7618c4194fc5}]",
          "GT3": "b581960f-0aff-43de-ab88-7618c4194fc5",
          "GT5": "01eaeba6-132f-7d0d-4ecc-67b990f6bd5a",
          "GT4": "db6abed1-0c5f-455b-8053-2665378cdb71",
          "GT1": {
            "GS1": 3,
            "GS2": "true",
            "GS5": "db6abed1-0c5f-455b-8053-2665378cdb71",
            "GS8": "false"
          }
        },
        {
          "BL1": "Terrasoft.Core.Process.ProcessSchemaMapping",
          "UId": "f7ed76b4-6803-4fc8-a787-142fb9c98caf",
          "A2": "ReadDataUserTask2",
          "A3": "9c899b76-2cd5-44ea-8dea-7d6b5ae33ba0",
          "A4": "9c899b76-2cd5-44ea-8dea-7d6b5ae33ba0",
          "GT2": "[Element:{3c2f2f60-de7d-4c15-8068-1e804f9825e8}].[Parameter:{d802b66e-e419-41fd-8641-0a87e5dc23d5}]",
          "GT3": "d802b66e-e419-41fd-8641-0a87e5dc23d5",
          "GT5": "5d9ac9a7-7782-49ce-8990-dcb1c73832b0",
          "GT4": "cb455b6f-78ff-4b1e-b241-c2bbc0b37e9f",
          "GT1": {
            "GS1": 1,
            "GS2": "{\"className\":\"Terrasoft.FilterGroup\",\"serializedFilterEditData\":\"{\\\"className\\\":\\\"Terrasoft.FilterGroup\\\",\\\"items\\\":{\\\"3eb3c98a-a1d7-4509-9762-d5982e600042\\\":{\\\"className\\\":\\\"Terrasoft.CompareFilter\\\",\\\"filterType\\\":1,\\\"comparisonType\\\":3,\\\"isEnabled\\\":true,\\\"trimDateTimeParameterToDate\\\":false,\\\"leftExpression\\\":{\\\"className\\\":\\\"Terrasoft.ColumnExpression\\\",\\\"expressionType\\\":0,\\\"columnPath\\\":\\\"Id\\\"},\\\"isAggregative\\\":false,\\\"key\\\":\\\"3eb3c98a-a1d7-4509-9762-d5982e600042\\\",\\\"dataValueType\\\":0,\\\"leftExpressionCaption\\\":\\\"Id\\\",\\\"rightExpression\\\":{\\\"className\\\":\\\"Terrasoft.ParameterExpression\\\",\\\"expressionType\\\":2,\\\"parameter\\\":{\\\"className\\\":\\\"Terrasoft.Parameter\\\",\\\"dataValueType\\\":26,\\\"value\\\":{\\\"value\\\":\\\"[IsOwnerSchema:false].[IsSchema:false].[Element:{33dbc029-707c-4e1a-927e-f7f629359b2b}].[Parameter:{15c5530d-3a59-438b-b197-e503762d4c3a}].[EntityColumn:{fe87b05a-82c9-4da5-b8a3-6d3cbeda2698}]\\\",\\\"displayValue\\\":\\\"Чтение данных из новой записи Квота порта.Первый элемент результирующей коллекции.Терминал\\\"}}}}},\\\"logicalOperation\\\":0,\\\"isEnabled\\\":true,\\\"filterType\\\":6,\\\"rootSchemaName\\\":\\\"CrocTerminal\\\",\\\"key\\\":\\\"\\\"}\",\"dataSourceFilters\":\"{\\\"items\\\":{\\\"3eb3c98a-a1d7-4509-9762-d5982e600042\\\":{\\\"filterType\\\":1,\\\"comparisonType\\\":3,\\\"isEnabled\\\":true,\\\"trimDateTimeParameterToDate\\\":false,\\\"leftExpression\\\":{\\\"expressionType\\\":0,\\\"columnPath\\\":\\\"Id\\\"},\\\"rightExpression\\\":{\\\"expressionType\\\":2,\\\"parameter\\\":{\\\"dataValueType\\\":26,\\\"value\\\":{\\\"value\\\":\\\"[IsOwnerSchema:false].[IsSchema:false].[Element:{33dbc029-707c-4e1a-927e-f7f629359b2b}].[Parameter:{15c5530d-3a59-438b-b197-e503762d4c3a}].[EntityColumn:{fe87b05a-82c9-4da5-b8a3-6d3cbeda2698}]\\\"}}}}},\\\"logicalOperation\\\":0,\\\"isEnabled\\\":true,\\\"filterType\\\":6,\\\"rootSchemaName\\\":\\\"CrocTerminal\\\"}\"}",
            "GS5": "9c899b76-2cd5-44ea-8dea-7d6b5ae33ba0"
          }
        },
        {
          "BL1": "Terrasoft.Core.Process.ProcessSchemaMapping",
          "UId": "64160eb1-0c41-45f1-8f24-31660de2f61e",
          "A2": "ReadDataUserTask2",
          "A3": "9c899b76-2cd5-44ea-8dea-7d6b5ae33ba0",
          "A4": "9c899b76-2cd5-44ea-8dea-7d6b5ae33ba0",
          "GT2": "[Element:{3c2f2f60-de7d-4c15-8068-1e804f9825e8}].[Parameter:{d05bf7bc-8c9e-47b9-8d57-5c60524dbf1f}]",
          "GT3": "d05bf7bc-8c9e-47b9-8d57-5c60524dbf1f",
          "GT5": "643e4d6d-7ec8-49f0-842a-066a996fbe8b",
          "GT4": "cb455b6f-78ff-4b1e-b241-c2bbc0b37e9f",
          "GT1": {
            "GS1": 1,
            "GS2": "0",
            "GS5": "cb455b6f-78ff-4b1e-b241-c2bbc0b37e9f"
          }
        },
        {
          "BL1": "Terrasoft.Core.Process.ProcessSchemaMapping",
          "UId": "8c4ff3f0-aefe-4ba3-a073-c096b491f44f",
          "A2": "ReadDataUserTask2",
          "A3": "9c899b76-2cd5-44ea-8dea-7d6b5ae33ba0",
          "A4": "9c899b76-2cd5-44ea-8dea-7d6b5ae33ba0",
          "GT2": "[Element:{3c2f2f60-de7d-4c15-8068-1e804f9825e8}].[Parameter:{4bd1c28f-0cc0-4aec-b11e-e47fe82f4696}]",
          "GT3": "4bd1c28f-0cc0-4aec-b11e-e47fe82f4696",
          "GT5": "29115add-7520-4ad4-8371-d91f537ac913",
          "GT4": "cb455b6f-78ff-4b1e-b241-c2bbc0b37e9f",
          "GT1": {
            "GS1": 1,
            "GS2": "true"
          }
        },
        {
          "BL1": "Terrasoft.Core.Process.ProcessSchemaMapping",
          "UId": "55f89590-6e85-411b-a656-6e32f3fb6a67",
          "A2": "ReadDataUserTask2",
          "A3": "9c899b76-2cd5-44ea-8dea-7d6b5ae33ba0",
          "A4": "9c899b76-2cd5-44ea-8dea-7d6b5ae33ba0",
          "GT2": "[Element:{3c2f2f60-de7d-4c15-8068-1e804f9825e8}].[Parameter:{c55f2bc3-9972-4de1-bc95-891aadb1e7b6}]",
          "GT3": "c55f2bc3-9972-4de1-bc95-891aadb1e7b6",
          "GT5": "f29e5660-c5ef-4d84-8331-9046c3093519",
          "GT4": "cb455b6f-78ff-4b1e-b241-c2bbc0b37e9f",
          "GT1": {
            "GS1": 1,
            "GS2": "50"
          }
        },
        {
          "BL1": "Terrasoft.Core.Process.ProcessSchemaMapping",
          "UId": "dfc86f56-15b1-4ab7-a795-97c0e3216e55",
          "A2": "ReadDataUserTask2",
          "A3": "9c899b76-2cd5-44ea-8dea-7d6b5ae33ba0",
          "A4": "9c899b76-2cd5-44ea-8dea-7d6b5ae33ba0",
          "GT2": "[Element:{3c2f2f60-de7d-4c15-8068-1e804f9825e8}].[Parameter:{5c82eb14-ef37-4dc0-be0a-3f50e991f05d}]",
          "GT3": "5c82eb14-ef37-4dc0-be0a-3f50e991f05d",
          "GT5": "94ba9876-18c1-4a68-bcef-08f7e7f0e25c",
          "GT4": "cb455b6f-78ff-4b1e-b241-c2bbc0b37e9f",
          "GT1": {
            "GS1": 1,
            "GS2": "0"
          }
        },
        {
          "BL1": "Terrasoft.Core.Process.ProcessSchemaMapping",
          "UId": "bf45ba15-bcf9-4730-85ad-05b1b045dbe4",
          "A2": "ReadDataUserTask2",
          "A3": "9c899b76-2cd5-44ea-8dea-7d6b5ae33ba0",
          "A4": "9c899b76-2cd5-44ea-8dea-7d6b5ae33ba0",
          "GT2": "[Element:{3c2f2f60-de7d-4c15-8068-1e804f9825e8}].[Parameter:{d00092a9-6fc2-48f2-8564-4b3ecfdbbf78}]",
          "GT3": "d00092a9-6fc2-48f2-8564-4b3ecfdbbf78",
          "GT5": "cb5d6d26-7e81-4cbe-8730-8b7169000d14",
          "GT4": "cb455b6f-78ff-4b1e-b241-c2bbc0b37e9f",
          "GT1": {}
        },
        {
          "BL1": "Terrasoft.Core.Process.ProcessSchemaMapping",
          "UId": "3b980f00-c77f-4c0a-b7df-0635bd852f1a",
          "A2": "ReadDataUserTask2",
          "A3": "9c899b76-2cd5-44ea-8dea-7d6b5ae33ba0",
          "A4": "9c899b76-2cd5-44ea-8dea-7d6b5ae33ba0",
          "GT2": "[Element:{3c2f2f60-de7d-4c15-8068-1e804f9825e8}].[Parameter:{885995db-2b53-495e-af99-82bbe76e3e78}]",
          "GT3": "885995db-2b53-495e-af99-82bbe76e3e78",
          "GT5": "473e79e2-727e-40a7-8829-7eefc576b403",
          "GT4": "cb455b6f-78ff-4b1e-b241-c2bbc0b37e9f",
          "GT1": {
            "GS1": 1,
            "GS2": "Name:1:1"
          }
        },
        {
          "BL1": "Terrasoft.Core.Process.ProcessSchemaMapping",
          "UId": "38530213-9656-419c-a0f0-91e4a06004d1",
          "A2": "ReadDataUserTask2",
          "A3": "9c899b76-2cd5-44ea-8dea-7d6b5ae33ba0",
          "A4": "9c899b76-2cd5-44ea-8dea-7d6b5ae33ba0",
          "GT2": "[Element:{3c2f2f60-de7d-4c15-8068-1e804f9825e8}].[Parameter:{050010e8-cca8-49c8-b7a8-d9e6a8cdf64a}]",
          "GT3": "050010e8-cca8-49c8-b7a8-d9e6a8cdf64a",
          "GT5": "e2fced10-4842-423e-ada0-523bf7ea8ad3",
          "GT4": "cb455b6f-78ff-4b1e-b241-c2bbc0b37e9f",
          "GT1": {
            "GS1": 1
          }
        },
        {
          "BL1": "Terrasoft.Core.Process.ProcessSchemaMapping",
          "UId": "d374a3e9-ec74-416f-b5d7-650542b6948c",
          "A2": "ReadDataUserTask2",
          "A3": "9c899b76-2cd5-44ea-8dea-7d6b5ae33ba0",
          "A4": "9c899b76-2cd5-44ea-8dea-7d6b5ae33ba0",
          "GT2": "[Element:{3c2f2f60-de7d-4c15-8068-1e804f9825e8}].[Parameter:{ca98ebea-18f2-4c85-b2e2-9031af86ff12}]",
          "GT3": "ca98ebea-18f2-4c85-b2e2-9031af86ff12",
          "GT5": "2e63ea99-8125-4254-88bd-20d3610bd471",
          "GT4": "cb455b6f-78ff-4b1e-b241-c2bbc0b37e9f",
          "GT1": {}
        },
        {
          "BL1": "Terrasoft.Core.Process.ProcessSchemaMapping",
          "UId": "988709e1-9a52-4e2d-a50c-ee6e86396ada",
          "A2": "ReadDataUserTask2",
          "A3": "9c899b76-2cd5-44ea-8dea-7d6b5ae33ba0",
          "A4": "9c899b76-2cd5-44ea-8dea-7d6b5ae33ba0",
          "GT2": "[Element:{3c2f2f60-de7d-4c15-8068-1e804f9825e8}].[Parameter:{24f952e8-5130-4d82-a537-78a02875ce9f}]",
          "GT3": "24f952e8-5130-4d82-a537-78a02875ce9f",
          "GT5": "a3660fce-a8f9-4a68-a3c1-b4f2f7983635",
          "GT4": "cb455b6f-78ff-4b1e-b241-c2bbc0b37e9f",
          "GT1": {}
        },
        {
          "BL1": "Terrasoft.Core.Process.ProcessSchemaMapping",
          "UId": "ba71523a-4e7b-439e-81ed-5c1ffb293fc9",
          "A2": "ReadDataUserTask2",
          "A3": "9c899b76-2cd5-44ea-8dea-7d6b5ae33ba0",
          "A4": "9c899b76-2cd5-44ea-8dea-7d6b5ae33ba0",
          "GT2": "[Element:{3c2f2f60-de7d-4c15-8068-1e804f9825e8}].[Parameter:{fb04bd89-e029-4f62-8a09-473d7897b686}]",
          "GT3": "fb04bd89-e029-4f62-8a09-473d7897b686",
          "GT5": "9a594933-75da-4304-b6a3-5945dba159e3",
          "GT4": "cb455b6f-78ff-4b1e-b241-c2bbc0b37e9f",
          "GT1": {}
        },
        {
          "BL1": "Terrasoft.Core.Process.ProcessSchemaMapping",
          "UId": "d1fa77ca-4918-4b05-bf49-a51a9187c112",
          "A2": "ReadDataUserTask2",
          "A3": "9c899b76-2cd5-44ea-8dea-7d6b5ae33ba0",
          "A4": "9c899b76-2cd5-44ea-8dea-7d6b5ae33ba0",
          "GT2": "[Element:{3c2f2f60-de7d-4c15-8068-1e804f9825e8}].[Parameter:{de35e572-0b15-4b95-90da-cddcaa99f820}]",
          "GT3": "de35e572-0b15-4b95-90da-cddcaa99f820",
          "GT5": "11fb235f-c06a-4111-84cd-a5dbf9a440d5",
          "GT4": "cb455b6f-78ff-4b1e-b241-c2bbc0b37e9f",
          "GT1": {}
        },
        {
          "BL1": "Terrasoft.Core.Process.ProcessSchemaMapping",
          "UId": "be875e5b-e0d2-46a9-91b7-402fd342ecde",
          "A2": "ReadDataUserTask2",
          "A3": "9c899b76-2cd5-44ea-8dea-7d6b5ae33ba0",
          "A4": "9c899b76-2cd5-44ea-8dea-7d6b5ae33ba0",
          "GT2": "[Element:{3c2f2f60-de7d-4c15-8068-1e804f9825e8}].[Parameter:{ec5a157c-6f5d-4834-be95-8360d16dc38c}]",
          "GT3": "ec5a157c-6f5d-4834-be95-8360d16dc38c",
          "GT5": "78252e95-b759-416a-9c48-c128fbdf59ef",
          "GT4": "cb455b6f-78ff-4b1e-b241-c2bbc0b37e9f",
          "GT1": {}
        },
        {
          "BL1": "Terrasoft.Core.Process.ProcessSchemaMapping",
          "UId": "0e30f29e-440d-4a5f-a2c8-c0d5483c2962",
          "A2": "ReadDataUserTask2",
          "A3": "9c899b76-2cd5-44ea-8dea-7d6b5ae33ba0",
          "A4": "9c899b76-2cd5-44ea-8dea-7d6b5ae33ba0",
          "GT2": "[Element:{3c2f2f60-de7d-4c15-8068-1e804f9825e8}].[Parameter:{2ab40a21-3308-4926-86c5-fe65c46b5785}]",
          "GT3": "2ab40a21-3308-4926-86c5-fe65c46b5785",
          "GT5": "2f797429-6f43-4594-96bb-62fbc7b7deec",
          "GT4": "cb455b6f-78ff-4b1e-b241-c2bbc0b37e9f",
          "GT1": {
            "GS1": 1,
            "GS2": "true",
            "GS5": "cb455b6f-78ff-4b1e-b241-c2bbc0b37e9f"
          }
        },
        {
          "BL1": "Terrasoft.Core.Process.ProcessSchemaMapping",
          "UId": "5482f0b1-731d-4961-bb16-2d5a2176a416",
          "A2": "ReadDataUserTask2",
          "A3": "9c899b76-2cd5-44ea-8dea-7d6b5ae33ba0",
          "A4": "9c899b76-2cd5-44ea-8dea-7d6b5ae33ba0",
          "GT2": "[Element:{3c2f2f60-de7d-4c15-8068-1e804f9825e8}].[Parameter:{e4a449a5-3565-48c3-861a-42dd748e6e2c}]",
          "GT3": "e4a449a5-3565-48c3-861a-42dd748e6e2c",
          "GT5": "be4a0d16-6a15-41cf-ac44-a8b757565428",
          "GT4": "cb455b6f-78ff-4b1e-b241-c2bbc0b37e9f",
          "GT1": {}
        },
        {
          "BL1": "Terrasoft.Core.Process.ProcessSchemaMapping",
          "UId": "8486ef58-2c11-4061-afe5-0f8127788ff3",
          "A2": "ReadDataUserTask2",
          "A3": "9c899b76-2cd5-44ea-8dea-7d6b5ae33ba0",
          "A4": "9c899b76-2cd5-44ea-8dea-7d6b5ae33ba0",
          "GT2": "[Element:{3c2f2f60-de7d-4c15-8068-1e804f9825e8}].[Parameter:{1abbf7df-028f-44e8-95fa-29eddce3fdf8}]",
          "GT3": "1abbf7df-028f-44e8-95fa-29eddce3fdf8",
          "GT5": "cc12005f-f434-4a40-b9d0-dc8f81755545",
          "GT4": "cb455b6f-78ff-4b1e-b241-c2bbc0b37e9f",
          "GT1": {}
        },
        {
          "BL1": "Terrasoft.Core.Process.ProcessSchemaMapping",
          "UId": "8e9258d6-e9b8-4cd0-8124-811364da8e6d",
          "A2": "ReadDataUserTask2",
          "A3": "9c899b76-2cd5-44ea-8dea-7d6b5ae33ba0",
          "A4": "9c899b76-2cd5-44ea-8dea-7d6b5ae33ba0",
          "GT2": "[Element:{3c2f2f60-de7d-4c15-8068-1e804f9825e8}].[Parameter:{a44ad0c8-4c99-4e6b-9de3-899b49f844fe}]",
          "GT3": "a44ad0c8-4c99-4e6b-9de3-899b49f844fe",
          "GT5": "6dada847-859b-4e0a-9297-b3c9572530b6",
          "GT4": "cb455b6f-78ff-4b1e-b241-c2bbc0b37e9f",
          "GT1": {}
        },
        {
          "BL1": "Terrasoft.Core.Process.ProcessSchemaMapping",
          "UId": "95c1279b-1c23-4f13-9bcb-79da2191451a",
          "A2": "ReadDataUserTask2",
          "A3": "9c899b76-2cd5-44ea-8dea-7d6b5ae33ba0",
          "A4": "9c899b76-2cd5-44ea-8dea-7d6b5ae33ba0",
          "GT2": "[Element:{3c2f2f60-de7d-4c15-8068-1e804f9825e8}].[Parameter:{a77ed960-15a2-4ee0-b0fe-74cd638e1096}]",
          "GT3": "a77ed960-15a2-4ee0-b0fe-74cd638e1096",
          "GT5": "555901ef-f707-4803-a887-1bc07e882096",
          "GT4": "cb455b6f-78ff-4b1e-b241-c2bbc0b37e9f",
          "GT1": {}
        },
        {
          "BL1": "Terrasoft.Core.Process.ProcessSchemaMapping",
          "UId": "47438675-1ab0-4655-b769-a13bdcfb66f6",
          "A2": "ReadDataUserTask2",
          "A3": "9c899b76-2cd5-44ea-8dea-7d6b5ae33ba0",
          "A4": "9c899b76-2cd5-44ea-8dea-7d6b5ae33ba0",
          "GT2": "[Element:{3c2f2f60-de7d-4c15-8068-1e804f9825e8}].[Parameter:{4c7880cb-6671-410c-90ae-d358faee26ef}]",
          "GT3": "4c7880cb-6671-410c-90ae-d358faee26ef",
          "GT5": "978b550e-1b81-448a-8700-9c9190c3a2a4",
          "GT4": "cb455b6f-78ff-4b1e-b241-c2bbc0b37e9f",
          "GT1": {
            "GS1": 3,
            "GS2": "true",
            "GS5": "cb455b6f-78ff-4b1e-b241-c2bbc0b37e9f",
            "GS8": "false"
          }
        }
      ],
      "BK37": {
        "BL1": "Terrasoft.Core.Process.ProcessSchemaParameter",
        "UId": "cdd58be7-2dba-4a5e-869b-1ad5d6d7513a",
        "A2": "NotificationCaption",
        "A3": "9c899b76-2cd5-44ea-8dea-7d6b5ae33ba0",
        "A4": "9c899b76-2cd5-44ea-8dea-7d6b5ae33ba0",
        "L1": "8b3f29bb-ea14-4ce5-a5c5-293a929b6ba2",
        "L8": {
          "GS1": 3,
          "GS2": "[#[PropertyValue:Caption]#]"
        }
      },
      "BK1": "FFFFFFFF",
      "BK2": "FFBBBBBB",
      "BK3": [
        {
          "BL1": "Terrasoft.Core.Process.ProcessSchemaLaneSet",
          "UId": "850384ea-8329-47af-9c07-b11d41487283",
          "A2": "LaneSet1",
          "A3": "9c899b76-2cd5-44ea-8dea-7d6b5ae33ba0",
          "A4": "9c899b76-2cd5-44ea-8dea-7d6b5ae33ba0",
          "A5": "8027c309-f63e-4894-a830-daa104b3be05",
          "BL7": "11a47caf-a0d5-41fa-a274-a0b11f77447a",
          "BL8": "9c899b76-2cd5-44ea-8dea-7d6b5ae33ba0",
          "BM1": 0,
          "BM4": [
            {
              "BL1": "Terrasoft.Core.Process.ProcessSchemaLane",
              "UId": "7c502065-4053-4012-8392-e1a5af6addfb",
              "A2": "Lane1",
              "A3": "9c899b76-2cd5-44ea-8dea-7d6b5ae33ba0",
              "A4": "9c899b76-2cd5-44ea-8dea-7d6b5ae33ba0",
              "A5": "8027c309-f63e-4894-a830-daa104b3be05",
              "IL2": "850384ea-8329-47af-9c07-b11d41487283",
              "BL7": "abcd74b9-5912-414b-82ac-f1aa4dcd554e",
              "BL8": "9c899b76-2cd5-44ea-8dea-7d6b5ae33ba0",
              "CD1": [],
              "CD2": [],
              "CD4": "850384ea-8329-47af-9c07-b11d41487283",
              "CD7": []
            }
          ]
        }
      ],
      "BK5": [],
      "BK4": [
        {
          "BL1": "Terrasoft.Core.Process.ProcessSchemaTerminateEvent",
          "UId": "936484a6-414c-4ddc-9cd0-2e32ee325862",
          "A2": "TerminateEvent1",
          "A3": "9c899b76-2cd5-44ea-8dea-7d6b5ae33ba0",
          "A4": "9c899b76-2cd5-44ea-8dea-7d6b5ae33ba0",
          "A5": "8027c309-f63e-4894-a830-daa104b3be05",
          "IL2": "7c502065-4053-4012-8392-e1a5af6addfb",
          "BL3": "769;184",
          "BL7": "1bd93619-0574-454e-bb4e-cf53b9eb9470",
          "BL8": "9c899b76-2cd5-44ea-8dea-7d6b5ae33ba0",
          "BN2": "31;31",
          "BO3": true,
          "FC1": []
        },
        {
          "BL1": "Terrasoft.Core.Process.ProcessSchemaStartSignalEvent",
          "UId": "cbe62bb1-d1b8-4897-bbf2-85f79697048b",
          "A2": "StartSignal1",
          "A3": "9c899b76-2cd5-44ea-8dea-7d6b5ae33ba0",
          "A4": "9c899b76-2cd5-44ea-8dea-7d6b5ae33ba0",
          "A5": "8027c309-f63e-4894-a830-daa104b3be05",
          "IL2": "7c502065-4053-4012-8392-e1a5af6addfb",
          "IL3": true,
          "BL3": "50;184",
          "BL7": "1129e72f-0e8c-445a-b2ea-463517e86395",
          "BL8": "9c899b76-2cd5-44ea-8dea-7d6b5ae33ba0",
          "BN2": "31;31",
          "BO3": true,
          "FC1": [
            {
              "BL1": "Terrasoft.Core.Process.ProcessSchemaParameter",
              "UId": "19287614-a50d-4eca-9456-9d218e6701e0",
              "A2": "RecordId",
              "A3": "9c899b76-2cd5-44ea-8dea-7d6b5ae33ba0",
              "A4": "9c899b76-2cd5-44ea-8dea-7d6b5ae33ba0",
              "IL2": "cbe62bb1-d1b8-4897-bbf2-85f79697048b",
              "L1": "23018567-a13c-4320-8687-fd6f9e3699bd",
              "L8": {
                "GS1": 1,
                "GS2": ""
              }
            }
          ],
          "FC2": "33c82e76-a35b-4e97-ae62-07200fe630b0",
          "ED1": false,
          "DZ1": "null",
          "DZ2": false,
          "DZ3": true,
          "DZ5": 1,
          "DZ8": true,
          "DZ12": "{\"$type\":\"System.Collections.ObjectModel.Collection`1[[System.String, mscorlib]], mscorlib\",\"$values\":[]}",
          "DZ13": "{\"className\":\"Terrasoft.FilterGroup\",\"serializedFilterEditData\":\"{\\\"className\\\":\\\"Terrasoft.FilterGroup\\\",\\\"items\\\":{\\\"cc470d2c-cc56-4e9a-80bc-9457ce6e3813\\\":{\\\"className\\\":\\\"Terrasoft.CompareFilter\\\",\\\"filterType\\\":1,\\\"comparisonType\\\":3,\\\"isEnabled\\\":true,\\\"trimDateTimeParameterToDate\\\":false,\\\"leftExpression\\\":{\\\"className\\\":\\\"Terrasoft.ColumnExpression\\\",\\\"expressionType\\\":0,\\\"columnPath\\\":\\\"CrocVolume\\\"},\\\"isAggregative\\\":false,\\\"key\\\":\\\"cc470d2c-cc56-4e9a-80bc-9457ce6e3813\\\",\\\"dataValueType\\\":5,\\\"leftExpressionCaption\\\":\\\"Объем, тонны\\\",\\\"rightExpression\\\":{\\\"className\\\":\\\"Terrasoft.ParameterExpression\\\",\\\"expressionType\\\":2,\\\"parameter\\\":{\\\"className\\\":\\\"Terrasoft.Parameter\\\",\\\"dataValueType\\\":5,\\\"value\\\":0}}}},\\\"logicalOperation\\\":0,\\\"isEnabled\\\":true,\\\"filterType\\\":6,\\\"rootSchemaName\\\":\\\"CrocPortQuota\\\",\\\"key\\\":\\\"\\\"}\",\"dataSourceFilters\":\"{\\\"items\\\":{\\\"cc470d2c-cc56-4e9a-80bc-9457ce6e3813\\\":{\\\"filterType\\\":1,\\\"comparisonType\\\":3,\\\"isEnabled\\\":true,\\\"trimDateTimeParameterToDate\\\":false,\\\"leftExpression\\\":{\\\"expressionType\\\":0,\\\"columnPath\\\":\\\"CrocVolume\\\"},\\\"rightExpression\\\":{\\\"expressionType\\\":2,\\\"parameter\\\":{\\\"dataValueType\\\":5,\\\"value\\\":0}}}},\\\"logicalOperation\\\":0,\\\"isEnabled\\\":true,\\\"filterType\\\":6,\\\"rootSchemaName\\\":\\\"CrocPortQuota\\\"}\"}"
        },
        {
          "BL1": "Terrasoft.Core.Process.ProcessSchemaUserTask",
          "UId": "33dbc029-707c-4e1a-927e-f7f629359b2b",
          "A2": "ReadDataUserTask1",
          "A3": "9c899b76-2cd5-44ea-8dea-7d6b5ae33ba0",
          "A4": "9c899b76-2cd5-44ea-8dea-7d6b5ae33ba0",
          "A5": "8027c309-f63e-4894-a830-daa104b3be05",
          "IL2": "7c502065-4053-4012-8392-e1a5af6addfb",
          "BL3": "209;172",
          "BL7": "cb455b6f-78ff-4b1e-b241-c2bbc0b37e9f",
          "BL8": "9c899b76-2cd5-44ea-8dea-7d6b5ae33ba0",
          "BN2": "69;55",
          "BO2": true,
          "BO3": true,
          "BP2": [
            {
              "BL1": "Terrasoft.Core.Process.ProcessSchemaParameter",
              "UId": "d5feafbd-893d-41a8-84a2-25e02ee0e544",
              "A2": "DataSourceFilters",
              "A3": "cb455b6f-78ff-4b1e-b241-c2bbc0b37e9f",
              "A4": "cb455b6f-78ff-4b1e-b241-c2bbc0b37e9f",
              "A5": "66e9e705-64b4-4dda-925e-d1e05a389eb6",
              "IL2": "33dbc029-707c-4e1a-927e-f7f629359b2b",
              "L1": "394e160f-c8e0-46fa-9c0d-75d97e9e9169",
              "L8": {
                "GS1": 1,
                "GS2": "{\"className\":\"Terrasoft.FilterGroup\",\"serializedFilterEditData\":\"{\\\"className\\\":\\\"Terrasoft.FilterGroup\\\",\\\"items\\\":{\\\"050397fa-6c2c-44d5-89d8-28e7d092ea02\\\":{\\\"className\\\":\\\"Terrasoft.CompareFilter\\\",\\\"filterType\\\":1,\\\"comparisonType\\\":3,\\\"isEnabled\\\":true,\\\"trimDateTimeParameterToDate\\\":false,\\\"leftExpression\\\":{\\\"className\\\":\\\"Terrasoft.ColumnExpression\\\",\\\"expressionType\\\":0,\\\"columnPath\\\":\\\"Id\\\"},\\\"isAggregative\\\":false,\\\"key\\\":\\\"050397fa-6c2c-44d5-89d8-28e7d092ea02\\\",\\\"dataValueType\\\":0,\\\"leftExpressionCaption\\\":\\\"Id\\\",\\\"rightExpression\\\":{\\\"className\\\":\\\"Terrasoft.ParameterExpression\\\",\\\"expressionType\\\":2,\\\"parameter\\\":{\\\"className\\\":\\\"Terrasoft.Parameter\\\",\\\"dataValueType\\\":26,\\\"value\\\":{\\\"value\\\":\\\"[IsOwnerSchema:false].[IsSchema:false].[Element:{cbe62bb1-d1b8-4897-bbf2-85f79697048b}].[Parameter:{19287614-a50d-4eca-9456-9d218e6701e0}]\\\",\\\"displayValue\\\":\\\"Добавлена запись с нулевым объемом.Уникальный идентификатор записи\\\"}}}},\\\"f9b63445-a664-4f3b-9c28-2a59f1460dcb\\\":{\\\"className\\\":\\\"Terrasoft.CompareFilter\\\",\\\"filterType\\\":1,\\\"comparisonType\\\":3,\\\"isEnabled\\\":true,\\\"trimDateTimeParameterToDate\\\":false,\\\"leftExpression\\\":{\\\"className\\\":\\\"Terrasoft.ColumnExpression\\\",\\\"expressionType\\\":0,\\\"columnPath\\\":\\\"Id\\\"},\\\"isAggregative\\\":false,\\\"key\\\":\\\"f9b63445-a664-4f3b-9c28-2a59f1460dcb\\\",\\\"dataValueType\\\":0,\\\"leftExpressionCaption\\\":\\\"Id\\\",\\\"rightExpression\\\":{\\\"className\\\":\\\"Terrasoft.ParameterExpression\\\",\\\"expressionType\\\":2,\\\"parameter\\\":{\\\"className\\\":\\\"Terrasoft.Parameter\\\",\\\"dataValueType\\\":26,\\\"value\\\":{\\\"value\\\":\\\"[IsOwnerSchema:false].[IsSchema:false].[Element:{726c68ac-264b-4855-88f5-21e2c27d992b}].[Parameter:{c47a8547-06de-4546-a89c-64960365046a}]\\\",\\\"displayValue\\\":\\\"Изменена запись квоты порта с нулевым обьемом.Уникальный идентификатор записи\\\"}}}}},\\\"logicalOperation\\\":1,\\\"isEnabled\\\":true,\\\"filterType\\\":6,\\\"rootSchemaName\\\":\\\"CrocPortQuota\\\",\\\"key\\\":\\\"\\\"}\",\"dataSourceFilters\":\"{\\\"items\\\":{\\\"050397fa-6c2c-44d5-89d8-28e7d092ea02\\\":{\\\"filterType\\\":1,\\\"comparisonType\\\":3,\\\"isEnabled\\\":true,\\\"trimDateTimeParameterToDate\\\":false,\\\"leftExpression\\\":{\\\"expressionType\\\":0,\\\"columnPath\\\":\\\"Id\\\"},\\\"rightExpression\\\":{\\\"expressionType\\\":2,\\\"parameter\\\":{\\\"dataValueType\\\":26,\\\"value\\\":{\\\"value\\\":\\\"[IsOwnerSchema:false].[IsSchema:false].[Element:{cbe62bb1-d1b8-4897-bbf2-85f79697048b}].[Parameter:{19287614-a50d-4eca-9456-9d218e6701e0}]\\\"}}}},\\\"f9b63445-a664-4f3b-9c28-2a59f1460dcb\\\":{\\\"filterType\\\":1,\\\"comparisonType\\\":3,\\\"isEnabled\\\":true,\\\"trimDateTimeParameterToDate\\\":false,\\\"leftExpression\\\":{\\\"expressionType\\\":0,\\\"columnPath\\\":\\\"Id\\\"},\\\"rightExpression\\\":{\\\"expressionType\\\":2,\\\"parameter\\\":{\\\"dataValueType\\\":26,\\\"value\\\":{\\\"value\\\":\\\"[IsOwnerSchema:false].[IsSchema:false].[Element:{726c68ac-264b-4855-88f5-21e2c27d992b}].[Parameter:{c47a8547-06de-4546-a89c-64960365046a}]\\\"}}}}},\\\"logicalOperation\\\":1,\\\"isEnabled\\\":true,\\\"filterType\\\":6,\\\"rootSchemaName\\\":\\\"CrocPortQuota\\\"}\"}",
                "GS5": "9c899b76-2cd5-44ea-8dea-7d6b5ae33ba0"
              }
            },
            {
              "BL1": "Terrasoft.Core.Process.ProcessSchemaParameter",
              "UId": "451d48cb-aec6-423b-b803-547774d3be21",
              "A2": "ResultType",
              "A3": "cb455b6f-78ff-4b1e-b241-c2bbc0b37e9f",
              "A4": "cb455b6f-78ff-4b1e-b241-c2bbc0b37e9f",
              "IL2": "33dbc029-707c-4e1a-927e-f7f629359b2b",
              "L1": "6b6b74e2-820d-490e-a017-2b73d4ccf2b0",
              "L8": {
                "GS1": 1,
                "GS2": "0",
                "GS5": "cb455b6f-78ff-4b1e-b241-c2bbc0b37e9f"
              }
            },
            {
              "BL1": "Terrasoft.Core.Process.ProcessSchemaParameter",
              "UId": "55ccff6b-90ea-4fc2-8254-fa1b1a663ec9",
              "A2": "ReadSomeTopRecords",
              "A3": "cb455b6f-78ff-4b1e-b241-c2bbc0b37e9f",
              "A4": "cb455b6f-78ff-4b1e-b241-c2bbc0b37e9f",
              "IL2": "33dbc029-707c-4e1a-927e-f7f629359b2b",
              "L1": "90b65bf8-0ffc-4141-8779-2420877af907",
              "L8": {
                "GS1": 1,
                "GS2": "true",
                "GS5": "9c899b76-2cd5-44ea-8dea-7d6b5ae33ba0"
              }
            },
            {
              "BL1": "Terrasoft.Core.Process.ProcessSchemaParameter",
              "UId": "b040079d-522a-4d3b-9793-35c14b12274a",
              "A2": "NumberOfRecords",
              "A3": "cb455b6f-78ff-4b1e-b241-c2bbc0b37e9f",
              "A4": "cb455b6f-78ff-4b1e-b241-c2bbc0b37e9f",
              "IL2": "33dbc029-707c-4e1a-927e-f7f629359b2b",
              "L1": "6b6b74e2-820d-490e-a017-2b73d4ccf2b0",
              "L8": {
                "GS1": 1,
                "GS2": "50",
                "GS5": "9c899b76-2cd5-44ea-8dea-7d6b5ae33ba0"
              }
            },
            {
              "BL1": "Terrasoft.Core.Process.ProcessSchemaParameter",
              "UId": "b099035a-674e-4eb7-bbb1-2bd9362eb83a",
              "A2": "FunctionType",
              "A3": "cb455b6f-78ff-4b1e-b241-c2bbc0b37e9f",
              "A4": "cb455b6f-78ff-4b1e-b241-c2bbc0b37e9f",
              "IL2": "33dbc029-707c-4e1a-927e-f7f629359b2b",
              "L1": "6b6b74e2-820d-490e-a017-2b73d4ccf2b0",
              "L8": {
                "GS1": 1,
                "GS2": "0",
                "GS5": "9c899b76-2cd5-44ea-8dea-7d6b5ae33ba0"
              }
            },
            {
              "BL1": "Terrasoft.Core.Process.ProcessSchemaParameter",
              "UId": "1e67483d-b5c6-4683-b6dc-40d8405690f7",
              "A2": "AggregationColumnName",
              "A3": "cb455b6f-78ff-4b1e-b241-c2bbc0b37e9f",
              "A4": "cb455b6f-78ff-4b1e-b241-c2bbc0b37e9f",
              "IL2": "33dbc029-707c-4e1a-927e-f7f629359b2b",
              "L1": "394e160f-c8e0-46fa-9c0d-75d97e9e9169",
              "L8": {}
            },
            {
              "BL1": "Terrasoft.Core.Process.ProcessSchemaParameter",
              "UId": "be61d335-9f8e-4eba-ba01-20900425a5f3",
              "A2": "OrderInfo",
              "A3": "cb455b6f-78ff-4b1e-b241-c2bbc0b37e9f",
              "A4": "cb455b6f-78ff-4b1e-b241-c2bbc0b37e9f",
              "IL2": "33dbc029-707c-4e1a-927e-f7f629359b2b",
              "L1": "394e160f-c8e0-46fa-9c0d-75d97e9e9169",
              "L8": {
                "GS1": 1,
                "GS2": "CrocName:1:1",
                "GS5": "9c899b76-2cd5-44ea-8dea-7d6b5ae33ba0"
              }
            },
            {
              "BL1": "Terrasoft.Core.Process.ProcessSchemaParameter",
              "UId": "15c5530d-3a59-438b-b197-e503762d4c3a",
              "A2": "ResultEntity",
              "A3": "cb455b6f-78ff-4b1e-b241-c2bbc0b37e9f",
              "A4": "cb455b6f-78ff-4b1e-b241-c2bbc0b37e9f",
              "A5": "66e9e705-64b4-4dda-925e-d1e05a389eb6",
              "IL2": "33dbc029-707c-4e1a-927e-f7f629359b2b",
              "L1": "ebd85d37-0abf-4bbf-bb32-97dc3dffcc8c",
              "L8": {
                "GS1": 1,
                "GS5": "9c899b76-2cd5-44ea-8dea-7d6b5ae33ba0"
              },
              "L9": "33c82e76-a35b-4e97-ae62-07200fe630b0",
              "L13": true
            },
            {
              "BL1": "Terrasoft.Core.Process.ProcessSchemaParameter",
              "UId": "c5f12219-8f3f-4cf9-a01d-f3c13aea3ea4",
              "A2": "ResultCount",
              "A3": "cb455b6f-78ff-4b1e-b241-c2bbc0b37e9f",
              "A4": "cb455b6f-78ff-4b1e-b241-c2bbc0b37e9f",
              "IL2": "33dbc029-707c-4e1a-927e-f7f629359b2b",
              "L1": "6b6b74e2-820d-490e-a017-2b73d4ccf2b0",
              "L8": {}
            },
            {
              "BL1": "Terrasoft.Core.Process.ProcessSchemaParameter",
              "UId": "644852db-7a84-41a1-bed6-5b0652cac772",
              "A2": "ResultIntegerFunction",
              "A3": "cb455b6f-78ff-4b1e-b241-c2bbc0b37e9f",
              "A4": "cb455b6f-78ff-4b1e-b241-c2bbc0b37e9f",
              "IL2": "33dbc029-707c-4e1a-927e-f7f629359b2b",
              "L1": "6b6b74e2-820d-490e-a017-2b73d4ccf2b0",
              "L8": {}
            },
            {
              "BL1": "Terrasoft.Core.Process.ProcessSchemaParameter",
              "UId": "a1148bcb-9204-42b3-9cff-adfce904439c",
              "A2": "ResultFloatFunction",
              "A3": "cb455b6f-78ff-4b1e-b241-c2bbc0b37e9f",
              "A4": "cb455b6f-78ff-4b1e-b241-c2bbc0b37e9f",
              "IL2": "33dbc029-707c-4e1a-927e-f7f629359b2b",
              "L1": "ff22e049-4d16-46ee-a529-92d8808932dc",
              "L8": {}
            },
            {
              "BL1": "Terrasoft.Core.Process.ProcessSchemaParameter",
              "UId": "d3845a6a-c142-4fee-b1a2-3cf3da18f18e",
              "A2": "ResultDateTimeFunction",
              "A3": "cb455b6f-78ff-4b1e-b241-c2bbc0b37e9f",
              "A4": "cb455b6f-78ff-4b1e-b241-c2bbc0b37e9f",
              "IL2": "33dbc029-707c-4e1a-927e-f7f629359b2b",
              "L1": "d21e9ef4-c064-4012-b286-fa1a8171da44",
              "L8": {}
            },
            {
              "BL1": "Terrasoft.Core.Process.ProcessSchemaParameter",
              "UId": "3fca1c84-892d-425a-bdd7-74b109034362",
              "A2": "ResultRowsCount",
              "A3": "cb455b6f-78ff-4b1e-b241-c2bbc0b37e9f",
              "A4": "cb455b6f-78ff-4b1e-b241-c2bbc0b37e9f",
              "IL2": "33dbc029-707c-4e1a-927e-f7f629359b2b",
              "L1": "6b6b74e2-820d-490e-a017-2b73d4ccf2b0",
              "L8": {}
            },
            {
              "BL1": "Terrasoft.Core.Process.ProcessSchemaParameter",
              "UId": "ed9f5848-3dda-4437-9e45-7efdb7489f6a",
              "A2": "CanReadUncommitedData",
              "A3": "cb455b6f-78ff-4b1e-b241-c2bbc0b37e9f",
              "A4": "cb455b6f-78ff-4b1e-b241-c2bbc0b37e9f",
              "IL2": "33dbc029-707c-4e1a-927e-f7f629359b2b",
              "L1": "90b65bf8-0ffc-4141-8779-2420877af907",
              "L8": {
                "GS1": 1,
                "GS2": "true",
                "GS5": "cb455b6f-78ff-4b1e-b241-c2bbc0b37e9f"
              }
            },
            {
              "BL1": "Terrasoft.Core.Process.ProcessSchemaParameter",
              "UId": "591de56b-7ce0-4876-87c1-dc4c3091b976",
              "A2": "ResultEntityCollection",
              "A3": "cb455b6f-78ff-4b1e-b241-c2bbc0b37e9f",
              "A4": "cb455b6f-78ff-4b1e-b241-c2bbc0b37e9f",
              "IL2": "33dbc029-707c-4e1a-927e-f7f629359b2b",
              "L1": "51fb23ba-3eb2-11e2-b7d5-b0c76188709b",
              "L8": {}
            },
            {
              "BL1": "Terrasoft.Core.Process.ProcessSchemaParameter",
              "UId": "0499eeb3-d16c-4dd4-820c-bb25e6285499",
              "A2": "EntityColumnMetaPathes",
              "A3": "cb455b6f-78ff-4b1e-b241-c2bbc0b37e9f",
              "A4": "cb455b6f-78ff-4b1e-b241-c2bbc0b37e9f",
              "IL2": "33dbc029-707c-4e1a-927e-f7f629359b2b",
              "L1": "394e160f-c8e0-46fa-9c0d-75d97e9e9169",
              "L8": {
                "GS1": 1,
                "GS2": "1e7a4b2e-e641-4d63-a993-c5e34c9fe79a;930bde87-00fe-4524-9b24-34390ebe5f90;fe87b05a-82c9-4da5-b8a3-6d3cbeda2698",
                "GS5": "9c899b76-2cd5-44ea-8dea-7d6b5ae33ba0"
              }
            },
            {
              "BL1": "Terrasoft.Core.Process.ProcessSchemaParameter",
              "UId": "261686c5-bba9-448b-a685-25c2612453fb",
              "A2": "IgnoreDisplayValues",
              "A3": "cb455b6f-78ff-4b1e-b241-c2bbc0b37e9f",
              "A4": "cb455b6f-78ff-4b1e-b241-c2bbc0b37e9f",
              "IL2": "33dbc029-707c-4e1a-927e-f7f629359b2b",
              "L1": "90b65bf8-0ffc-4141-8779-2420877af907",
              "L8": {}
            },
            {
              "BL1": "Terrasoft.Core.Process.ProcessSchemaParameter",
              "UId": "0f5c2103-c0a7-4155-964e-2048aea51d45",
              "A2": "ResultCompositeObjectList",
              "A3": "cb455b6f-78ff-4b1e-b241-c2bbc0b37e9f",
              "A4": "cb455b6f-78ff-4b1e-b241-c2bbc0b37e9f",
              "IL2": "33dbc029-707c-4e1a-927e-f7f629359b2b",
              "L1": "651ec16f-d140-46db-b9e2-825c985a8ac2",
              "L8": {}
            },
            {
              "BL1": "Terrasoft.Core.Process.ProcessSchemaParameter",
              "UId": "4ab36ea4-965c-456f-9225-fc2ce4ffda03",
              "A2": "ConsiderTimeInFilter",
              "A3": "cb455b6f-78ff-4b1e-b241-c2bbc0b37e9f",
              "A4": "cb455b6f-78ff-4b1e-b241-c2bbc0b37e9f",
              "IL2": "33dbc029-707c-4e1a-927e-f7f629359b2b",
              "L1": "90b65bf8-0ffc-4141-8779-2420877af907",
              "L8": {
                "GS1": 3,
                "GS2": "true",
                "GS5": "cb455b6f-78ff-4b1e-b241-c2bbc0b37e9f",
                "GS8": "false"
              }
            }
          ],
          "CL2": "FFFFFFFF",
          "J6": "cb455b6f-78ff-4b1e-b241-c2bbc0b37e9f"
        },
        {
          "BL1": "Terrasoft.Core.Process.ProcessSchemaUserTask",
          "UId": "2999dd7a-5f03-42c5-998a-77b215d8a3a7",
          "A2": "AddDataUserTask1",
          "A3": "9c899b76-2cd5-44ea-8dea-7d6b5ae33ba0",
          "A4": "9c899b76-2cd5-44ea-8dea-7d6b5ae33ba0",
          "A5": "8027c309-f63e-4894-a830-daa104b3be05",
          "IL2": "7c502065-4053-4012-8392-e1a5af6addfb",
          "BL3": "610;172",
          "BL7": "db6abed1-0c5f-455b-8053-2665378cdb71",
          "BL8": "9c899b76-2cd5-44ea-8dea-7d6b5ae33ba0",
          "BN2": "69;55",
          "BO2": true,
          "BO3": true,
          "BP2": [
            {
              "BL1": "Terrasoft.Core.Process.ProcessSchemaParameter",
              "UId": "f36cbb53-3cbc-4d53-9675-c4d29e4a9eb6",
              "A2": "EntitySchemaId",
              "A3": "db6abed1-0c5f-455b-8053-2665378cdb71",
              "A4": "db6abed1-0c5f-455b-8053-2665378cdb71",
              "IL2": "2999dd7a-5f03-42c5-998a-77b215d8a3a7",
              "L1": "b295071f-7ea9-4e62-8d1a-919bf3732ff2",
              "L8": {
                "GS1": 1,
                "GS2": "d41e5c00-adff-466e-8e0d-e6a332c9dd48",
                "GS5": "9c899b76-2cd5-44ea-8dea-7d6b5ae33ba0"
              },
              "L9": "2e155463-3ff1-4ccf-8584-4ec8d7233111"
            },
            {
              "BL1": "Terrasoft.Core.Process.ProcessSchemaParameter",
              "UId": "0c614d39-156e-47a6-8dea-02aa9213dcd8",
              "A2": "DataSourceFilters",
              "A3": "db6abed1-0c5f-455b-8053-2665378cdb71",
              "A4": "db6abed1-0c5f-455b-8053-2665378cdb71",
              "IL2": "2999dd7a-5f03-42c5-998a-77b215d8a3a7",
              "L1": "394e160f-c8e0-46fa-9c0d-75d97e9e9169",
              "L8": {}
            },
            {
              "BL1": "Terrasoft.Core.Process.ProcessSchemaParameter",
              "UId": "6eee627a-e95c-4635-a1b0-42c409e2fc23",
              "A2": "RecordAddMode",
              "A3": "db6abed1-0c5f-455b-8053-2665378cdb71",
              "A4": "db6abed1-0c5f-455b-8053-2665378cdb71",
              "IL2": "2999dd7a-5f03-42c5-998a-77b215d8a3a7",
              "L1": "394e160f-c8e0-46fa-9c0d-75d97e9e9169",
              "L8": {
                "GS1": 1,
                "GS2": "0",
                "GS5": "9c899b76-2cd5-44ea-8dea-7d6b5ae33ba0"
              }
            },
            {
              "BL1": "Terrasoft.Core.Process.ProcessSchemaParameter",
              "UId": "d21a02e0-d250-4370-b54c-623ac0583c1d",
              "A2": "FilterEntitySchemaId",
              "A3": "db6abed1-0c5f-455b-8053-2665378cdb71",
              "A4": "db6abed1-0c5f-455b-8053-2665378cdb71",
              "IL2": "2999dd7a-5f03-42c5-998a-77b215d8a3a7",
              "L1": "b295071f-7ea9-4e62-8d1a-919bf3732ff2",
              "L8": {},
              "L9": "2e155463-3ff1-4ccf-8584-4ec8d7233111"
            },
            {
              "BL1": "Terrasoft.Core.Process.ProcessSchemaParameter",
              "UId": "0794026c-11a1-4b97-8ac9-b13680c268a1",
              "A2": "RecordDefValues",
              "A3": "db6abed1-0c5f-455b-8053-2665378cdb71",
              "A4": "db6abed1-0c5f-455b-8053-2665378cdb71",
              "IL2": "2999dd7a-5f03-42c5-998a-77b215d8a3a7",
              "L1": "b53eaa2a-4bb7-4a6b-9f4f-58ccab293e31",
              "L8": {
                "GS1": 1,
                "GS2": "{\"$type\":\"Terrasoft.Core.Process.LocalizableParameterValuesList, Terrasoft.Core\",\"$values\":[{\"ItemUId\":\"0494941b-74a4-4ffc-bfc9-dd24d443affc\",\"columnMetaPath\":{\"value\":\"b95e5ffd-681b-4541-9e26-32f1752cdf8f\"},\"schemaUId\":{\"value\":\"d41e5c00-adff-466e-8e0d-e6a332c9dd48\"},\"value\":{\"value\":\"[#[IsOwnerSchema:false].[IsSchema:false].[Element:{33dbc029-707c-4e1a-927e-f7f629359b2b}].[Parameter:{15c5530d-3a59-438b-b197-e503762d4c3a}].[EntityColumn:{1e7a4b2e-e641-4d63-a993-c5e34c9fe79a}]#]\"},\"displayValue\":{\"value\":\"[#Чтение данных из новой записи Квота порта.Первый элемент результирующей коллекции.Дата#]\"},\"parameterValue\":{\"value\":\"{\\\"$type\\\":\\\"Terrasoft.Core.Process.ProcessSchemaParameterValue, Terrasoft.Core\\\",\\\"Source\\\":3,\\\"DisplayValue\\\":\\\"\\\",\\\"Value\\\":\\\"\\\",\\\"MetaPath\\\":null,\\\"MetaDataValue\\\":null,\\\"ModifiedInSchemaUId\\\":\\\"00000000-0000-0000-0000-000000000000\\\",\\\"SchemaUId\\\":\\\"00000000-0000-0000-0000-000000000000\\\",\\\"SchemaManagerName\\\":\\\"\\\",\\\"DataValueTypeUId\\\":\\\"d21e9ef4-c064-4012-b286-fa1a8171da44\\\",\\\"ReferenceSchemaUId\\\":\\\"00000000-0000-0000-0000-000000000000\\\",\\\"ResourceItemName\\\":null}\"}},{\"ItemUId\":\"3ea01a88-e526-4dec-9015-d5cfaf063571\",\"columnMetaPath\":{\"value\":\"56a2f7d8-5f26-4427-9816-2275989956e3\"},\"schemaUId\":{\"value\":\"d41e5c00-adff-466e-8e0d-e6a332c9dd48\"},\"value\":{\"value\":\"[#[IsOwnerSchema:false].[IsSchema:false].[Element:{3c2f2f60-de7d-4c15-8068-1e804f9825e8}].[Parameter:{050010e8-cca8-49c8-b7a8-d9e6a8cdf64a}].[EntityColumn:{7b86af33-c10a-8572-938e-fb405a2bc302}]#]\"},\"displayValue\":{\"value\":\"[#Читать Терминал.Первый элемент результирующей коллекции.Контрагент#]\"},\"parameterValue\":{\"value\":\"{\\\"$type\\\":\\\"Terrasoft.Core.Process.ProcessSchemaParameterValue, Terrasoft.Core\\\",\\\"Source\\\":3,\\\"DisplayValue\\\":\\\"\\\",\\\"Value\\\":\\\"\\\",\\\"MetaPath\\\":null,\\\"MetaDataValue\\\":null,\\\"ModifiedInSchemaUId\\\":\\\"00000000-0000-0000-0000-000000000000\\\",\\\"SchemaUId\\\":\\\"00000000-0000-0000-0000-000000000000\\\",\\\"SchemaManagerName\\\":\\\"\\\",\\\"DataValueTypeUId\\\":\\\"b295071f-7ea9-4e62-8d1a-919bf3732ff2\\\",\\\"ReferenceSchemaUId\\\":\\\"25d7c1ab-1de0-4501-b402-02e0e5a72d6e\\\",\\\"ResourceItemName\\\":null}\"}},{\"ItemUId\":\"e63e1fa9-6556-4ef4-acc3-bcb28e711aeb\",\"columnMetaPath\":{\"value\":\"09a691ab-6fe3-47aa-8849-6b23b7028a85\"},\"schemaUId\":{\"value\":\"d41e5c00-adff-466e-8e0d-e6a332c9dd48\"},\"value\":{\"value\":\"[#[IsOwnerSchema:false].[IsSchema:false].[Element:{33dbc029-707c-4e1a-927e-f7f629359b2b}].[Parameter:{15c5530d-3a59-438b-b197-e503762d4c3a}].[EntityColumn:{fe87b05a-82c9-4da5-b8a3-6d3cbeda2698}]#]\"},\"displayValue\":{\"value\":\"[#Чтение данных из новой записи Квота порта.Первый элемент результирующей коллекции.Терминал#]\"},\"parameterValue\":{\"value\":\"{\\\"$type\\\":\\\"Terrasoft.Core.Process.ProcessSchemaParameterValue, Terrasoft.Core\\\",\\\"Source\\\":3,\\\"DisplayValue\\\":\\\"\\\",\\\"Value\\\":\\\"\\\",\\\"MetaPath\\\":null,\\\"MetaDataValue\\\":null,\\\"ModifiedInSchemaUId\\\":\\\"00000000-0000-0000-0000-000000000000\\\",\\\"SchemaUId\\\":\\\"00000000-0000-0000-0000-000000000000\\\",\\\"SchemaManagerName\\\":\\\"\\\",\\\"DataValueTypeUId\\\":\\\"b295071f-7ea9-4e62-8d1a-919bf3732ff2\\\",\\\"ReferenceSchemaUId\\\":\\\"be7fccbb-d5d1-43b2-8402-0986e8c2faca\\\",\\\"ResourceItemName\\\":null}\"}}]}",
                "GS5": "9c899b76-2cd5-44ea-8dea-7d6b5ae33ba0"
              }
            },
            {
              "BL1": "Terrasoft.Core.Process.ProcessSchemaParameter",
              "UId": "80923490-afc8-40c0-bf42-cc9e044a30ed",
              "A2": "RecordId",
              "A3": "db6abed1-0c5f-455b-8053-2665378cdb71",
              "A4": "db6abed1-0c5f-455b-8053-2665378cdb71",
              "IL2": "2999dd7a-5f03-42c5-998a-77b215d8a3a7",
              "L1": "23018567-a13c-4320-8687-fd6f9e3699bd",
              "L8": {}
            },
            {
              "BL1": "Terrasoft.Core.Process.ProcessSchemaParameter",
              "UId": "b581960f-0aff-43de-ab88-7618c4194fc5",
              "A2": "ConsiderTimeInFilter",
              "A3": "db6abed1-0c5f-455b-8053-2665378cdb71",
              "A4": "db6abed1-0c5f-455b-8053-2665378cdb71",
              "IL2": "2999dd7a-5f03-42c5-998a-77b215d8a3a7",
              "L1": "90b65bf8-0ffc-4141-8779-2420877af907",
              "L8": {
                "GS1": 3,
                "GS2": "true",
                "GS5": "db6abed1-0c5f-455b-8053-2665378cdb71",
                "GS8": "false"
              }
            }
          ],
          "CL2": "FFFFFFFF",
          "J6": "db6abed1-0c5f-455b-8053-2665378cdb71"
        },
        {
          "BL1": "Terrasoft.Core.Process.ProcessSchemaStartSignalEvent",
          "UId": "726c68ac-264b-4855-88f5-21e2c27d992b",
          "A2": "StartSignal2",
          "A3": "9c899b76-2cd5-44ea-8dea-7d6b5ae33ba0",
          "A4": "9c899b76-2cd5-44ea-8dea-7d6b5ae33ba0",
          "A5": "8027c309-f63e-4894-a830-daa104b3be05",
          "IL2": "7c502065-4053-4012-8392-e1a5af6addfb",
          "IL3": true,
          "BL3": "50;314",
          "BL7": "1129e72f-0e8c-445a-b2ea-463517e86395",
          "BL8": "9c899b76-2cd5-44ea-8dea-7d6b5ae33ba0",
          "BN2": "31;31",
          "BO3": true,
          "FC1": [
            {
              "BL1": "Terrasoft.Core.Process.ProcessSchemaParameter",
              "UId": "c47a8547-06de-4546-a89c-64960365046a",
              "A2": "RecordId",
              "A3": "9c899b76-2cd5-44ea-8dea-7d6b5ae33ba0",
              "A4": "9c899b76-2cd5-44ea-8dea-7d6b5ae33ba0",
              "IL2": "726c68ac-264b-4855-88f5-21e2c27d992b",
              "L1": "23018567-a13c-4320-8687-fd6f9e3699bd",
              "L8": {
                "GS1": 1,
                "GS2": ""
              }
            }
          ],
          "FC2": "33c82e76-a35b-4e97-ae62-07200fe630b0",
          "ED1": false,
          "DZ1": "null",
          "DZ2": false,
          "DZ3": true,
          "DZ5": 2,
          "DZ8": true,
          "DZ11": true,
          "DZ12": "{\"$type\":\"System.Collections.ObjectModel.Collection`1[[System.String, mscorlib]], mscorlib\",\"$values\":[\"903e0115-a307-41db-b951-b529affe628d\"]}",
          "DZ13": "{\"className\":\"Terrasoft.FilterGroup\",\"serializedFilterEditData\":\"{\\\"className\\\":\\\"Terrasoft.FilterGroup\\\",\\\"items\\\":{\\\"cc470d2c-cc56-4e9a-80bc-9457ce6e3813\\\":{\\\"className\\\":\\\"Terrasoft.CompareFilter\\\",\\\"filterType\\\":1,\\\"comparisonType\\\":3,\\\"isEnabled\\\":true,\\\"trimDateTimeParameterToDate\\\":false,\\\"leftExpression\\\":{\\\"className\\\":\\\"Terrasoft.ColumnExpression\\\",\\\"expressionType\\\":0,\\\"columnPath\\\":\\\"CrocVolume\\\"},\\\"isAggregative\\\":false,\\\"key\\\":\\\"cc470d2c-cc56-4e9a-80bc-9457ce6e3813\\\",\\\"dataValueType\\\":5,\\\"leftExpressionCaption\\\":\\\"Объем, тонны\\\",\\\"rightExpression\\\":{\\\"className\\\":\\\"Terrasoft.ParameterExpression\\\",\\\"expressionType\\\":2,\\\"parameter\\\":{\\\"className\\\":\\\"Terrasoft.Parameter\\\",\\\"dataValueType\\\":5,\\\"value\\\":0}}}},\\\"logicalOperation\\\":0,\\\"isEnabled\\\":true,\\\"filterType\\\":6,\\\"rootSchemaName\\\":\\\"CrocPortQuota\\\",\\\"key\\\":\\\"\\\"}\",\"dataSourceFilters\":\"{\\\"items\\\":{\\\"cc470d2c-cc56-4e9a-80bc-9457ce6e3813\\\":{\\\"filterType\\\":1,\\\"comparisonType\\\":3,\\\"isEnabled\\\":true,\\\"trimDateTimeParameterToDate\\\":false,\\\"leftExpression\\\":{\\\"expressionType\\\":0,\\\"columnPath\\\":\\\"CrocVolume\\\"},\\\"rightExpression\\\":{\\\"expressionType\\\":2,\\\"parameter\\\":{\\\"dataValueType\\\":5,\\\"value\\\":0}}}},\\\"logicalOperation\\\":0,\\\"isEnabled\\\":true,\\\"filterType\\\":6,\\\"rootSchemaName\\\":\\\"CrocPortQuota\\\"}\"}"
        },
        {
          "BL1": "Terrasoft.Core.Process.ProcessSchemaUserTask",
          "UId": "3c2f2f60-de7d-4c15-8068-1e804f9825e8",
          "A2": "ReadDataUserTask2",
          "A3": "9c899b76-2cd5-44ea-8dea-7d6b5ae33ba0",
          "A4": "9c899b76-2cd5-44ea-8dea-7d6b5ae33ba0",
          "A5": "8027c309-f63e-4894-a830-daa104b3be05",
          "IL2": "7c502065-4053-4012-8392-e1a5af6addfb",
          "BL3": "404;172",
          "BL7": "cb455b6f-78ff-4b1e-b241-c2bbc0b37e9f",
          "BL8": "9c899b76-2cd5-44ea-8dea-7d6b5ae33ba0",
          "BN2": "69;55",
          "BO2": true,
          "BO3": true,
          "BP2": [
            {
              "BL1": "Terrasoft.Core.Process.ProcessSchemaParameter",
              "UId": "d802b66e-e419-41fd-8641-0a87e5dc23d5",
              "A2": "DataSourceFilters",
              "A3": "cb455b6f-78ff-4b1e-b241-c2bbc0b37e9f",
              "A4": "cb455b6f-78ff-4b1e-b241-c2bbc0b37e9f",
              "A5": "66e9e705-64b4-4dda-925e-d1e05a389eb6",
              "IL2": "3c2f2f60-de7d-4c15-8068-1e804f9825e8",
              "L1": "394e160f-c8e0-46fa-9c0d-75d97e9e9169",
              "L8": {
                "GS1": 1,
                "GS2": "{\"className\":\"Terrasoft.FilterGroup\",\"serializedFilterEditData\":\"{\\\"className\\\":\\\"Terrasoft.FilterGroup\\\",\\\"items\\\":{\\\"3eb3c98a-a1d7-4509-9762-d5982e600042\\\":{\\\"className\\\":\\\"Terrasoft.CompareFilter\\\",\\\"filterType\\\":1,\\\"comparisonType\\\":3,\\\"isEnabled\\\":true,\\\"trimDateTimeParameterToDate\\\":false,\\\"leftExpression\\\":{\\\"className\\\":\\\"Terrasoft.ColumnExpression\\\",\\\"expressionType\\\":0,\\\"columnPath\\\":\\\"Id\\\"},\\\"isAggregative\\\":false,\\\"key\\\":\\\"3eb3c98a-a1d7-4509-9762-d5982e600042\\\",\\\"dataValueType\\\":0,\\\"leftExpressionCaption\\\":\\\"Id\\\",\\\"rightExpression\\\":{\\\"className\\\":\\\"Terrasoft.ParameterExpression\\\",\\\"expressionType\\\":2,\\\"parameter\\\":{\\\"className\\\":\\\"Terrasoft.Parameter\\\",\\\"dataValueType\\\":26,\\\"value\\\":{\\\"value\\\":\\\"[IsOwnerSchema:false].[IsSchema:false].[Element:{33dbc029-707c-4e1a-927e-f7f629359b2b}].[Parameter:{15c5530d-3a59-438b-b197-e503762d4c3a}].[EntityColumn:{fe87b05a-82c9-4da5-b8a3-6d3cbeda2698}]\\\",\\\"displayValue\\\":\\\"Чтение данных из новой записи Квота порта.Первый элемент результирующей коллекции.Терминал\\\"}}}}},\\\"logicalOperation\\\":0,\\\"isEnabled\\\":true,\\\"filterType\\\":6,\\\"rootSchemaName\\\":\\\"CrocTerminal\\\",\\\"key\\\":\\\"\\\"}\",\"dataSourceFilters\":\"{\\\"items\\\":{\\\"3eb3c98a-a1d7-4509-9762-d5982e600042\\\":{\\\"filterType\\\":1,\\\"comparisonType\\\":3,\\\"isEnabled\\\":true,\\\"trimDateTimeParameterToDate\\\":false,\\\"leftExpression\\\":{\\\"expressionType\\\":0,\\\"columnPath\\\":\\\"Id\\\"},\\\"rightExpression\\\":{\\\"expressionType\\\":2,\\\"parameter\\\":{\\\"dataValueType\\\":26,\\\"value\\\":{\\\"value\\\":\\\"[IsOwnerSchema:false].[IsSchema:false].[Element:{33dbc029-707c-4e1a-927e-f7f629359b2b}].[Parameter:{15c5530d-3a59-438b-b197-e503762d4c3a}].[EntityColumn:{fe87b05a-82c9-4da5-b8a3-6d3cbeda2698}]\\\"}}}}},\\\"logicalOperation\\\":0,\\\"isEnabled\\\":true,\\\"filterType\\\":6,\\\"rootSchemaName\\\":\\\"CrocTerminal\\\"}\"}",
                "GS5": "9c899b76-2cd5-44ea-8dea-7d6b5ae33ba0"
              }
            },
            {
              "BL1": "Terrasoft.Core.Process.ProcessSchemaParameter",
              "UId": "d05bf7bc-8c9e-47b9-8d57-5c60524dbf1f",
              "A2": "ResultType",
              "A3": "cb455b6f-78ff-4b1e-b241-c2bbc0b37e9f",
              "A4": "cb455b6f-78ff-4b1e-b241-c2bbc0b37e9f",
              "IL2": "3c2f2f60-de7d-4c15-8068-1e804f9825e8",
              "L1": "6b6b74e2-820d-490e-a017-2b73d4ccf2b0",
              "L8": {
                "GS1": 1,
                "GS2": "0",
                "GS5": "cb455b6f-78ff-4b1e-b241-c2bbc0b37e9f"
              }
            },
            {
              "BL1": "Terrasoft.Core.Process.ProcessSchemaParameter",
              "UId": "4bd1c28f-0cc0-4aec-b11e-e47fe82f4696",
              "A2": "ReadSomeTopRecords",
              "A3": "cb455b6f-78ff-4b1e-b241-c2bbc0b37e9f",
              "A4": "cb455b6f-78ff-4b1e-b241-c2bbc0b37e9f",
              "IL2": "3c2f2f60-de7d-4c15-8068-1e804f9825e8",
              "L1": "90b65bf8-0ffc-4141-8779-2420877af907",
              "L8": {
                "GS1": 1,
                "GS2": "true",
                "GS5": "9c899b76-2cd5-44ea-8dea-7d6b5ae33ba0"
              }
            },
            {
              "BL1": "Terrasoft.Core.Process.ProcessSchemaParameter",
              "UId": "c55f2bc3-9972-4de1-bc95-891aadb1e7b6",
              "A2": "NumberOfRecords",
              "A3": "cb455b6f-78ff-4b1e-b241-c2bbc0b37e9f",
              "A4": "cb455b6f-78ff-4b1e-b241-c2bbc0b37e9f",
              "IL2": "3c2f2f60-de7d-4c15-8068-1e804f9825e8",
              "L1": "6b6b74e2-820d-490e-a017-2b73d4ccf2b0",
              "L8": {
                "GS1": 1,
                "GS2": "50",
                "GS5": "9c899b76-2cd5-44ea-8dea-7d6b5ae33ba0"
              }
            },
            {
              "BL1": "Terrasoft.Core.Process.ProcessSchemaParameter",
              "UId": "5c82eb14-ef37-4dc0-be0a-3f50e991f05d",
              "A2": "FunctionType",
              "A3": "cb455b6f-78ff-4b1e-b241-c2bbc0b37e9f",
              "A4": "cb455b6f-78ff-4b1e-b241-c2bbc0b37e9f",
              "IL2": "3c2f2f60-de7d-4c15-8068-1e804f9825e8",
              "L1": "6b6b74e2-820d-490e-a017-2b73d4ccf2b0",
              "L8": {
                "GS1": 1,
                "GS2": "0",
                "GS5": "9c899b76-2cd5-44ea-8dea-7d6b5ae33ba0"
              }
            },
            {
              "BL1": "Terrasoft.Core.Process.ProcessSchemaParameter",
              "UId": "d00092a9-6fc2-48f2-8564-4b3ecfdbbf78",
              "A2": "AggregationColumnName",
              "A3": "cb455b6f-78ff-4b1e-b241-c2bbc0b37e9f",
              "A4": "cb455b6f-78ff-4b1e-b241-c2bbc0b37e9f",
              "IL2": "3c2f2f60-de7d-4c15-8068-1e804f9825e8",
              "L1": "394e160f-c8e0-46fa-9c0d-75d97e9e9169",
              "L8": {}
            },
            {
              "BL1": "Terrasoft.Core.Process.ProcessSchemaParameter",
              "UId": "885995db-2b53-495e-af99-82bbe76e3e78",
              "A2": "OrderInfo",
              "A3": "cb455b6f-78ff-4b1e-b241-c2bbc0b37e9f",
              "A4": "cb455b6f-78ff-4b1e-b241-c2bbc0b37e9f",
              "IL2": "3c2f2f60-de7d-4c15-8068-1e804f9825e8",
              "L1": "394e160f-c8e0-46fa-9c0d-75d97e9e9169",
              "L8": {
                "GS1": 1,
                "GS2": "Name:1:1",
                "GS5": "9c899b76-2cd5-44ea-8dea-7d6b5ae33ba0"
              }
            },
            {
              "BL1": "Terrasoft.Core.Process.ProcessSchemaParameter",
              "UId": "050010e8-cca8-49c8-b7a8-d9e6a8cdf64a",
              "A2": "ResultEntity",
              "A3": "cb455b6f-78ff-4b1e-b241-c2bbc0b37e9f",
              "A4": "cb455b6f-78ff-4b1e-b241-c2bbc0b37e9f",
              "A5": "66e9e705-64b4-4dda-925e-d1e05a389eb6",
              "IL2": "3c2f2f60-de7d-4c15-8068-1e804f9825e8",
              "L1": "ebd85d37-0abf-4bbf-bb32-97dc3dffcc8c",
              "L8": {
                "GS1": 1,
                "GS5": "9c899b76-2cd5-44ea-8dea-7d6b5ae33ba0"
              },
              "L9": "be7fccbb-d5d1-43b2-8402-0986e8c2faca",
              "L13": true
            },
            {
              "BL1": "Terrasoft.Core.Process.ProcessSchemaParameter",
              "UId": "ca98ebea-18f2-4c85-b2e2-9031af86ff12",
              "A2": "ResultCount",
              "A3": "cb455b6f-78ff-4b1e-b241-c2bbc0b37e9f",
              "A4": "cb455b6f-78ff-4b1e-b241-c2bbc0b37e9f",
              "IL2": "3c2f2f60-de7d-4c15-8068-1e804f9825e8",
              "L1": "6b6b74e2-820d-490e-a017-2b73d4ccf2b0",
              "L8": {}
            },
            {
              "BL1": "Terrasoft.Core.Process.ProcessSchemaParameter",
              "UId": "24f952e8-5130-4d82-a537-78a02875ce9f",
              "A2": "ResultIntegerFunction",
              "A3": "cb455b6f-78ff-4b1e-b241-c2bbc0b37e9f",
              "A4": "cb455b6f-78ff-4b1e-b241-c2bbc0b37e9f",
              "IL2": "3c2f2f60-de7d-4c15-8068-1e804f9825e8",
              "L1": "6b6b74e2-820d-490e-a017-2b73d4ccf2b0",
              "L8": {}
            },
            {
              "BL1": "Terrasoft.Core.Process.ProcessSchemaParameter",
              "UId": "fb04bd89-e029-4f62-8a09-473d7897b686",
              "A2": "ResultFloatFunction",
              "A3": "cb455b6f-78ff-4b1e-b241-c2bbc0b37e9f",
              "A4": "cb455b6f-78ff-4b1e-b241-c2bbc0b37e9f",
              "IL2": "3c2f2f60-de7d-4c15-8068-1e804f9825e8",
              "L1": "ff22e049-4d16-46ee-a529-92d8808932dc",
              "L8": {}
            },
            {
              "BL1": "Terrasoft.Core.Process.ProcessSchemaParameter",
              "UId": "de35e572-0b15-4b95-90da-cddcaa99f820",
              "A2": "ResultDateTimeFunction",
              "A3": "cb455b6f-78ff-4b1e-b241-c2bbc0b37e9f",
              "A4": "cb455b6f-78ff-4b1e-b241-c2bbc0b37e9f",
              "IL2": "3c2f2f60-de7d-4c15-8068-1e804f9825e8",
              "L1": "d21e9ef4-c064-4012-b286-fa1a8171da44",
              "L8": {}
            },
            {
              "BL1": "Terrasoft.Core.Process.ProcessSchemaParameter",
              "UId": "ec5a157c-6f5d-4834-be95-8360d16dc38c",
              "A2": "ResultRowsCount",
              "A3": "cb455b6f-78ff-4b1e-b241-c2bbc0b37e9f",
              "A4": "cb455b6f-78ff-4b1e-b241-c2bbc0b37e9f",
              "IL2": "3c2f2f60-de7d-4c15-8068-1e804f9825e8",
              "L1": "6b6b74e2-820d-490e-a017-2b73d4ccf2b0",
              "L8": {}
            },
            {
              "BL1": "Terrasoft.Core.Process.ProcessSchemaParameter",
              "UId": "2ab40a21-3308-4926-86c5-fe65c46b5785",
              "A2": "CanReadUncommitedData",
              "A3": "cb455b6f-78ff-4b1e-b241-c2bbc0b37e9f",
              "A4": "cb455b6f-78ff-4b1e-b241-c2bbc0b37e9f",
              "IL2": "3c2f2f60-de7d-4c15-8068-1e804f9825e8",
              "L1": "90b65bf8-0ffc-4141-8779-2420877af907",
              "L8": {
                "GS1": 1,
                "GS2": "true",
                "GS5": "cb455b6f-78ff-4b1e-b241-c2bbc0b37e9f"
              }
            },
            {
              "BL1": "Terrasoft.Core.Process.ProcessSchemaParameter",
              "UId": "e4a449a5-3565-48c3-861a-42dd748e6e2c",
              "A2": "ResultEntityCollection",
              "A3": "cb455b6f-78ff-4b1e-b241-c2bbc0b37e9f",
              "A4": "cb455b6f-78ff-4b1e-b241-c2bbc0b37e9f",
              "IL2": "3c2f2f60-de7d-4c15-8068-1e804f9825e8",
              "L1": "51fb23ba-3eb2-11e2-b7d5-b0c76188709b",
              "L8": {}
            },
            {
              "BL1": "Terrasoft.Core.Process.ProcessSchemaParameter",
              "UId": "1abbf7df-028f-44e8-95fa-29eddce3fdf8",
              "A2": "EntityColumnMetaPathes",
              "A3": "cb455b6f-78ff-4b1e-b241-c2bbc0b37e9f",
              "A4": "cb455b6f-78ff-4b1e-b241-c2bbc0b37e9f",
              "IL2": "3c2f2f60-de7d-4c15-8068-1e804f9825e8",
              "L1": "394e160f-c8e0-46fa-9c0d-75d97e9e9169",
              "L8": {}
            },
            {
              "BL1": "Terrasoft.Core.Process.ProcessSchemaParameter",
              "UId": "a44ad0c8-4c99-4e6b-9de3-899b49f844fe",
              "A2": "IgnoreDisplayValues",
              "A3": "cb455b6f-78ff-4b1e-b241-c2bbc0b37e9f",
              "A4": "cb455b6f-78ff-4b1e-b241-c2bbc0b37e9f",
              "IL2": "3c2f2f60-de7d-4c15-8068-1e804f9825e8",
              "L1": "90b65bf8-0ffc-4141-8779-2420877af907",
              "L8": {}
            },
            {
              "BL1": "Terrasoft.Core.Process.ProcessSchemaParameter",
              "UId": "a77ed960-15a2-4ee0-b0fe-74cd638e1096",
              "A2": "ResultCompositeObjectList",
              "A3": "cb455b6f-78ff-4b1e-b241-c2bbc0b37e9f",
              "A4": "cb455b6f-78ff-4b1e-b241-c2bbc0b37e9f",
              "IL2": "3c2f2f60-de7d-4c15-8068-1e804f9825e8",
              "L1": "651ec16f-d140-46db-b9e2-825c985a8ac2",
              "L8": {}
            },
            {
              "BL1": "Terrasoft.Core.Process.ProcessSchemaParameter",
              "UId": "4c7880cb-6671-410c-90ae-d358faee26ef",
              "A2": "ConsiderTimeInFilter",
              "A3": "cb455b6f-78ff-4b1e-b241-c2bbc0b37e9f",
              "A4": "cb455b6f-78ff-4b1e-b241-c2bbc0b37e9f",
              "IL2": "3c2f2f60-de7d-4c15-8068-1e804f9825e8",
              "L1": "90b65bf8-0ffc-4141-8779-2420877af907",
              "L8": {
                "GS1": 3,
                "GS2": "true",
                "GS5": "cb455b6f-78ff-4b1e-b241-c2bbc0b37e9f",
                "GS8": "false"
              }
            }
          ],
          "CL2": "FFFFFFFF",
          "J6": "cb455b6f-78ff-4b1e-b241-c2bbc0b37e9f"
        },
        {
          "BL1": "Terrasoft.Core.Process.ProcessSchemaSequenceFlow",
          "UId": "38126d56-74a9-43ac-8d7c-4d43de1a1ae4",
          "A2": "SequenceFlow1",
          "A3": "9c899b76-2cd5-44ea-8dea-7d6b5ae33ba0",
          "A4": "9c899b76-2cd5-44ea-8dea-7d6b5ae33ba0",
          "A5": "8027c309-f63e-4894-a830-daa104b3be05",
          "BL7": "0d8351f6-c2f4-4737-bdd9-6fbfe0837fec",
          "BL8": "9c899b76-2cd5-44ea-8dea-7d6b5ae33ba0",
          "CI1": "cbe62bb1-d1b8-4897-bbf2-85f79697048b",
          "CI2": "33dbc029-707c-4e1a-927e-f7f629359b2b",
          "CI3": "null",
          "CI5": "FF939598",
          "CI6": 1,
          "CI11": "81;200",
          "CI12": "209;200"
        },
        {
          "BL1": "Terrasoft.Core.Process.ProcessSchemaSequenceFlow",
          "UId": "f0587207-d284-4d12-ac91-16ae9bdb8cb8",
          "A2": "SequenceFlow2",
          "A3": "9c899b76-2cd5-44ea-8dea-7d6b5ae33ba0",
          "A4": "9c899b76-2cd5-44ea-8dea-7d6b5ae33ba0",
          "A5": "8027c309-f63e-4894-a830-daa104b3be05",
          "BL7": "0d8351f6-c2f4-4737-bdd9-6fbfe0837fec",
          "BL8": "9c899b76-2cd5-44ea-8dea-7d6b5ae33ba0",
          "CI1": "33dbc029-707c-4e1a-927e-f7f629359b2b",
          "CI2": "3c2f2f60-de7d-4c15-8068-1e804f9825e8",
          "CI3": "null",
          "CI5": "FF939598",
          "CI6": 1,
          "CI11": "278;200",
          "CI12": "404;200"
        },
        {
          "BL1": "Terrasoft.Core.Process.ProcessSchemaSequenceFlow",
          "UId": "b2c2fee6-a869-4f04-9222-e86141ba618a",
          "A2": "SequenceFlow4",
          "A3": "9c899b76-2cd5-44ea-8dea-7d6b5ae33ba0",
          "A4": "9c899b76-2cd5-44ea-8dea-7d6b5ae33ba0",
          "A5": "8027c309-f63e-4894-a830-daa104b3be05",
          "BL7": "0d8351f6-c2f4-4737-bdd9-6fbfe0837fec",
          "BL8": "9c899b76-2cd5-44ea-8dea-7d6b5ae33ba0",
          "CI1": "726c68ac-264b-4855-88f5-21e2c27d992b",
          "CI2": "33dbc029-707c-4e1a-927e-f7f629359b2b",
          "CI3": "null",
          "CI5": "FF939598",
          "CI6": 1,
          "CI7": "1;0",
          "CI8": "0;-1",
          "CI11": "81;330",
          "CI12": "244;227",
          "CI10": {
            "Item0": "244;330"
          }
        },
        {
          "BL1": "Terrasoft.Core.Process.ProcessSchemaSequenceFlow",
          "UId": "ac631960-c7a1-4bb2-972a-834461721725",
          "A2": "SequenceFlow6",
          "A3": "9c899b76-2cd5-44ea-8dea-7d6b5ae33ba0",
          "A4": "9c899b76-2cd5-44ea-8dea-7d6b5ae33ba0",
          "A5": "8027c309-f63e-4894-a830-daa104b3be05",
          "BL7": "0d8351f6-c2f4-4737-bdd9-6fbfe0837fec",
          "BL8": "9c899b76-2cd5-44ea-8dea-7d6b5ae33ba0",
          "CI1": "2999dd7a-5f03-42c5-998a-77b215d8a3a7",
          "CI2": "936484a6-414c-4ddc-9cd0-2e32ee325862",
          "CI3": "null",
          "CI5": "FF939598",
          "CI6": 1,
          "CI11": "679;200",
          "CI12": "769;200"
        },
        {
          "BL1": "Terrasoft.Core.Process.ProcessSchemaSequenceFlow",
          "UId": "7a9a6de5-e08d-4c77-9e50-c5eb4070c0f4",
          "A2": "SequenceFlow7",
          "A3": "9c899b76-2cd5-44ea-8dea-7d6b5ae33ba0",
          "A4": "9c899b76-2cd5-44ea-8dea-7d6b5ae33ba0",
          "A5": "8027c309-f63e-4894-a830-daa104b3be05",
          "BL7": "0d8351f6-c2f4-4737-bdd9-6fbfe0837fec",
          "BL8": "9c899b76-2cd5-44ea-8dea-7d6b5ae33ba0",
          "CI1": "3c2f2f60-de7d-4c15-8068-1e804f9825e8",
          "CI2": "2999dd7a-5f03-42c5-998a-77b215d8a3a7",
          "CI3": "null",
          "CI5": "FF939598",
          "CI6": 1,
          "CI11": "473;200",
          "CI12": "610;200"
        }
      ],
      "BK9": [],
      "BK18": "Business Process",
      "BK29": true,
      "BK30": true,
      "BK34": "ru-RU",
      "Labels": [
        {
          "BL1": "Terrasoft.Core.Process.ProcessSchemaLabel",
          "UId": "3874553b-7143-b578-483e-506a2d6f75c5",
          "A2": "ReadDataUserTask2_label1",
          "A3": "9c899b76-2cd5-44ea-8dea-7d6b5ae33ba0",
          "A4": "9c899b76-2cd5-44ea-8dea-7d6b5ae33ba0",
          "ParentUId": "3c2f2f60-de7d-4c15-8068-1e804f9825e8",
          "X": -16
        }
      ],
      "BK24": []
    }
  }
}