{
  "MetaData": {
    "Schema": {
      "ManagerName": "ProcessSchemaManager",
      "UId": "57eb229f-f94f-40a9-b1d7-26963e82b08d",
      "A2": "CrocProcessAccountRightRecord",
      "A5": "42dd13ee-c166-4d57-9f8a-4cf3ea2311a0",
      "B1": [],
      "B2": [],
      "B3": [],
      "B6": "8027c309-f63e-4894-a830-daa104b3be05",
      "B8": "7.18.5.1500",
      "FJ1": [],
      "IJ1": true,
      "BK8": "bb4d6607-026b-4b27-b640-8f5c77c1e89d",
      "IJ10": true,
      "BK15": [
        {
          "BL1": "Terrasoft.Core.Process.ProcessSchemaMapping",
          "UId": "01557834-a7dd-4078-9a86-eaebf1852198",
          "A2": "ReadDataUserTask2",
          "A3": "57eb229f-f94f-40a9-b1d7-26963e82b08d",
          "A4": "57eb229f-f94f-40a9-b1d7-26963e82b08d",
          "GT2": "[Element:{962e5e48-5564-43ef-a5b9-7650c223feda}].[Parameter:{c5948ebd-3775-480c-b29a-ea177127d8bf}]",
          "GT3": "c5948ebd-3775-480c-b29a-ea177127d8bf",
          "GT5": "5d9ac9a7-7782-49ce-8990-dcb1c73832b0",
          "GT4": "cb455b6f-78ff-4b1e-b241-c2bbc0b37e9f",
          "GT1": {
            "GS1": 1,
            "GS2": "{\"className\":\"Terrasoft.FilterGroup\",\"serializedFilterEditData\":\"{\\\"className\\\":\\\"Terrasoft.FilterGroup\\\",\\\"items\\\":{\\\"42aeb5d5-9e2b-41e2-9fa4-0401ac4ceb4e\\\":{\\\"className\\\":\\\"Terrasoft.CompareFilter\\\",\\\"filterType\\\":1,\\\"comparisonType\\\":3,\\\"isEnabled\\\":true,\\\"trimDateTimeParameterToDate\\\":false,\\\"leftExpression\\\":{\\\"className\\\":\\\"Terrasoft.ColumnExpression\\\",\\\"expressionType\\\":0,\\\"columnPath\\\":\\\"Id\\\"},\\\"isAggregative\\\":false,\\\"key\\\":\\\"42aeb5d5-9e2b-41e2-9fa4-0401ac4ceb4e\\\",\\\"dataValueType\\\":0,\\\"leftExpressionCaption\\\":\\\"Id\\\",\\\"rightExpression\\\":{\\\"className\\\":\\\"Terrasoft.ParameterExpression\\\",\\\"expressionType\\\":2,\\\"parameter\\\":{\\\"className\\\":\\\"Terrasoft.Parameter\\\",\\\"dataValueType\\\":26,\\\"value\\\":{\\\"value\\\":\\\"[IsOwnerSchema:false].[IsSchema:false].[Element:{6a18a85c-2af9-4297-b918-8e24ca60d88a}].[Parameter:{47ba12d2-6f4d-47e4-8f04-517f7f890648}]\\\",\\\"displayValue\\\":\\\"Добавили тип.Уникальный идентификатор записи\\\"}}}}},\\\"logicalOperation\\\":0,\\\"isEnabled\\\":true,\\\"filterType\\\":6,\\\"rootSchemaName\\\":\\\"CrocAccountTypification\\\",\\\"key\\\":\\\"\\\"}\",\"dataSourceFilters\":\"{\\\"items\\\":{\\\"42aeb5d5-9e2b-41e2-9fa4-0401ac4ceb4e\\\":{\\\"filterType\\\":1,\\\"comparisonType\\\":3,\\\"isEnabled\\\":true,\\\"trimDateTimeParameterToDate\\\":false,\\\"leftExpression\\\":{\\\"expressionType\\\":0,\\\"columnPath\\\":\\\"Id\\\"},\\\"rightExpression\\\":{\\\"expressionType\\\":2,\\\"parameter\\\":{\\\"dataValueType\\\":26,\\\"value\\\":{\\\"value\\\":\\\"[IsOwnerSchema:false].[IsSchema:false].[Element:{6a18a85c-2af9-4297-b918-8e24ca60d88a}].[Parameter:{47ba12d2-6f4d-47e4-8f04-517f7f890648}]\\\"}}}}},\\\"logicalOperation\\\":0,\\\"isEnabled\\\":true,\\\"filterType\\\":6,\\\"rootSchemaName\\\":\\\"CrocAccountTypification\\\"}\"}"
          }
        },
        {
          "BL1": "Terrasoft.Core.Process.ProcessSchemaMapping",
          "UId": "081675d7-fd95-4599-ba49-f80b1bd7b640",
          "A2": "ReadDataUserTask2",
          "A3": "57eb229f-f94f-40a9-b1d7-26963e82b08d",
          "A4": "57eb229f-f94f-40a9-b1d7-26963e82b08d",
          "GT2": "[Element:{962e5e48-5564-43ef-a5b9-7650c223feda}].[Parameter:{0d6416e9-75e7-42ce-98b0-189d611f72da}]",
          "GT3": "0d6416e9-75e7-42ce-98b0-189d611f72da",
          "GT5": "643e4d6d-7ec8-49f0-842a-066a996fbe8b",
          "GT4": "cb455b6f-78ff-4b1e-b241-c2bbc0b37e9f",
          "GT1": {
            "GS1": 1,
            "GS2": "0",
            "GS5": "cb455b6f-78ff-4b1e-b241-c2bbc0b37e9f"
          }
        },
        {
          "BL1": "Terrasoft.Core.Process.ProcessSchemaMapping",
          "UId": "b22f712a-2e06-4443-994f-c2bbc9a5821e",
          "A2": "ReadDataUserTask2",
          "A3": "57eb229f-f94f-40a9-b1d7-26963e82b08d",
          "A4": "57eb229f-f94f-40a9-b1d7-26963e82b08d",
          "GT2": "[Element:{962e5e48-5564-43ef-a5b9-7650c223feda}].[Parameter:{5c4a054a-98b8-4d4f-888f-4947b0646d01}]",
          "GT3": "5c4a054a-98b8-4d4f-888f-4947b0646d01",
          "GT5": "29115add-7520-4ad4-8371-d91f537ac913",
          "GT4": "cb455b6f-78ff-4b1e-b241-c2bbc0b37e9f",
          "GT1": {
            "GS1": 1,
            "GS2": "true"
          }
        },
        {
          "BL1": "Terrasoft.Core.Process.ProcessSchemaMapping",
          "UId": "e34b8772-5bbb-460c-bdf9-5e050462c67f",
          "A2": "ReadDataUserTask2",
          "A3": "57eb229f-f94f-40a9-b1d7-26963e82b08d",
          "A4": "57eb229f-f94f-40a9-b1d7-26963e82b08d",
          "GT2": "[Element:{962e5e48-5564-43ef-a5b9-7650c223feda}].[Parameter:{f837c3ae-7394-4112-b7a3-492666359d9c}]",
          "GT3": "f837c3ae-7394-4112-b7a3-492666359d9c",
          "GT5": "f29e5660-c5ef-4d84-8331-9046c3093519",
          "GT4": "cb455b6f-78ff-4b1e-b241-c2bbc0b37e9f",
          "GT1": {
            "GS1": 1,
            "GS2": "50"
          }
        },
        {
          "BL1": "Terrasoft.Core.Process.ProcessSchemaMapping",
          "UId": "6d9e6b43-b5aa-4ab2-84a5-93e85faa0188",
          "A2": "ReadDataUserTask2",
          "A3": "57eb229f-f94f-40a9-b1d7-26963e82b08d",
          "A4": "57eb229f-f94f-40a9-b1d7-26963e82b08d",
          "GT2": "[Element:{962e5e48-5564-43ef-a5b9-7650c223feda}].[Parameter:{d2e766fc-1a3f-4b4b-8b3f-9e8e3254c039}]",
          "GT3": "d2e766fc-1a3f-4b4b-8b3f-9e8e3254c039",
          "GT5": "94ba9876-18c1-4a68-bcef-08f7e7f0e25c",
          "GT4": "cb455b6f-78ff-4b1e-b241-c2bbc0b37e9f",
          "GT1": {
            "GS1": 1,
            "GS2": "0"
          }
        },
        {
          "BL1": "Terrasoft.Core.Process.ProcessSchemaMapping",
          "UId": "964840f9-af19-467e-82ca-3d3dd7ec7f2c",
          "A2": "ReadDataUserTask2",
          "A3": "57eb229f-f94f-40a9-b1d7-26963e82b08d",
          "A4": "57eb229f-f94f-40a9-b1d7-26963e82b08d",
          "GT2": "[Element:{962e5e48-5564-43ef-a5b9-7650c223feda}].[Parameter:{d791c931-d78d-4e96-943a-535f1c206a23}]",
          "GT3": "d791c931-d78d-4e96-943a-535f1c206a23",
          "GT5": "cb5d6d26-7e81-4cbe-8730-8b7169000d14",
          "GT4": "cb455b6f-78ff-4b1e-b241-c2bbc0b37e9f",
          "GT1": {}
        },
        {
          "BL1": "Terrasoft.Core.Process.ProcessSchemaMapping",
          "UId": "036efbdc-3c5a-444b-b075-90407d2c4cce",
          "A2": "ReadDataUserTask2",
          "A3": "57eb229f-f94f-40a9-b1d7-26963e82b08d",
          "A4": "57eb229f-f94f-40a9-b1d7-26963e82b08d",
          "GT2": "[Element:{962e5e48-5564-43ef-a5b9-7650c223feda}].[Parameter:{912b23fa-2ca5-4244-b04f-43982fd97005}]",
          "GT3": "912b23fa-2ca5-4244-b04f-43982fd97005",
          "GT5": "473e79e2-727e-40a7-8829-7eefc576b403",
          "GT4": "cb455b6f-78ff-4b1e-b241-c2bbc0b37e9f",
          "GT1": {}
        },
        {
          "BL1": "Terrasoft.Core.Process.ProcessSchemaMapping",
          "UId": "424360da-9db8-4460-9ba6-c719e846dcd7",
          "A2": "ReadDataUserTask2",
          "A3": "57eb229f-f94f-40a9-b1d7-26963e82b08d",
          "A4": "57eb229f-f94f-40a9-b1d7-26963e82b08d",
          "GT2": "[Element:{962e5e48-5564-43ef-a5b9-7650c223feda}].[Parameter:{35cddba7-9969-4022-a9b6-7b019d6b483c}]",
          "GT3": "35cddba7-9969-4022-a9b6-7b019d6b483c",
          "GT5": "e2fced10-4842-423e-ada0-523bf7ea8ad3",
          "GT4": "cb455b6f-78ff-4b1e-b241-c2bbc0b37e9f",
          "GT1": {
            "GS1": 1
          }
        },
        {
          "BL1": "Terrasoft.Core.Process.ProcessSchemaMapping",
          "UId": "dc3faaf5-cabd-4024-89e8-359493531bba",
          "A2": "ReadDataUserTask2",
          "A3": "57eb229f-f94f-40a9-b1d7-26963e82b08d",
          "A4": "57eb229f-f94f-40a9-b1d7-26963e82b08d",
          "GT2": "[Element:{962e5e48-5564-43ef-a5b9-7650c223feda}].[Parameter:{06799963-0c16-4db4-99ff-6be1dc226b46}]",
          "GT3": "06799963-0c16-4db4-99ff-6be1dc226b46",
          "GT5": "2e63ea99-8125-4254-88bd-20d3610bd471",
          "GT4": "cb455b6f-78ff-4b1e-b241-c2bbc0b37e9f",
          "GT1": {}
        },
        {
          "BL1": "Terrasoft.Core.Process.ProcessSchemaMapping",
          "UId": "f5baf492-d2e9-458c-b4ff-e45e589beda1",
          "A2": "ReadDataUserTask2",
          "A3": "57eb229f-f94f-40a9-b1d7-26963e82b08d",
          "A4": "57eb229f-f94f-40a9-b1d7-26963e82b08d",
          "GT2": "[Element:{962e5e48-5564-43ef-a5b9-7650c223feda}].[Parameter:{8e59d730-2b6e-447c-bcdb-be0da85792cf}]",
          "GT3": "8e59d730-2b6e-447c-bcdb-be0da85792cf",
          "GT5": "a3660fce-a8f9-4a68-a3c1-b4f2f7983635",
          "GT4": "cb455b6f-78ff-4b1e-b241-c2bbc0b37e9f",
          "GT1": {}
        },
        {
          "BL1": "Terrasoft.Core.Process.ProcessSchemaMapping",
          "UId": "b2d68dc2-29d4-4b56-995c-a6e0f54ba3cc",
          "A2": "ReadDataUserTask2",
          "A3": "57eb229f-f94f-40a9-b1d7-26963e82b08d",
          "A4": "57eb229f-f94f-40a9-b1d7-26963e82b08d",
          "GT2": "[Element:{962e5e48-5564-43ef-a5b9-7650c223feda}].[Parameter:{e04ebcc3-3aed-4fbe-87a5-74cdf51a8403}]",
          "GT3": "e04ebcc3-3aed-4fbe-87a5-74cdf51a8403",
          "GT5": "9a594933-75da-4304-b6a3-5945dba159e3",
          "GT4": "cb455b6f-78ff-4b1e-b241-c2bbc0b37e9f",
          "GT1": {}
        },
        {
          "BL1": "Terrasoft.Core.Process.ProcessSchemaMapping",
          "UId": "119c4367-5305-4615-9a1e-5c59fe466452",
          "A2": "ReadDataUserTask2",
          "A3": "57eb229f-f94f-40a9-b1d7-26963e82b08d",
          "A4": "57eb229f-f94f-40a9-b1d7-26963e82b08d",
          "GT2": "[Element:{962e5e48-5564-43ef-a5b9-7650c223feda}].[Parameter:{6bcdac25-acf7-4953-a20b-461d3f04d32e}]",
          "GT3": "6bcdac25-acf7-4953-a20b-461d3f04d32e",
          "GT5": "11fb235f-c06a-4111-84cd-a5dbf9a440d5",
          "GT4": "cb455b6f-78ff-4b1e-b241-c2bbc0b37e9f",
          "GT1": {}
        },
        {
          "BL1": "Terrasoft.Core.Process.ProcessSchemaMapping",
          "UId": "3ecb29cc-12ef-4b21-be1c-f3e62b438e99",
          "A2": "ReadDataUserTask2",
          "A3": "57eb229f-f94f-40a9-b1d7-26963e82b08d",
          "A4": "57eb229f-f94f-40a9-b1d7-26963e82b08d",
          "GT2": "[Element:{962e5e48-5564-43ef-a5b9-7650c223feda}].[Parameter:{593ca6ff-d4b6-4370-9ebb-de40f8b186ed}]",
          "GT3": "593ca6ff-d4b6-4370-9ebb-de40f8b186ed",
          "GT5": "78252e95-b759-416a-9c48-c128fbdf59ef",
          "GT4": "cb455b6f-78ff-4b1e-b241-c2bbc0b37e9f",
          "GT1": {}
        },
        {
          "BL1": "Terrasoft.Core.Process.ProcessSchemaMapping",
          "UId": "7c9c99a2-8124-4418-beb1-1bf2b61c9bfc",
          "A2": "ReadDataUserTask2",
          "A3": "57eb229f-f94f-40a9-b1d7-26963e82b08d",
          "A4": "57eb229f-f94f-40a9-b1d7-26963e82b08d",
          "GT2": "[Element:{962e5e48-5564-43ef-a5b9-7650c223feda}].[Parameter:{7547aaae-439f-4254-b2e8-abbe89dd7466}]",
          "GT3": "7547aaae-439f-4254-b2e8-abbe89dd7466",
          "GT5": "2f797429-6f43-4594-96bb-62fbc7b7deec",
          "GT4": "cb455b6f-78ff-4b1e-b241-c2bbc0b37e9f",
          "GT1": {
            "GS1": 1,
            "GS2": "true",
            "GS5": "cb455b6f-78ff-4b1e-b241-c2bbc0b37e9f"
          }
        },
        {
          "BL1": "Terrasoft.Core.Process.ProcessSchemaMapping",
          "UId": "e2342422-f3a5-4377-ba40-ffc60cb292a2",
          "A2": "ReadDataUserTask2",
          "A3": "57eb229f-f94f-40a9-b1d7-26963e82b08d",
          "A4": "57eb229f-f94f-40a9-b1d7-26963e82b08d",
          "GT2": "[Element:{962e5e48-5564-43ef-a5b9-7650c223feda}].[Parameter:{4cad6bbf-2e96-4b2a-a3a1-4e79dd6d8235}]",
          "GT3": "4cad6bbf-2e96-4b2a-a3a1-4e79dd6d8235",
          "GT5": "be4a0d16-6a15-41cf-ac44-a8b757565428",
          "GT4": "cb455b6f-78ff-4b1e-b241-c2bbc0b37e9f",
          "GT1": {}
        },
        {
          "BL1": "Terrasoft.Core.Process.ProcessSchemaMapping",
          "UId": "f30d4114-25f5-4bef-8168-e04799141510",
          "A2": "ReadDataUserTask2",
          "A3": "57eb229f-f94f-40a9-b1d7-26963e82b08d",
          "A4": "57eb229f-f94f-40a9-b1d7-26963e82b08d",
          "GT2": "[Element:{962e5e48-5564-43ef-a5b9-7650c223feda}].[Parameter:{3a3b789c-8411-4e0c-b61a-542b03c62c6a}]",
          "GT3": "3a3b789c-8411-4e0c-b61a-542b03c62c6a",
          "GT5": "cc12005f-f434-4a40-b9d0-dc8f81755545",
          "GT4": "cb455b6f-78ff-4b1e-b241-c2bbc0b37e9f",
          "GT1": {
            "GS1": 1,
            "GS2": "af390b92-97f9-dd02-1e9a-a54723fb920c"
          }
        },
        {
          "BL1": "Terrasoft.Core.Process.ProcessSchemaMapping",
          "UId": "6deb23d6-44ea-4dd4-a24e-e694606ec6cc",
          "A2": "ReadDataUserTask2",
          "A3": "57eb229f-f94f-40a9-b1d7-26963e82b08d",
          "A4": "57eb229f-f94f-40a9-b1d7-26963e82b08d",
          "GT2": "[Element:{962e5e48-5564-43ef-a5b9-7650c223feda}].[Parameter:{f549b7fd-471e-4bc2-8034-ba62b1913906}]",
          "GT3": "f549b7fd-471e-4bc2-8034-ba62b1913906",
          "GT5": "6dada847-859b-4e0a-9297-b3c9572530b6",
          "GT4": "cb455b6f-78ff-4b1e-b241-c2bbc0b37e9f",
          "GT1": {}
        },
        {
          "BL1": "Terrasoft.Core.Process.ProcessSchemaMapping",
          "UId": "0fa4816e-fd79-4360-9fe4-f3fa4b652983",
          "A2": "ReadDataUserTask2",
          "A3": "57eb229f-f94f-40a9-b1d7-26963e82b08d",
          "A4": "57eb229f-f94f-40a9-b1d7-26963e82b08d",
          "GT2": "[Element:{962e5e48-5564-43ef-a5b9-7650c223feda}].[Parameter:{cab003fc-e825-4dd0-bcfc-3d82093842bd}]",
          "GT3": "cab003fc-e825-4dd0-bcfc-3d82093842bd",
          "GT5": "555901ef-f707-4803-a887-1bc07e882096",
          "GT4": "cb455b6f-78ff-4b1e-b241-c2bbc0b37e9f",
          "GT1": {}
        },
        {
          "BL1": "Terrasoft.Core.Process.ProcessSchemaMapping",
          "UId": "d05dde9b-635d-4482-8a21-7205efd441b3",
          "A2": "ReadDataUserTask2",
          "A3": "57eb229f-f94f-40a9-b1d7-26963e82b08d",
          "A4": "57eb229f-f94f-40a9-b1d7-26963e82b08d",
          "GT2": "[Element:{962e5e48-5564-43ef-a5b9-7650c223feda}].[Parameter:{0edc2d08-8920-463e-8a53-6961e3d93f5a}]",
          "GT3": "0edc2d08-8920-463e-8a53-6961e3d93f5a",
          "GT5": "978b550e-1b81-448a-8700-9c9190c3a2a4",
          "GT4": "cb455b6f-78ff-4b1e-b241-c2bbc0b37e9f",
          "GT1": {
            "GS1": 3,
            "GS2": "true",
            "GS5": "cb455b6f-78ff-4b1e-b241-c2bbc0b37e9f",
            "GS8": "false"
          }
        },
        {
          "BL1": "Terrasoft.Core.Process.ProcessSchemaMapping",
          "UId": "3bdc22c2-15ef-4479-872d-05495fabb50c",
          "A2": "ChangeAdminRightsUserTask1",
          "A3": "57eb229f-f94f-40a9-b1d7-26963e82b08d",
          "A4": "57eb229f-f94f-40a9-b1d7-26963e82b08d",
          "GT2": "[Element:{8bf6a201-918a-4ab1-bb71-c92526dbbb89}].[Parameter:{86664f3b-347c-4145-84c2-77cce56f87c1}]",
          "GT3": "86664f3b-347c-4145-84c2-77cce56f87c1",
          "GT5": "c3cce1f9-375e-4eaf-a0c5-d93969d036e7",
          "GT4": "0ebbb23c-f6db-45eb-ad13-a1445b7ef081",
          "GT1": {
            "GS1": 1,
            "GS2": "25d7c1ab-1de0-4501-b402-02e0e5a72d6e"
          }
        },
        {
          "BL1": "Terrasoft.Core.Process.ProcessSchemaMapping",
          "UId": "b2bbad9c-563e-415b-83ab-52d42e1f7bfa",
          "A2": "ChangeAdminRightsUserTask1",
          "A3": "57eb229f-f94f-40a9-b1d7-26963e82b08d",
          "A4": "57eb229f-f94f-40a9-b1d7-26963e82b08d",
          "GT2": "[Element:{8bf6a201-918a-4ab1-bb71-c92526dbbb89}].[Parameter:{568df24f-766d-40dc-a9f8-349445b438a1}]",
          "GT3": "568df24f-766d-40dc-a9f8-349445b438a1",
          "GT5": "ccb6d7be-508f-4337-8120-f042ff8e5cec",
          "GT4": "0ebbb23c-f6db-45eb-ad13-a1445b7ef081",
          "GT1": {
            "GS1": 1,
            "GS2": "{\"className\":\"Terrasoft.FilterGroup\",\"serializedFilterEditData\":\"{\\\"className\\\":\\\"Terrasoft.FilterGroup\\\",\\\"items\\\":{\\\"a18a6672-7730-41b0-adcd-38bba0571c12\\\":{\\\"className\\\":\\\"Terrasoft.CompareFilter\\\",\\\"filterType\\\":1,\\\"comparisonType\\\":3,\\\"isEnabled\\\":true,\\\"trimDateTimeParameterToDate\\\":false,\\\"leftExpression\\\":{\\\"className\\\":\\\"Terrasoft.ColumnExpression\\\",\\\"expressionType\\\":0,\\\"columnPath\\\":\\\"Id\\\"},\\\"isAggregative\\\":false,\\\"key\\\":\\\"a18a6672-7730-41b0-adcd-38bba0571c12\\\",\\\"dataValueType\\\":0,\\\"leftExpressionCaption\\\":\\\"Id\\\",\\\"rightExpression\\\":{\\\"className\\\":\\\"Terrasoft.ParameterExpression\\\",\\\"expressionType\\\":2,\\\"parameter\\\":{\\\"className\\\":\\\"Terrasoft.Parameter\\\",\\\"dataValueType\\\":26,\\\"value\\\":{\\\"value\\\":\\\"[IsOwnerSchema:false].[IsSchema:false].[Element:{962e5e48-5564-43ef-a5b9-7650c223feda}].[Parameter:{35cddba7-9969-4022-a9b6-7b019d6b483c}].[EntityColumn:{af390b92-97f9-dd02-1e9a-a54723fb920c}]\\\",\\\"displayValue\\\":\\\"Читать  типизацию.Первый элемент результирующей коллекции.Контрагент\\\"}}}}},\\\"logicalOperation\\\":0,\\\"isEnabled\\\":true,\\\"filterType\\\":6,\\\"rootSchemaName\\\":\\\"Account\\\",\\\"key\\\":\\\"\\\"}\",\"dataSourceFilters\":\"{\\\"items\\\":{\\\"a18a6672-7730-41b0-adcd-38bba0571c12\\\":{\\\"filterType\\\":1,\\\"comparisonType\\\":3,\\\"isEnabled\\\":true,\\\"trimDateTimeParameterToDate\\\":false,\\\"leftExpression\\\":{\\\"expressionType\\\":0,\\\"columnPath\\\":\\\"Id\\\"},\\\"rightExpression\\\":{\\\"expressionType\\\":2,\\\"parameter\\\":{\\\"dataValueType\\\":26,\\\"value\\\":{\\\"value\\\":\\\"[IsOwnerSchema:false].[IsSchema:false].[Element:{962e5e48-5564-43ef-a5b9-7650c223feda}].[Parameter:{35cddba7-9969-4022-a9b6-7b019d6b483c}].[EntityColumn:{af390b92-97f9-dd02-1e9a-a54723fb920c}]\\\"}}}}},\\\"logicalOperation\\\":0,\\\"isEnabled\\\":true,\\\"filterType\\\":6,\\\"rootSchemaName\\\":\\\"Account\\\"}\"}"
          }
        },
        {
          "BL1": "Terrasoft.Core.Process.ProcessSchemaMapping",
          "UId": "09702416-69b7-4f4c-8fce-4075424f6503",
          "A2": "ChangeAdminRightsUserTask1",
          "A3": "57eb229f-f94f-40a9-b1d7-26963e82b08d",
          "A4": "57eb229f-f94f-40a9-b1d7-26963e82b08d",
          "GT2": "[Element:{8bf6a201-918a-4ab1-bb71-c92526dbbb89}].[Parameter:{9e973968-63d8-48bd-a1d9-d302f9a52673}]",
          "GT3": "9e973968-63d8-48bd-a1d9-d302f9a52673",
          "GT5": "9fe621f1-a3b6-45dd-b329-6a3c2bffd2ce",
          "GT4": "0ebbb23c-f6db-45eb-ad13-a1445b7ef081",
          "GT1": {
            "GS1": 1,
            "GS2": "[]"
          }
        },
        {
          "BL1": "Terrasoft.Core.Process.ProcessSchemaMapping",
          "UId": "f8ccca88-2560-4aec-a9c7-568eea1e79a6",
          "A2": "ChangeAdminRightsUserTask1",
          "A3": "57eb229f-f94f-40a9-b1d7-26963e82b08d",
          "A4": "57eb229f-f94f-40a9-b1d7-26963e82b08d",
          "GT2": "[Element:{8bf6a201-918a-4ab1-bb71-c92526dbbb89}].[Parameter:{66575f43-aaf6-463a-81d9-b6977167c998}]",
          "GT3": "66575f43-aaf6-463a-81d9-b6977167c998",
          "GT5": "2185aa6e-7e5e-4212-8164-38d402636512",
          "GT4": "0ebbb23c-f6db-45eb-ad13-a1445b7ef081",
          "GT1": {
            "GS1": 1,
            "GS2": "[{Id:\"e908e92f-8364-4a94-a459-659fa9c25d05\",Name:\"All employees.a29a3ba5-4b0d-de11-9a51-005056c00008\",CanRead:true,CanEdit:false,CanDelete:false,Source:\"3\",Grantee:\"Role\",Value:\"[#Lookup.84f44b9a-4bc3-4cbf-a1a8-cec02c1c029c.a29a3ba5-4b0d-de11-9a51-005056c00008#]\",OperationRightLevel:\"1\"}]"
          }
        },
        {
          "BL1": "Terrasoft.Core.Process.ProcessSchemaMapping",
          "UId": "dc4572c7-0d2c-4fa5-8420-47ebf8673584",
          "A2": "ChangeAdminRightsUserTask1",
          "A3": "57eb229f-f94f-40a9-b1d7-26963e82b08d",
          "A4": "57eb229f-f94f-40a9-b1d7-26963e82b08d",
          "GT2": "[Element:{8bf6a201-918a-4ab1-bb71-c92526dbbb89}].[Parameter:{881e8ca3-9615-4496-9f52-6a87b31af67c}]",
          "GT3": "881e8ca3-9615-4496-9f52-6a87b31af67c",
          "GT5": "f677b88e-54e8-5d0e-aeac-f303a33ffc7a",
          "GT4": "0ebbb23c-f6db-45eb-ad13-a1445b7ef081",
          "GT1": {
            "GS1": 3,
            "GS2": "true",
            "GS5": "0ebbb23c-f6db-45eb-ad13-a1445b7ef081",
            "GS8": "false"
          }
        }
      ],
      "BK37": {
        "BL1": "Terrasoft.Core.Process.ProcessSchemaParameter",
        "UId": "cdd58be7-2dba-4a5e-869b-1ad5d6d7513a",
        "A2": "NotificationCaption",
        "A3": "57eb229f-f94f-40a9-b1d7-26963e82b08d",
        "A4": "57eb229f-f94f-40a9-b1d7-26963e82b08d",
        "L1": "8b3f29bb-ea14-4ce5-a5c5-293a929b6ba2",
        "L8": {
          "GS1": 3,
          "GS2": "[#[PropertyValue:Caption]#]"
        }
      },
      "BK1": "FFFFFFFF",
      "BK2": "FFBBBBBB",
      "BK3": [
        {
          "BL1": "Terrasoft.Core.Process.ProcessSchemaLaneSet",
          "UId": "243ec53a-6fc6-4e1c-b8c6-f5db4c8e6612",
          "A2": "LaneSet1",
          "A3": "57eb229f-f94f-40a9-b1d7-26963e82b08d",
          "A4": "57eb229f-f94f-40a9-b1d7-26963e82b08d",
          "A5": "8027c309-f63e-4894-a830-daa104b3be05",
          "BL7": "11a47caf-a0d5-41fa-a274-a0b11f77447a",
          "BL8": "57eb229f-f94f-40a9-b1d7-26963e82b08d",
          "BM4": [
            {
              "BL1": "Terrasoft.Core.Process.ProcessSchemaLane",
              "UId": "56ddd7b6-461d-4665-a757-def95367dc25",
              "A2": "Lane1",
              "A3": "57eb229f-f94f-40a9-b1d7-26963e82b08d",
              "A4": "57eb229f-f94f-40a9-b1d7-26963e82b08d",
              "A5": "8027c309-f63e-4894-a830-daa104b3be05",
              "IL2": "243ec53a-6fc6-4e1c-b8c6-f5db4c8e6612",
              "BL7": "abcd74b9-5912-414b-82ac-f1aa4dcd554e",
              "BL8": "57eb229f-f94f-40a9-b1d7-26963e82b08d",
              "CD1": [],
              "CD2": [],
              "CD4": "243ec53a-6fc6-4e1c-b8c6-f5db4c8e6612",
              "CD7": []
            }
          ]
        }
      ],
      "BK5": [],
      "BK4": [
        {
          "BL1": "Terrasoft.Core.Process.ProcessSchemaTerminateEvent",
          "UId": "db6deb46-a59e-46bb-af8d-43bf3b8d9a55",
          "A2": "TerminateEvent1",
          "A3": "57eb229f-f94f-40a9-b1d7-26963e82b08d",
          "A4": "57eb229f-f94f-40a9-b1d7-26963e82b08d",
          "A5": "8027c309-f63e-4894-a830-daa104b3be05",
          "IL2": "56ddd7b6-461d-4665-a757-def95367dc25",
          "BL3": "600;184",
          "BL7": "1bd93619-0574-454e-bb4e-cf53b9eb9470",
          "BL8": "57eb229f-f94f-40a9-b1d7-26963e82b08d",
          "BN2": "31;31",
          "BO3": true,
          "FC1": []
        },
        {
          "BL1": "Terrasoft.Core.Process.ProcessSchemaStartSignalEvent",
          "UId": "6a18a85c-2af9-4297-b918-8e24ca60d88a",
          "A2": "StartSignal1",
          "A3": "57eb229f-f94f-40a9-b1d7-26963e82b08d",
          "A4": "57eb229f-f94f-40a9-b1d7-26963e82b08d",
          "A5": "8027c309-f63e-4894-a830-daa104b3be05",
          "IL2": "56ddd7b6-461d-4665-a757-def95367dc25",
          "IL3": true,
          "BL3": "50;184",
          "BL7": "1129e72f-0e8c-445a-b2ea-463517e86395",
          "BL8": "57eb229f-f94f-40a9-b1d7-26963e82b08d",
          "BN2": "31;31",
          "BO3": true,
          "FC1": [
            {
              "BL1": "Terrasoft.Core.Process.ProcessSchemaParameter",
              "UId": "47ba12d2-6f4d-47e4-8f04-517f7f890648",
              "A2": "RecordId",
              "A3": "57eb229f-f94f-40a9-b1d7-26963e82b08d",
              "A4": "57eb229f-f94f-40a9-b1d7-26963e82b08d",
              "IL2": "6a18a85c-2af9-4297-b918-8e24ca60d88a",
              "L1": "23018567-a13c-4320-8687-fd6f9e3699bd",
              "L8": {
                "GS1": 1,
                "GS2": ""
              }
            }
          ],
          "FC2": "ec514948-7e1b-4442-bbdb-d38b3fd1762d",
          "ED1": false,
          "DZ1": "null",
          "DZ2": false,
          "DZ3": true,
          "DZ5": 1,
          "DZ8": true,
          "DZ12": "{\"$type\":\"System.Collections.ObjectModel.Collection`1[[System.String, mscorlib]], mscorlib\",\"$values\":[]}",
          "DZ13": "{\"className\":\"Terrasoft.FilterGroup\",\"serializedFilterEditData\":\"{\\\"className\\\":\\\"Terrasoft.FilterGroup\\\",\\\"items\\\":{\\\"eb3a01f0-a54d-488c-964b-08ce1b8b8f7e\\\":{\\\"className\\\":\\\"Terrasoft.InFilter\\\",\\\"filterType\\\":4,\\\"comparisonType\\\":3,\\\"isEnabled\\\":true,\\\"trimDateTimeParameterToDate\\\":false,\\\"leftExpression\\\":{\\\"className\\\":\\\"Terrasoft.ColumnExpression\\\",\\\"expressionType\\\":0,\\\"columnPath\\\":\\\"CrocType\\\"},\\\"isAggregative\\\":false,\\\"key\\\":\\\"eb3a01f0-a54d-488c-964b-08ce1b8b8f7e\\\",\\\"dataValueType\\\":10,\\\"leftExpressionCaption\\\":\\\"Тип\\\",\\\"referenceSchemaName\\\":\\\"AccountType\\\",\\\"rightExpressions\\\":[{\\\"className\\\":\\\"Terrasoft.ParameterExpression\\\",\\\"expressionType\\\":2,\\\"parameter\\\":{\\\"className\\\":\\\"Terrasoft.Parameter\\\",\\\"dataValueType\\\":10,\\\"value\\\":{\\\"Name\\\":\\\"Порт\\\",\\\"Id\\\":\\\"7cc6f423-18b1-4af7-bd9d-59de34e98c84\\\",\\\"value\\\":\\\"7cc6f423-18b1-4af7-bd9d-59de34e98c84\\\",\\\"displayValue\\\":\\\"Порт\\\"}}},{\\\"className\\\":\\\"Terrasoft.ParameterExpression\\\",\\\"expressionType\\\":2,\\\"parameter\\\":{\\\"className\\\":\\\"Terrasoft.Parameter\\\",\\\"dataValueType\\\":10,\\\"value\\\":{\\\"Name\\\":\\\"Элеватор\\\",\\\"Id\\\":\\\"a7810de5-a458-419f-b6e6-79792c706298\\\",\\\"value\\\":\\\"a7810de5-a458-419f-b6e6-79792c706298\\\",\\\"displayValue\\\":\\\"Элеватор\\\"}}}]}},\\\"logicalOperation\\\":0,\\\"isEnabled\\\":true,\\\"filterType\\\":6,\\\"rootSchemaName\\\":\\\"CrocAccountTypification\\\",\\\"key\\\":\\\"\\\"}\",\"dataSourceFilters\":\"{\\\"items\\\":{\\\"eb3a01f0-a54d-488c-964b-08ce1b8b8f7e\\\":{\\\"filterType\\\":4,\\\"comparisonType\\\":3,\\\"isEnabled\\\":true,\\\"trimDateTimeParameterToDate\\\":false,\\\"leftExpression\\\":{\\\"expressionType\\\":0,\\\"columnPath\\\":\\\"CrocType\\\"},\\\"rightExpressions\\\":[{\\\"expressionType\\\":2,\\\"parameter\\\":{\\\"dataValueType\\\":10,\\\"value\\\":\\\"7cc6f423-18b1-4af7-bd9d-59de34e98c84\\\"}},{\\\"expressionType\\\":2,\\\"parameter\\\":{\\\"dataValueType\\\":10,\\\"value\\\":\\\"a7810de5-a458-419f-b6e6-79792c706298\\\"}}]}},\\\"logicalOperation\\\":0,\\\"isEnabled\\\":true,\\\"filterType\\\":6,\\\"rootSchemaName\\\":\\\"CrocAccountTypification\\\"}\"}"
        },
        {
          "BL1": "Terrasoft.Core.Process.ProcessSchemaUserTask",
          "UId": "962e5e48-5564-43ef-a5b9-7650c223feda",
          "A2": "ReadDataUserTask2",
          "A3": "57eb229f-f94f-40a9-b1d7-26963e82b08d",
          "A4": "57eb229f-f94f-40a9-b1d7-26963e82b08d",
          "A5": "8027c309-f63e-4894-a830-daa104b3be05",
          "IL2": "56ddd7b6-461d-4665-a757-def95367dc25",
          "BL3": "159;172",
          "BL7": "cb455b6f-78ff-4b1e-b241-c2bbc0b37e9f",
          "BL8": "57eb229f-f94f-40a9-b1d7-26963e82b08d",
          "BN2": "69;55",
          "BO2": true,
          "BO3": true,
          "BP2": [
            {
              "BL1": "Terrasoft.Core.Process.ProcessSchemaParameter",
              "UId": "c5948ebd-3775-480c-b29a-ea177127d8bf",
              "A2": "DataSourceFilters",
              "A3": "cb455b6f-78ff-4b1e-b241-c2bbc0b37e9f",
              "A4": "cb455b6f-78ff-4b1e-b241-c2bbc0b37e9f",
              "A5": "66e9e705-64b4-4dda-925e-d1e05a389eb6",
              "IL2": "962e5e48-5564-43ef-a5b9-7650c223feda",
              "L1": "394e160f-c8e0-46fa-9c0d-75d97e9e9169",
              "L8": {
                "GS1": 1,
                "GS2": "{\"className\":\"Terrasoft.FilterGroup\",\"serializedFilterEditData\":\"{\\\"className\\\":\\\"Terrasoft.FilterGroup\\\",\\\"items\\\":{\\\"42aeb5d5-9e2b-41e2-9fa4-0401ac4ceb4e\\\":{\\\"className\\\":\\\"Terrasoft.CompareFilter\\\",\\\"filterType\\\":1,\\\"comparisonType\\\":3,\\\"isEnabled\\\":true,\\\"trimDateTimeParameterToDate\\\":false,\\\"leftExpression\\\":{\\\"className\\\":\\\"Terrasoft.ColumnExpression\\\",\\\"expressionType\\\":0,\\\"columnPath\\\":\\\"Id\\\"},\\\"isAggregative\\\":false,\\\"key\\\":\\\"42aeb5d5-9e2b-41e2-9fa4-0401ac4ceb4e\\\",\\\"dataValueType\\\":0,\\\"leftExpressionCaption\\\":\\\"Id\\\",\\\"rightExpression\\\":{\\\"className\\\":\\\"Terrasoft.ParameterExpression\\\",\\\"expressionType\\\":2,\\\"parameter\\\":{\\\"className\\\":\\\"Terrasoft.Parameter\\\",\\\"dataValueType\\\":26,\\\"value\\\":{\\\"value\\\":\\\"[IsOwnerSchema:false].[IsSchema:false].[Element:{6a18a85c-2af9-4297-b918-8e24ca60d88a}].[Parameter:{47ba12d2-6f4d-47e4-8f04-517f7f890648}]\\\",\\\"displayValue\\\":\\\"Добавили тип.Уникальный идентификатор записи\\\"}}}}},\\\"logicalOperation\\\":0,\\\"isEnabled\\\":true,\\\"filterType\\\":6,\\\"rootSchemaName\\\":\\\"CrocAccountTypification\\\",\\\"key\\\":\\\"\\\"}\",\"dataSourceFilters\":\"{\\\"items\\\":{\\\"42aeb5d5-9e2b-41e2-9fa4-0401ac4ceb4e\\\":{\\\"filterType\\\":1,\\\"comparisonType\\\":3,\\\"isEnabled\\\":true,\\\"trimDateTimeParameterToDate\\\":false,\\\"leftExpression\\\":{\\\"expressionType\\\":0,\\\"columnPath\\\":\\\"Id\\\"},\\\"rightExpression\\\":{\\\"expressionType\\\":2,\\\"parameter\\\":{\\\"dataValueType\\\":26,\\\"value\\\":{\\\"value\\\":\\\"[IsOwnerSchema:false].[IsSchema:false].[Element:{6a18a85c-2af9-4297-b918-8e24ca60d88a}].[Parameter:{47ba12d2-6f4d-47e4-8f04-517f7f890648}]\\\"}}}}},\\\"logicalOperation\\\":0,\\\"isEnabled\\\":true,\\\"filterType\\\":6,\\\"rootSchemaName\\\":\\\"CrocAccountTypification\\\"}\"}",
                "GS5": "57eb229f-f94f-40a9-b1d7-26963e82b08d"
              }
            },
            {
              "BL1": "Terrasoft.Core.Process.ProcessSchemaParameter",
              "UId": "0d6416e9-75e7-42ce-98b0-189d611f72da",
              "A2": "ResultType",
              "A3": "cb455b6f-78ff-4b1e-b241-c2bbc0b37e9f",
              "A4": "cb455b6f-78ff-4b1e-b241-c2bbc0b37e9f",
              "IL2": "962e5e48-5564-43ef-a5b9-7650c223feda",
              "L1": "6b6b74e2-820d-490e-a017-2b73d4ccf2b0",
              "L8": {
                "GS1": 1,
                "GS2": "0",
                "GS5": "cb455b6f-78ff-4b1e-b241-c2bbc0b37e9f"
              }
            },
            {
              "BL1": "Terrasoft.Core.Process.ProcessSchemaParameter",
              "UId": "5c4a054a-98b8-4d4f-888f-4947b0646d01",
              "A2": "ReadSomeTopRecords",
              "A3": "cb455b6f-78ff-4b1e-b241-c2bbc0b37e9f",
              "A4": "cb455b6f-78ff-4b1e-b241-c2bbc0b37e9f",
              "IL2": "962e5e48-5564-43ef-a5b9-7650c223feda",
              "L1": "90b65bf8-0ffc-4141-8779-2420877af907",
              "L8": {
                "GS1": 1,
                "GS2": "true",
                "GS5": "57eb229f-f94f-40a9-b1d7-26963e82b08d"
              }
            },
            {
              "BL1": "Terrasoft.Core.Process.ProcessSchemaParameter",
              "UId": "f837c3ae-7394-4112-b7a3-492666359d9c",
              "A2": "NumberOfRecords",
              "A3": "cb455b6f-78ff-4b1e-b241-c2bbc0b37e9f",
              "A4": "cb455b6f-78ff-4b1e-b241-c2bbc0b37e9f",
              "IL2": "962e5e48-5564-43ef-a5b9-7650c223feda",
              "L1": "6b6b74e2-820d-490e-a017-2b73d4ccf2b0",
              "L8": {
                "GS1": 1,
                "GS2": "50",
                "GS5": "57eb229f-f94f-40a9-b1d7-26963e82b08d"
              }
            },
            {
              "BL1": "Terrasoft.Core.Process.ProcessSchemaParameter",
              "UId": "d2e766fc-1a3f-4b4b-8b3f-9e8e3254c039",
              "A2": "FunctionType",
              "A3": "cb455b6f-78ff-4b1e-b241-c2bbc0b37e9f",
              "A4": "cb455b6f-78ff-4b1e-b241-c2bbc0b37e9f",
              "IL2": "962e5e48-5564-43ef-a5b9-7650c223feda",
              "L1": "6b6b74e2-820d-490e-a017-2b73d4ccf2b0",
              "L8": {
                "GS1": 1,
                "GS2": "0",
                "GS5": "57eb229f-f94f-40a9-b1d7-26963e82b08d"
              }
            },
            {
              "BL1": "Terrasoft.Core.Process.ProcessSchemaParameter",
              "UId": "d791c931-d78d-4e96-943a-535f1c206a23",
              "A2": "AggregationColumnName",
              "A3": "cb455b6f-78ff-4b1e-b241-c2bbc0b37e9f",
              "A4": "cb455b6f-78ff-4b1e-b241-c2bbc0b37e9f",
              "IL2": "962e5e48-5564-43ef-a5b9-7650c223feda",
              "L1": "394e160f-c8e0-46fa-9c0d-75d97e9e9169",
              "L8": {}
            },
            {
              "BL1": "Terrasoft.Core.Process.ProcessSchemaParameter",
              "UId": "912b23fa-2ca5-4244-b04f-43982fd97005",
              "A2": "OrderInfo",
              "A3": "cb455b6f-78ff-4b1e-b241-c2bbc0b37e9f",
              "A4": "cb455b6f-78ff-4b1e-b241-c2bbc0b37e9f",
              "IL2": "962e5e48-5564-43ef-a5b9-7650c223feda",
              "L1": "394e160f-c8e0-46fa-9c0d-75d97e9e9169",
              "L8": {}
            },
            {
              "BL1": "Terrasoft.Core.Process.ProcessSchemaParameter",
              "UId": "35cddba7-9969-4022-a9b6-7b019d6b483c",
              "A2": "ResultEntity",
              "A3": "cb455b6f-78ff-4b1e-b241-c2bbc0b37e9f",
              "A4": "cb455b6f-78ff-4b1e-b241-c2bbc0b37e9f",
              "A5": "66e9e705-64b4-4dda-925e-d1e05a389eb6",
              "IL2": "962e5e48-5564-43ef-a5b9-7650c223feda",
              "L1": "ebd85d37-0abf-4bbf-bb32-97dc3dffcc8c",
              "L8": {
                "GS1": 1,
                "GS5": "57eb229f-f94f-40a9-b1d7-26963e82b08d"
              },
              "L9": "ec514948-7e1b-4442-bbdb-d38b3fd1762d",
              "L13": true
            },
            {
              "BL1": "Terrasoft.Core.Process.ProcessSchemaParameter",
              "UId": "06799963-0c16-4db4-99ff-6be1dc226b46",
              "A2": "ResultCount",
              "A3": "cb455b6f-78ff-4b1e-b241-c2bbc0b37e9f",
              "A4": "cb455b6f-78ff-4b1e-b241-c2bbc0b37e9f",
              "IL2": "962e5e48-5564-43ef-a5b9-7650c223feda",
              "L1": "6b6b74e2-820d-490e-a017-2b73d4ccf2b0",
              "L8": {}
            },
            {
              "BL1": "Terrasoft.Core.Process.ProcessSchemaParameter",
              "UId": "8e59d730-2b6e-447c-bcdb-be0da85792cf",
              "A2": "ResultIntegerFunction",
              "A3": "cb455b6f-78ff-4b1e-b241-c2bbc0b37e9f",
              "A4": "cb455b6f-78ff-4b1e-b241-c2bbc0b37e9f",
              "IL2": "962e5e48-5564-43ef-a5b9-7650c223feda",
              "L1": "6b6b74e2-820d-490e-a017-2b73d4ccf2b0",
              "L8": {}
            },
            {
              "BL1": "Terrasoft.Core.Process.ProcessSchemaParameter",
              "UId": "e04ebcc3-3aed-4fbe-87a5-74cdf51a8403",
              "A2": "ResultFloatFunction",
              "A3": "cb455b6f-78ff-4b1e-b241-c2bbc0b37e9f",
              "A4": "cb455b6f-78ff-4b1e-b241-c2bbc0b37e9f",
              "IL2": "962e5e48-5564-43ef-a5b9-7650c223feda",
              "L1": "ff22e049-4d16-46ee-a529-92d8808932dc",
              "L8": {}
            },
            {
              "BL1": "Terrasoft.Core.Process.ProcessSchemaParameter",
              "UId": "6bcdac25-acf7-4953-a20b-461d3f04d32e",
              "A2": "ResultDateTimeFunction",
              "A3": "cb455b6f-78ff-4b1e-b241-c2bbc0b37e9f",
              "A4": "cb455b6f-78ff-4b1e-b241-c2bbc0b37e9f",
              "IL2": "962e5e48-5564-43ef-a5b9-7650c223feda",
              "L1": "d21e9ef4-c064-4012-b286-fa1a8171da44",
              "L8": {}
            },
            {
              "BL1": "Terrasoft.Core.Process.ProcessSchemaParameter",
              "UId": "593ca6ff-d4b6-4370-9ebb-de40f8b186ed",
              "A2": "ResultRowsCount",
              "A3": "cb455b6f-78ff-4b1e-b241-c2bbc0b37e9f",
              "A4": "cb455b6f-78ff-4b1e-b241-c2bbc0b37e9f",
              "IL2": "962e5e48-5564-43ef-a5b9-7650c223feda",
              "L1": "6b6b74e2-820d-490e-a017-2b73d4ccf2b0",
              "L8": {}
            },
            {
              "BL1": "Terrasoft.Core.Process.ProcessSchemaParameter",
              "UId": "7547aaae-439f-4254-b2e8-abbe89dd7466",
              "A2": "CanReadUncommitedData",
              "A3": "cb455b6f-78ff-4b1e-b241-c2bbc0b37e9f",
              "A4": "cb455b6f-78ff-4b1e-b241-c2bbc0b37e9f",
              "IL2": "962e5e48-5564-43ef-a5b9-7650c223feda",
              "L1": "90b65bf8-0ffc-4141-8779-2420877af907",
              "L8": {
                "GS1": 1,
                "GS2": "true",
                "GS5": "cb455b6f-78ff-4b1e-b241-c2bbc0b37e9f"
              }
            },
            {
              "BL1": "Terrasoft.Core.Process.ProcessSchemaParameter",
              "UId": "4cad6bbf-2e96-4b2a-a3a1-4e79dd6d8235",
              "A2": "ResultEntityCollection",
              "A3": "cb455b6f-78ff-4b1e-b241-c2bbc0b37e9f",
              "A4": "cb455b6f-78ff-4b1e-b241-c2bbc0b37e9f",
              "IL2": "962e5e48-5564-43ef-a5b9-7650c223feda",
              "L1": "51fb23ba-3eb2-11e2-b7d5-b0c76188709b",
              "L8": {}
            },
            {
              "BL1": "Terrasoft.Core.Process.ProcessSchemaParameter",
              "UId": "3a3b789c-8411-4e0c-b61a-542b03c62c6a",
              "A2": "EntityColumnMetaPathes",
              "A3": "cb455b6f-78ff-4b1e-b241-c2bbc0b37e9f",
              "A4": "cb455b6f-78ff-4b1e-b241-c2bbc0b37e9f",
              "IL2": "962e5e48-5564-43ef-a5b9-7650c223feda",
              "L1": "394e160f-c8e0-46fa-9c0d-75d97e9e9169",
              "L8": {
                "GS1": 1,
                "GS2": "af390b92-97f9-dd02-1e9a-a54723fb920c",
                "GS5": "57eb229f-f94f-40a9-b1d7-26963e82b08d"
              }
            },
            {
              "BL1": "Terrasoft.Core.Process.ProcessSchemaParameter",
              "UId": "f549b7fd-471e-4bc2-8034-ba62b1913906",
              "A2": "IgnoreDisplayValues",
              "A3": "cb455b6f-78ff-4b1e-b241-c2bbc0b37e9f",
              "A4": "cb455b6f-78ff-4b1e-b241-c2bbc0b37e9f",
              "IL2": "962e5e48-5564-43ef-a5b9-7650c223feda",
              "L1": "90b65bf8-0ffc-4141-8779-2420877af907",
              "L8": {}
            },
            {
              "BL1": "Terrasoft.Core.Process.ProcessSchemaParameter",
              "UId": "cab003fc-e825-4dd0-bcfc-3d82093842bd",
              "A2": "ResultCompositeObjectList",
              "A3": "cb455b6f-78ff-4b1e-b241-c2bbc0b37e9f",
              "A4": "cb455b6f-78ff-4b1e-b241-c2bbc0b37e9f",
              "IL2": "962e5e48-5564-43ef-a5b9-7650c223feda",
              "L1": "651ec16f-d140-46db-b9e2-825c985a8ac2",
              "L8": {}
            },
            {
              "BL1": "Terrasoft.Core.Process.ProcessSchemaParameter",
              "UId": "0edc2d08-8920-463e-8a53-6961e3d93f5a",
              "A2": "ConsiderTimeInFilter",
              "A3": "cb455b6f-78ff-4b1e-b241-c2bbc0b37e9f",
              "A4": "cb455b6f-78ff-4b1e-b241-c2bbc0b37e9f",
              "IL2": "962e5e48-5564-43ef-a5b9-7650c223feda",
              "L1": "90b65bf8-0ffc-4141-8779-2420877af907",
              "L8": {
                "GS1": 3,
                "GS2": "true",
                "GS5": "cb455b6f-78ff-4b1e-b241-c2bbc0b37e9f",
                "GS8": "false"
              }
            }
          ],
          "CL2": "FFFFFFFF",
          "J6": "cb455b6f-78ff-4b1e-b241-c2bbc0b37e9f"
        },
        {
          "BL1": "Terrasoft.Core.Process.ProcessSchemaUserTask",
          "UId": "8bf6a201-918a-4ab1-bb71-c92526dbbb89",
          "A2": "ChangeAdminRightsUserTask1",
          "A3": "57eb229f-f94f-40a9-b1d7-26963e82b08d",
          "A4": "57eb229f-f94f-40a9-b1d7-26963e82b08d",
          "A5": "8027c309-f63e-4894-a830-daa104b3be05",
          "IL2": "56ddd7b6-461d-4665-a757-def95367dc25",
          "BL3": "290;172",
          "BL7": "0ebbb23c-f6db-45eb-ad13-a1445b7ef081",
          "BL8": "57eb229f-f94f-40a9-b1d7-26963e82b08d",
          "BN2": "69;55",
          "BO3": true,
          "BP2": [
            {
              "BL1": "Terrasoft.Core.Process.ProcessSchemaParameter",
              "UId": "86664f3b-347c-4145-84c2-77cce56f87c1",
              "A2": "EntitySchemaUId",
              "A3": "0ebbb23c-f6db-45eb-ad13-a1445b7ef081",
              "A4": "0ebbb23c-f6db-45eb-ad13-a1445b7ef081",
              "IL2": "8bf6a201-918a-4ab1-bb71-c92526dbbb89",
              "L1": "23018567-a13c-4320-8687-fd6f9e3699bd",
              "L8": {
                "GS1": 1,
                "GS2": "25d7c1ab-1de0-4501-b402-02e0e5a72d6e",
                "GS5": "57eb229f-f94f-40a9-b1d7-26963e82b08d"
              }
            },
            {
              "BL1": "Terrasoft.Core.Process.ProcessSchemaParameter",
              "UId": "568df24f-766d-40dc-a9f8-349445b438a1",
              "A2": "DataSourceFilters",
              "A3": "0ebbb23c-f6db-45eb-ad13-a1445b7ef081",
              "A4": "0ebbb23c-f6db-45eb-ad13-a1445b7ef081",
              "IL2": "8bf6a201-918a-4ab1-bb71-c92526dbbb89",
              "L1": "394e160f-c8e0-46fa-9c0d-75d97e9e9169",
              "L8": {
                "GS1": 1,
                "GS2": "{\"className\":\"Terrasoft.FilterGroup\",\"serializedFilterEditData\":\"{\\\"className\\\":\\\"Terrasoft.FilterGroup\\\",\\\"items\\\":{\\\"a18a6672-7730-41b0-adcd-38bba0571c12\\\":{\\\"className\\\":\\\"Terrasoft.CompareFilter\\\",\\\"filterType\\\":1,\\\"comparisonType\\\":3,\\\"isEnabled\\\":true,\\\"trimDateTimeParameterToDate\\\":false,\\\"leftExpression\\\":{\\\"className\\\":\\\"Terrasoft.ColumnExpression\\\",\\\"expressionType\\\":0,\\\"columnPath\\\":\\\"Id\\\"},\\\"isAggregative\\\":false,\\\"key\\\":\\\"a18a6672-7730-41b0-adcd-38bba0571c12\\\",\\\"dataValueType\\\":0,\\\"leftExpressionCaption\\\":\\\"Id\\\",\\\"rightExpression\\\":{\\\"className\\\":\\\"Terrasoft.ParameterExpression\\\",\\\"expressionType\\\":2,\\\"parameter\\\":{\\\"className\\\":\\\"Terrasoft.Parameter\\\",\\\"dataValueType\\\":26,\\\"value\\\":{\\\"value\\\":\\\"[IsOwnerSchema:false].[IsSchema:false].[Element:{962e5e48-5564-43ef-a5b9-7650c223feda}].[Parameter:{35cddba7-9969-4022-a9b6-7b019d6b483c}].[EntityColumn:{af390b92-97f9-dd02-1e9a-a54723fb920c}]\\\",\\\"displayValue\\\":\\\"Читать  типизацию.Первый элемент результирующей коллекции.Контрагент\\\"}}}}},\\\"logicalOperation\\\":0,\\\"isEnabled\\\":true,\\\"filterType\\\":6,\\\"rootSchemaName\\\":\\\"Account\\\",\\\"key\\\":\\\"\\\"}\",\"dataSourceFilters\":\"{\\\"items\\\":{\\\"a18a6672-7730-41b0-adcd-38bba0571c12\\\":{\\\"filterType\\\":1,\\\"comparisonType\\\":3,\\\"isEnabled\\\":true,\\\"trimDateTimeParameterToDate\\\":false,\\\"leftExpression\\\":{\\\"expressionType\\\":0,\\\"columnPath\\\":\\\"Id\\\"},\\\"rightExpression\\\":{\\\"expressionType\\\":2,\\\"parameter\\\":{\\\"dataValueType\\\":26,\\\"value\\\":{\\\"value\\\":\\\"[IsOwnerSchema:false].[IsSchema:false].[Element:{962e5e48-5564-43ef-a5b9-7650c223feda}].[Parameter:{35cddba7-9969-4022-a9b6-7b019d6b483c}].[EntityColumn:{af390b92-97f9-dd02-1e9a-a54723fb920c}]\\\"}}}}},\\\"logicalOperation\\\":0,\\\"isEnabled\\\":true,\\\"filterType\\\":6,\\\"rootSchemaName\\\":\\\"Account\\\"}\"}",
                "GS5": "57eb229f-f94f-40a9-b1d7-26963e82b08d"
              }
            },
            {
              "BL1": "Terrasoft.Core.Process.ProcessSchemaParameter",
              "UId": "9e973968-63d8-48bd-a1d9-d302f9a52673",
              "A2": "DeleteRights",
              "A3": "0ebbb23c-f6db-45eb-ad13-a1445b7ef081",
              "A4": "0ebbb23c-f6db-45eb-ad13-a1445b7ef081",
              "IL2": "8bf6a201-918a-4ab1-bb71-c92526dbbb89",
              "L1": "394e160f-c8e0-46fa-9c0d-75d97e9e9169",
              "L8": {
                "GS1": 1,
                "GS2": "[]",
                "GS5": "57eb229f-f94f-40a9-b1d7-26963e82b08d"
              }
            },
            {
              "BL1": "Terrasoft.Core.Process.ProcessSchemaParameter",
              "UId": "66575f43-aaf6-463a-81d9-b6977167c998",
              "A2": "AddRights",
              "A3": "0ebbb23c-f6db-45eb-ad13-a1445b7ef081",
              "A4": "0ebbb23c-f6db-45eb-ad13-a1445b7ef081",
              "IL2": "8bf6a201-918a-4ab1-bb71-c92526dbbb89",
              "L1": "394e160f-c8e0-46fa-9c0d-75d97e9e9169",
              "L8": {
                "GS1": 1,
                "GS2": "[{Id:\"e908e92f-8364-4a94-a459-659fa9c25d05\",Name:\"All employees.a29a3ba5-4b0d-de11-9a51-005056c00008\",CanRead:true,CanEdit:false,CanDelete:false,Source:\"3\",Grantee:\"Role\",Value:\"[#Lookup.84f44b9a-4bc3-4cbf-a1a8-cec02c1c029c.a29a3ba5-4b0d-de11-9a51-005056c00008#]\",OperationRightLevel:\"1\"}]",
                "GS5": "57eb229f-f94f-40a9-b1d7-26963e82b08d"
              }
            },
            {
              "BL1": "Terrasoft.Core.Process.ProcessSchemaParameter",
              "UId": "881e8ca3-9615-4496-9f52-6a87b31af67c",
              "A2": "ConsiderTimeInFilter",
              "A3": "0ebbb23c-f6db-45eb-ad13-a1445b7ef081",
              "A4": "0ebbb23c-f6db-45eb-ad13-a1445b7ef081",
              "IL2": "8bf6a201-918a-4ab1-bb71-c92526dbbb89",
              "L1": "90b65bf8-0ffc-4141-8779-2420877af907",
              "L8": {
                "GS1": 3,
                "GS2": "true",
                "GS5": "0ebbb23c-f6db-45eb-ad13-a1445b7ef081",
                "GS8": "false"
              }
            },
            {
              "BL1": "Terrasoft.Core.Process.ProcessSchemaParameter",
              "UId": "e908e92f-8364-4a94-a459-659fa9c25d05",
              "A2": "Role1",
              "A3": "57eb229f-f94f-40a9-b1d7-26963e82b08d",
              "A4": "57eb229f-f94f-40a9-b1d7-26963e82b08d",
              "IL2": "8bf6a201-918a-4ab1-bb71-c92526dbbb89",
              "L1": "b295071f-7ea9-4e62-8d1a-919bf3732ff2",
              "L8": {
                "GS1": 3,
                "GS2": "[#Lookup.84f44b9a-4bc3-4cbf-a1a8-cec02c1c029c.a29a3ba5-4b0d-de11-9a51-005056c00008#]",
                "GS5": "57eb229f-f94f-40a9-b1d7-26963e82b08d"
              },
              "L9": "84f44b9a-4bc3-4cbf-a1a8-cec02c1c029c"
            }
          ],
          "CL2": "FFFFFFFF",
          "J6": "0ebbb23c-f6db-45eb-ad13-a1445b7ef081"
        },
        {
          "BL1": "Terrasoft.Core.Process.ProcessSchemaSequenceFlow",
          "UId": "f9af5c5b-06c0-403a-a3c7-f83f2c2932c7",
          "A2": "SequenceFlow1",
          "A3": "57eb229f-f94f-40a9-b1d7-26963e82b08d",
          "A4": "57eb229f-f94f-40a9-b1d7-26963e82b08d",
          "A5": "8027c309-f63e-4894-a830-daa104b3be05",
          "BL7": "0d8351f6-c2f4-4737-bdd9-6fbfe0837fec",
          "BL8": "57eb229f-f94f-40a9-b1d7-26963e82b08d",
          "CI1": "6a18a85c-2af9-4297-b918-8e24ca60d88a",
          "CI2": "962e5e48-5564-43ef-a5b9-7650c223feda",
          "CI3": "null",
          "CI5": "FF939598",
          "CI6": 1,
          "CI11": "81;200",
          "CI12": "159;200"
        },
        {
          "BL1": "Terrasoft.Core.Process.ProcessSchemaSequenceFlow",
          "UId": "3a4ca048-8e90-40c5-ac4f-4a640d1e5df9",
          "A2": "SequenceFlow2",
          "A3": "57eb229f-f94f-40a9-b1d7-26963e82b08d",
          "A4": "57eb229f-f94f-40a9-b1d7-26963e82b08d",
          "A5": "8027c309-f63e-4894-a830-daa104b3be05",
          "BL7": "0d8351f6-c2f4-4737-bdd9-6fbfe0837fec",
          "BL8": "57eb229f-f94f-40a9-b1d7-26963e82b08d",
          "CI1": "962e5e48-5564-43ef-a5b9-7650c223feda",
          "CI2": "8bf6a201-918a-4ab1-bb71-c92526dbbb89",
          "CI3": "null",
          "CI5": "FF939598",
          "CI6": 1,
          "CI11": "228;200",
          "CI12": "290;200"
        },
        {
          "BL1": "Terrasoft.Core.Process.ProcessSchemaSequenceFlow",
          "UId": "2b28735d-dd1e-494f-b8af-0abf83c6e6b7",
          "A2": "SequenceFlow3",
          "A3": "57eb229f-f94f-40a9-b1d7-26963e82b08d",
          "A4": "57eb229f-f94f-40a9-b1d7-26963e82b08d",
          "A5": "8027c309-f63e-4894-a830-daa104b3be05",
          "BL7": "0d8351f6-c2f4-4737-bdd9-6fbfe0837fec",
          "BL8": "57eb229f-f94f-40a9-b1d7-26963e82b08d",
          "CI1": "8bf6a201-918a-4ab1-bb71-c92526dbbb89",
          "CI2": "db6deb46-a59e-46bb-af8d-43bf3b8d9a55",
          "CI3": "null",
          "CI5": "FF939598",
          "CI6": 1,
          "CI11": "359;200",
          "CI12": "600;200"
        }
      ],
      "BK9": [],
      "BK18": "Business Process",
      "BK29": true,
      "BK30": true,
      "BK34": "ru-RU",
      "Labels": [],
      "BK24": []
    }
  }
}