﻿{
  "PackageData": [
    {
      "Row": [
        {
          "SchemaColumnUId": "ae0e45ca-c495-4fe7-a39d-3ab7278e1617",
          "ColumnName": "Id",
          "Value": "fe0c8eeb-c0c6-4b8f-b02f-7534fee02a54"
        },
        {
          "SchemaColumnUId": "b4972436-c042-4a3b-a025-f04575f10532",
          "ColumnName": "TemplateConfig",
          "Value": ""
        },
        {
          "SchemaColumnUId": "ca53e2c8-0767-4f2c-8a18-2ee5821f134e",
          "ColumnName": "Name",
          "Value": ""
        }
      ]
    }
  ]
}