﻿{
  "Descriptor": {
    "UId": "3b653740-8461-4cf3-914c-fac261baaf0b",
    "Name": "CrocProcessDocumentDailyUpdateCheck",
    "ModifiedOnUtc": "\/Date(1669460936000)\/",
    "ManagerName": "ProcessSchemaManager",
    "Caption": "Документ. Ежедневная проверка актуальности"
  }
}