﻿{
  "Descriptor": {
    "UId": "5faba550-bc0a-4c09-ae4e-c9833e423e2b",
    "Name": "CrocContractFolder",
    "ModifiedOnUtc": "\/Date(1657804098000)\/",
    "Parent": {
      "UId": "d602bf96-d029-4b07-9755-63c8f5cb5ed5",
      "Name": "BaseFolder"
    },
    "ManagerName": "EntitySchemaManager",
    "Caption": "Группа Договор"
  }
}