﻿{
  "PackageData": [
    {
      "Row": [
        {
          "SchemaColumnUId": "ae0e45ca-c495-4fe7-a39d-3ab7278e1617",
          "Value": "29421648-9823-43a3-bb7c-0878056238e6"
        },
        {
          "SchemaColumnUId": "4d5be702-fa8a-4b6b-97d0-f666b99f108e",
          "Value": ""
        },
        {
          "SchemaColumnUId": "527b9e4e-7dbf-4721-a112-72b423b3365a",
          "Value": "null",
          "DisplayValue": ""
        },
        {
          "SchemaColumnUId": "7194c633-a5a9-48cf-a96c-d8b548878b2f",
          "Value": 0
        },
        {
          "SchemaColumnUId": "9928edec-4272-425a-93bb-48743fee4b04",
          "Value": "\/Date(1659429146609+0300)\/"
        },
        {
          "SchemaColumnUId": "e44c8807-bc0e-4415-b41c-2272c8fbdf42",
          "Value": "9dc5f6e6-2a61-4de8-a059-de30f4e74f24",
          "DisplayValue": "Static"
        },
        {
          "SchemaColumnUId": "e80190a5-03b2-4095-90f7-a193a960adee",
          "Value": "\/Date(1659428845881+0300)\/"
        }
      ]
    }
  ]
}