﻿{
  "PackageData": [
    {
      "Row": [
        {
          "SchemaColumnUId": "ae0e45ca-c495-4fe7-a39d-3ab7278e1617",
          "Value": "0823583d-79eb-4017-a929-53d845500eaf"
        },
        {
          "SchemaColumnUId": "02846dbd-40b7-4b76-6335-542aa94c4eff",
          "Value": "CrocDeliveryCondition"
        },
        {
          "SchemaColumnUId": "312f5ba3-fdbb-7efe-693d-51c58e13f1be",
          "Value": "Условие поставки"
        },
        {
          "SchemaColumnUId": "414b83b4-1c1b-49d6-8934-f67237e3a015",
          "Value": "43a0c19c-275e-47fb-bb7a-cabc47768a91",
          "DisplayValue": "Двустороннее"
        },
        {
          "SchemaColumnUId": "585189c2-0deb-1405-6064-62a70e1356aa",
          "Value": true
        },
        {
          "SchemaColumnUId": "6387e23a-305e-eb60-ffd6-8e99adf9ac13",
          "Value": "{\"className\":\"Terrasoft.FilterGroup\",\"items\":{},\"logicalOperation\":0,\"isEnabled\":true,\"filterType\":6,\"rootSchemaName\":\"CrocDeliveryCondition\",\"key\":\"\"}"
        },
        {
          "SchemaColumnUId": "92dc1e91-f5a3-c697-9b59-1a40103b1f83",
          "Value": "47b382a5-28e1-4a09-bf59-913ccff39b5a"
        },
        {
          "SchemaColumnUId": "c3812257-d0b1-4fb4-0430-65dee079a66e",
          "Value": true
        },
        {
          "SchemaColumnUId": "d151c1b9-1b50-8fda-d63f-c58a2d497c9e",
          "Value": "0ca80547-346d-4785-9b84-1ffdb0e5dd65",
          "DisplayValue": "Синхронизация Договоров"
        },
        {
          "SchemaColumnUId": "d35a5eb8-2e4d-90c4-f639-18c27d9f4416",
          "Value": "fa4915da-b80e-4c31-a543-4c455b178e35",
          "DisplayValue": "Исходящее"
        },
        {
          "SchemaColumnUId": "d7ec8742-7fd4-3a9e-c9c6-e88ff89e9a82",
          "Value": 5
        },
        {
          "SchemaColumnUId": "df166139-5759-42de-9f2a-5cf34dadf9c6",
          "Value": "43a0c19c-275e-47fb-bb7a-cabc47768a91",
          "DisplayValue": "Двустороннее"
        }
      ]
    },
    {
      "Row": [
        {
          "SchemaColumnUId": "ae0e45ca-c495-4fe7-a39d-3ab7278e1617",
          "Value": "23497de4-5f95-400d-997f-8c055d1c5b3c"
        },
        {
          "SchemaColumnUId": "02846dbd-40b7-4b76-6335-542aa94c4eff",
          "Value": "CrocMutualSettlements"
        },
        {
          "SchemaColumnUId": "312f5ba3-fdbb-7efe-693d-51c58e13f1be",
          "Value": "Взаиморасчеты"
        },
        {
          "SchemaColumnUId": "414b83b4-1c1b-49d6-8934-f67237e3a015",
          "Value": "43a0c19c-275e-47fb-bb7a-cabc47768a91",
          "DisplayValue": "Двустороннее"
        },
        {
          "SchemaColumnUId": "585189c2-0deb-1405-6064-62a70e1356aa",
          "Value": true
        },
        {
          "SchemaColumnUId": "6387e23a-305e-eb60-ffd6-8e99adf9ac13",
          "Value": "{\"className\":\"Terrasoft.FilterGroup\",\"items\":{\"b3403563-b714-4a45-8a48-b307b1af91d3\":{\"className\":\"Terrasoft.CompareFilter\",\"filterType\":1,\"comparisonType\":3,\"isEnabled\":true,\"trimDateTimeParameterToDate\":false,\"leftExpression\":{\"className\":\"Terrasoft.ColumnExpression\",\"expressionType\":0,\"columnPath\":\"CrocContract.CrocIsSynchronize\"},\"isAggregative\":false,\"key\":\"b3403563-b714-4a45-8a48-b307b1af91d3\",\"dataValueType\":12,\"leftExpressionCaption\":\"Договор.Синхронизировать\",\"rightExpression\":{\"className\":\"Terrasoft.ParameterExpression\",\"expressionType\":2,\"parameter\":{\"className\":\"Terrasoft.Parameter\",\"dataValueType\":12,\"value\":true}}}},\"logicalOperation\":0,\"isEnabled\":true,\"filterType\":6,\"rootSchemaName\":\"CrocMutualSettlements\",\"key\":\"\"}"
        },
        {
          "SchemaColumnUId": "92dc1e91-f5a3-c697-9b59-1a40103b1f83",
          "Value": "a5fa8467-2582-4f89-ab81-82f3f4a80207"
        },
        {
          "SchemaColumnUId": "c3812257-d0b1-4fb4-0430-65dee079a66e",
          "Value": true
        },
        {
          "SchemaColumnUId": "d151c1b9-1b50-8fda-d63f-c58a2d497c9e",
          "Value": "0ca80547-346d-4785-9b84-1ffdb0e5dd65",
          "DisplayValue": "Синхронизация Договоров"
        },
        {
          "SchemaColumnUId": "d35a5eb8-2e4d-90c4-f639-18c27d9f4416",
          "Value": "fa4915da-b80e-4c31-a543-4c455b178e35",
          "DisplayValue": "Исходящее"
        },
        {
          "SchemaColumnUId": "d7ec8742-7fd4-3a9e-c9c6-e88ff89e9a82",
          "Value": 15
        },
        {
          "SchemaColumnUId": "df166139-5759-42de-9f2a-5cf34dadf9c6",
          "Value": "43a0c19c-275e-47fb-bb7a-cabc47768a91",
          "DisplayValue": "Двустороннее"
        }
      ]
    },
    {
      "Row": [
        {
          "SchemaColumnUId": "ae0e45ca-c495-4fe7-a39d-3ab7278e1617",
          "Value": "3ad60fad-4a3e-40b9-8ab5-c1242d0014da"
        },
        {
          "SchemaColumnUId": "02846dbd-40b7-4b76-6335-542aa94c4eff",
          "Value": "CrocProductClass"
        },
        {
          "SchemaColumnUId": "312f5ba3-fdbb-7efe-693d-51c58e13f1be",
          "Value": "Класс товара"
        },
        {
          "SchemaColumnUId": "414b83b4-1c1b-49d6-8934-f67237e3a015",
          "Value": "43a0c19c-275e-47fb-bb7a-cabc47768a91",
          "DisplayValue": "Двустороннее"
        },
        {
          "SchemaColumnUId": "585189c2-0deb-1405-6064-62a70e1356aa",
          "Value": true
        },
        {
          "SchemaColumnUId": "6387e23a-305e-eb60-ffd6-8e99adf9ac13",
          "Value": "{\"className\":\"Terrasoft.FilterGroup\",\"items\":{},\"logicalOperation\":0,\"isEnabled\":true,\"filterType\":6,\"rootSchemaName\":\"CrocProductClass\",\"key\":\"\"}"
        },
        {
          "SchemaColumnUId": "92dc1e91-f5a3-c697-9b59-1a40103b1f83",
          "Value": "7e3adf8a-20ea-4f54-b29e-99d539c8f4be"
        },
        {
          "SchemaColumnUId": "c3812257-d0b1-4fb4-0430-65dee079a66e",
          "Value": true
        },
        {
          "SchemaColumnUId": "d151c1b9-1b50-8fda-d63f-c58a2d497c9e",
          "Value": "0ca80547-346d-4785-9b84-1ffdb0e5dd65",
          "DisplayValue": "Синхронизация Договоров"
        },
        {
          "SchemaColumnUId": "d35a5eb8-2e4d-90c4-f639-18c27d9f4416",
          "Value": "fa4915da-b80e-4c31-a543-4c455b178e35",
          "DisplayValue": "Исходящее"
        },
        {
          "SchemaColumnUId": "d7ec8742-7fd4-3a9e-c9c6-e88ff89e9a82",
          "Value": 8
        },
        {
          "SchemaColumnUId": "df166139-5759-42de-9f2a-5cf34dadf9c6",
          "Value": "43a0c19c-275e-47fb-bb7a-cabc47768a91",
          "DisplayValue": "Двустороннее"
        }
      ]
    },
    {
      "Row": [
        {
          "SchemaColumnUId": "ae0e45ca-c495-4fe7-a39d-3ab7278e1617",
          "Value": "523a9713-9e10-4b61-a01e-6746bc8b3cfe"
        },
        {
          "SchemaColumnUId": "02846dbd-40b7-4b76-6335-542aa94c4eff",
          "Value": "CrocContractStatus"
        },
        {
          "SchemaColumnUId": "312f5ba3-fdbb-7efe-693d-51c58e13f1be",
          "Value": "Состояние договора"
        },
        {
          "SchemaColumnUId": "414b83b4-1c1b-49d6-8934-f67237e3a015",
          "Value": "43a0c19c-275e-47fb-bb7a-cabc47768a91",
          "DisplayValue": "Двустороннее"
        },
        {
          "SchemaColumnUId": "585189c2-0deb-1405-6064-62a70e1356aa",
          "Value": true
        },
        {
          "SchemaColumnUId": "6387e23a-305e-eb60-ffd6-8e99adf9ac13",
          "Value": "{\"className\":\"Terrasoft.FilterGroup\",\"items\":{},\"logicalOperation\":0,\"isEnabled\":true,\"filterType\":6,\"rootSchemaName\":\"CrocContractStatus\",\"key\":\"\"}"
        },
        {
          "SchemaColumnUId": "92dc1e91-f5a3-c697-9b59-1a40103b1f83",
          "Value": "00514ee1-17cb-4ffa-a412-742ee10a16f0"
        },
        {
          "SchemaColumnUId": "c3812257-d0b1-4fb4-0430-65dee079a66e",
          "Value": true
        },
        {
          "SchemaColumnUId": "d151c1b9-1b50-8fda-d63f-c58a2d497c9e",
          "Value": "0ca80547-346d-4785-9b84-1ffdb0e5dd65",
          "DisplayValue": "Синхронизация Договоров"
        },
        {
          "SchemaColumnUId": "d35a5eb8-2e4d-90c4-f639-18c27d9f4416",
          "Value": "fa4915da-b80e-4c31-a543-4c455b178e35",
          "DisplayValue": "Исходящее"
        },
        {
          "SchemaColumnUId": "d7ec8742-7fd4-3a9e-c9c6-e88ff89e9a82",
          "Value": 3
        },
        {
          "SchemaColumnUId": "df166139-5759-42de-9f2a-5cf34dadf9c6",
          "Value": "43a0c19c-275e-47fb-bb7a-cabc47768a91",
          "DisplayValue": "Двустороннее"
        }
      ]
    },
    {
      "Row": [
        {
          "SchemaColumnUId": "ae0e45ca-c495-4fe7-a39d-3ab7278e1617",
          "Value": "585a8590-20f0-4c41-b04d-1fbf8fc1d6e6"
        },
        {
          "SchemaColumnUId": "02846dbd-40b7-4b76-6335-542aa94c4eff",
          "Value": "CrocContract"
        },
        {
          "SchemaColumnUId": "312f5ba3-fdbb-7efe-693d-51c58e13f1be",
          "Value": "Договор"
        },
        {
          "SchemaColumnUId": "414b83b4-1c1b-49d6-8934-f67237e3a015",
          "Value": "43a0c19c-275e-47fb-bb7a-cabc47768a91",
          "DisplayValue": "Двустороннее"
        },
        {
          "SchemaColumnUId": "585189c2-0deb-1405-6064-62a70e1356aa",
          "Value": false
        },
        {
          "SchemaColumnUId": "6387e23a-305e-eb60-ffd6-8e99adf9ac13",
          "Value": "{\"className\":\"Terrasoft.FilterGroup\",\"items\":{\"21319b5f-360f-4b71-9d8b-eb5d65cbabd8\":{\"className\":\"Terrasoft.CompareFilter\",\"filterType\":1,\"comparisonType\":3,\"isEnabled\":true,\"trimDateTimeParameterToDate\":false,\"leftExpression\":{\"className\":\"Terrasoft.ColumnExpression\",\"expressionType\":0,\"columnPath\":\"CrocIsSynchronize\"},\"isAggregative\":false,\"key\":\"21319b5f-360f-4b71-9d8b-eb5d65cbabd8\",\"dataValueType\":12,\"leftExpressionCaption\":\"Синхронизировать\",\"rightExpression\":{\"className\":\"Terrasoft.ParameterExpression\",\"expressionType\":2,\"parameter\":{\"className\":\"Terrasoft.Parameter\",\"dataValueType\":12,\"value\":true}}}},\"logicalOperation\":0,\"isEnabled\":true,\"filterType\":6,\"rootSchemaName\":\"CrocContract\",\"key\":\"\"}"
        },
        {
          "SchemaColumnUId": "92dc1e91-f5a3-c697-9b59-1a40103b1f83",
          "Value": "46b073e9-c93b-42ac-8e63-b7ed0583e938"
        },
        {
          "SchemaColumnUId": "c3812257-d0b1-4fb4-0430-65dee079a66e",
          "Value": true
        },
        {
          "SchemaColumnUId": "d151c1b9-1b50-8fda-d63f-c58a2d497c9e",
          "Value": "0ca80547-346d-4785-9b84-1ffdb0e5dd65",
          "DisplayValue": "Синхронизация Договоров"
        },
        {
          "SchemaColumnUId": "d35a5eb8-2e4d-90c4-f639-18c27d9f4416",
          "Value": "fa4915da-b80e-4c31-a543-4c455b178e35",
          "DisplayValue": "Исходящее"
        },
        {
          "SchemaColumnUId": "d7ec8742-7fd4-3a9e-c9c6-e88ff89e9a82",
          "Value": 12
        },
        {
          "SchemaColumnUId": "df166139-5759-42de-9f2a-5cf34dadf9c6",
          "Value": "43a0c19c-275e-47fb-bb7a-cabc47768a91",
          "DisplayValue": "Двустороннее"
        }
      ]
    },
    {
      "Row": [
        {
          "SchemaColumnUId": "ae0e45ca-c495-4fe7-a39d-3ab7278e1617",
          "Value": "69b86e43-f46a-4426-9bbd-7c3234017848"
        },
        {
          "SchemaColumnUId": "02846dbd-40b7-4b76-6335-542aa94c4eff",
          "Value": "CrocPaymentTerm"
        },
        {
          "SchemaColumnUId": "312f5ba3-fdbb-7efe-693d-51c58e13f1be",
          "Value": "Условие оплаты"
        },
        {
          "SchemaColumnUId": "414b83b4-1c1b-49d6-8934-f67237e3a015",
          "Value": "43a0c19c-275e-47fb-bb7a-cabc47768a91",
          "DisplayValue": "Двустороннее"
        },
        {
          "SchemaColumnUId": "585189c2-0deb-1405-6064-62a70e1356aa",
          "Value": true
        },
        {
          "SchemaColumnUId": "6387e23a-305e-eb60-ffd6-8e99adf9ac13",
          "Value": "{\"className\":\"Terrasoft.FilterGroup\",\"items\":{},\"logicalOperation\":0,\"isEnabled\":true,\"filterType\":6,\"rootSchemaName\":\"CrocPaymentTerm\",\"key\":\"\"}"
        },
        {
          "SchemaColumnUId": "92dc1e91-f5a3-c697-9b59-1a40103b1f83",
          "Value": "814c0073-2f23-421e-9c40-cf6881d3257d"
        },
        {
          "SchemaColumnUId": "c3812257-d0b1-4fb4-0430-65dee079a66e",
          "Value": true
        },
        {
          "SchemaColumnUId": "d151c1b9-1b50-8fda-d63f-c58a2d497c9e",
          "Value": "0ca80547-346d-4785-9b84-1ffdb0e5dd65",
          "DisplayValue": "Синхронизация Договоров"
        },
        {
          "SchemaColumnUId": "d35a5eb8-2e4d-90c4-f639-18c27d9f4416",
          "Value": "fa4915da-b80e-4c31-a543-4c455b178e35",
          "DisplayValue": "Исходящее"
        },
        {
          "SchemaColumnUId": "d7ec8742-7fd4-3a9e-c9c6-e88ff89e9a82",
          "Value": 6
        },
        {
          "SchemaColumnUId": "df166139-5759-42de-9f2a-5cf34dadf9c6",
          "Value": "43a0c19c-275e-47fb-bb7a-cabc47768a91",
          "DisplayValue": "Двустороннее"
        }
      ]
    },
    {
      "Row": [
        {
          "SchemaColumnUId": "ae0e45ca-c495-4fe7-a39d-3ab7278e1617",
          "Value": "69bd7d23-8cf4-406c-bb31-ccbd34972460"
        },
        {
          "SchemaColumnUId": "02846dbd-40b7-4b76-6335-542aa94c4eff",
          "Value": "CrocProduct"
        },
        {
          "SchemaColumnUId": "312f5ba3-fdbb-7efe-693d-51c58e13f1be",
          "Value": "Товар"
        },
        {
          "SchemaColumnUId": "414b83b4-1c1b-49d6-8934-f67237e3a015",
          "Value": "43a0c19c-275e-47fb-bb7a-cabc47768a91",
          "DisplayValue": "Двустороннее"
        },
        {
          "SchemaColumnUId": "585189c2-0deb-1405-6064-62a70e1356aa",
          "Value": true
        },
        {
          "SchemaColumnUId": "6387e23a-305e-eb60-ffd6-8e99adf9ac13",
          "Value": "{\"className\":\"Terrasoft.FilterGroup\",\"items\":{},\"logicalOperation\":0,\"isEnabled\":true,\"filterType\":6,\"rootSchemaName\":\"CrocProduct\",\"key\":\"\"}"
        },
        {
          "SchemaColumnUId": "92dc1e91-f5a3-c697-9b59-1a40103b1f83",
          "Value": "b5e2d5cd-1d90-49ea-9a28-4cd792241332"
        },
        {
          "SchemaColumnUId": "c3812257-d0b1-4fb4-0430-65dee079a66e",
          "Value": true
        },
        {
          "SchemaColumnUId": "d151c1b9-1b50-8fda-d63f-c58a2d497c9e",
          "Value": "0ca80547-346d-4785-9b84-1ffdb0e5dd65",
          "DisplayValue": "Синхронизация Договоров"
        },
        {
          "SchemaColumnUId": "d35a5eb8-2e4d-90c4-f639-18c27d9f4416",
          "Value": "fa4915da-b80e-4c31-a543-4c455b178e35",
          "DisplayValue": "Исходящее"
        },
        {
          "SchemaColumnUId": "d7ec8742-7fd4-3a9e-c9c6-e88ff89e9a82",
          "Value": 7
        },
        {
          "SchemaColumnUId": "df166139-5759-42de-9f2a-5cf34dadf9c6",
          "Value": "43a0c19c-275e-47fb-bb7a-cabc47768a91",
          "DisplayValue": "Двустороннее"
        }
      ]
    },
    {
      "Row": [
        {
          "SchemaColumnUId": "ae0e45ca-c495-4fe7-a39d-3ab7278e1617",
          "Value": "6dc7b874-5843-4f87-8231-89e2de61f655"
        },
        {
          "SchemaColumnUId": "02846dbd-40b7-4b76-6335-542aa94c4eff",
          "Value": "CrocContractType"
        },
        {
          "SchemaColumnUId": "312f5ba3-fdbb-7efe-693d-51c58e13f1be",
          "Value": "Тип договора"
        },
        {
          "SchemaColumnUId": "414b83b4-1c1b-49d6-8934-f67237e3a015",
          "Value": "43a0c19c-275e-47fb-bb7a-cabc47768a91",
          "DisplayValue": "Двустороннее"
        },
        {
          "SchemaColumnUId": "585189c2-0deb-1405-6064-62a70e1356aa",
          "Value": true
        },
        {
          "SchemaColumnUId": "6387e23a-305e-eb60-ffd6-8e99adf9ac13",
          "Value": "{\"className\":\"Terrasoft.FilterGroup\",\"items\":{},\"logicalOperation\":0,\"isEnabled\":true,\"filterType\":6,\"rootSchemaName\":\"CrocContractType\",\"key\":\"\"}"
        },
        {
          "SchemaColumnUId": "92dc1e91-f5a3-c697-9b59-1a40103b1f83",
          "Value": "2a35c375-0bbd-49f9-b555-693d80e4eb1b"
        },
        {
          "SchemaColumnUId": "c3812257-d0b1-4fb4-0430-65dee079a66e",
          "Value": true
        },
        {
          "SchemaColumnUId": "d151c1b9-1b50-8fda-d63f-c58a2d497c9e",
          "Value": "0ca80547-346d-4785-9b84-1ffdb0e5dd65",
          "DisplayValue": "Синхронизация Договоров"
        },
        {
          "SchemaColumnUId": "d35a5eb8-2e4d-90c4-f639-18c27d9f4416",
          "Value": "fa4915da-b80e-4c31-a543-4c455b178e35",
          "DisplayValue": "Исходящее"
        },
        {
          "SchemaColumnUId": "d7ec8742-7fd4-3a9e-c9c6-e88ff89e9a82",
          "Value": 4
        },
        {
          "SchemaColumnUId": "df166139-5759-42de-9f2a-5cf34dadf9c6",
          "Value": "43a0c19c-275e-47fb-bb7a-cabc47768a91",
          "DisplayValue": "Двустороннее"
        }
      ]
    },
    {
      "Row": [
        {
          "SchemaColumnUId": "ae0e45ca-c495-4fe7-a39d-3ab7278e1617",
          "Value": "74224de4-1a84-4a4c-87aa-f518737b5008"
        },
        {
          "SchemaColumnUId": "02846dbd-40b7-4b76-6335-542aa94c4eff",
          "Value": "CrocContractKind"
        },
        {
          "SchemaColumnUId": "312f5ba3-fdbb-7efe-693d-51c58e13f1be",
          "Value": "Contract kind"
        },
        {
          "SchemaColumnUId": "414b83b4-1c1b-49d6-8934-f67237e3a015",
          "Value": "43a0c19c-275e-47fb-bb7a-cabc47768a91",
          "DisplayValue": "Двустороннее"
        },
        {
          "SchemaColumnUId": "585189c2-0deb-1405-6064-62a70e1356aa",
          "Value": true
        },
        {
          "SchemaColumnUId": "6387e23a-305e-eb60-ffd6-8e99adf9ac13",
          "Value": "{\"className\":\"Terrasoft.FilterGroup\",\"items\":{},\"logicalOperation\":0,\"isEnabled\":true,\"filterType\":6,\"rootSchemaName\":\"CrocContractKind\",\"key\":\"\"}"
        },
        {
          "SchemaColumnUId": "92dc1e91-f5a3-c697-9b59-1a40103b1f83",
          "Value": "45721d75-c08d-413f-acd0-2783c8af6b96"
        },
        {
          "SchemaColumnUId": "c3812257-d0b1-4fb4-0430-65dee079a66e",
          "Value": true
        },
        {
          "SchemaColumnUId": "d151c1b9-1b50-8fda-d63f-c58a2d497c9e",
          "Value": "0ca80547-346d-4785-9b84-1ffdb0e5dd65",
          "DisplayValue": "Синхронизация Договоров"
        },
        {
          "SchemaColumnUId": "d35a5eb8-2e4d-90c4-f639-18c27d9f4416",
          "Value": "fa4915da-b80e-4c31-a543-4c455b178e35",
          "DisplayValue": "Исходящее"
        },
        {
          "SchemaColumnUId": "d7ec8742-7fd4-3a9e-c9c6-e88ff89e9a82",
          "Value": 2
        },
        {
          "SchemaColumnUId": "df166139-5759-42de-9f2a-5cf34dadf9c6",
          "Value": "43a0c19c-275e-47fb-bb7a-cabc47768a91",
          "DisplayValue": "Двустороннее"
        }
      ]
    },
    {
      "Row": [
        {
          "SchemaColumnUId": "ae0e45ca-c495-4fe7-a39d-3ab7278e1617",
          "Value": "89c082d8-7416-48e0-928f-b48c5168251e"
        },
        {
          "SchemaColumnUId": "02846dbd-40b7-4b76-6335-542aa94c4eff",
          "Value": "CrocSetDocument"
        },
        {
          "SchemaColumnUId": "312f5ba3-fdbb-7efe-693d-51c58e13f1be",
          "Value": "SetDocument"
        },
        {
          "SchemaColumnUId": "414b83b4-1c1b-49d6-8934-f67237e3a015",
          "Value": "43a0c19c-275e-47fb-bb7a-cabc47768a91",
          "DisplayValue": "Двустороннее"
        },
        {
          "SchemaColumnUId": "585189c2-0deb-1405-6064-62a70e1356aa",
          "Value": true
        },
        {
          "SchemaColumnUId": "6387e23a-305e-eb60-ffd6-8e99adf9ac13",
          "Value": "{\"className\":\"Terrasoft.FilterGroup\",\"items\":{\"32fffedb-6e78-428f-916d-dcf083934f65\":{\"className\":\"Terrasoft.CompareFilter\",\"filterType\":1,\"comparisonType\":3,\"isEnabled\":true,\"trimDateTimeParameterToDate\":false,\"leftExpression\":{\"className\":\"Terrasoft.ColumnExpression\",\"expressionType\":0,\"columnPath\":\"CrocContract.CrocIsSynchronize\"},\"isAggregative\":false,\"key\":\"32fffedb-6e78-428f-916d-dcf083934f65\",\"dataValueType\":12,\"leftExpressionCaption\":\"Договор.Синхронизировать\",\"rightExpression\":{\"className\":\"Terrasoft.ParameterExpression\",\"expressionType\":2,\"parameter\":{\"className\":\"Terrasoft.Parameter\",\"dataValueType\":12,\"value\":true}}}},\"logicalOperation\":0,\"isEnabled\":true,\"filterType\":6,\"rootSchemaName\":\"CrocSetDocument\",\"key\":\"\"}"
        },
        {
          "SchemaColumnUId": "92dc1e91-f5a3-c697-9b59-1a40103b1f83",
          "Value": "20dcbf8b-571c-4d29-bba4-fc52990bd273"
        },
        {
          "SchemaColumnUId": "c3812257-d0b1-4fb4-0430-65dee079a66e",
          "Value": true
        },
        {
          "SchemaColumnUId": "d151c1b9-1b50-8fda-d63f-c58a2d497c9e",
          "Value": "0ca80547-346d-4785-9b84-1ffdb0e5dd65",
          "DisplayValue": "Синхронизация Договоров"
        },
        {
          "SchemaColumnUId": "d35a5eb8-2e4d-90c4-f639-18c27d9f4416",
          "Value": "fa4915da-b80e-4c31-a543-4c455b178e35",
          "DisplayValue": "Исходящее"
        },
        {
          "SchemaColumnUId": "d7ec8742-7fd4-3a9e-c9c6-e88ff89e9a82",
          "Value": 13
        },
        {
          "SchemaColumnUId": "df166139-5759-42de-9f2a-5cf34dadf9c6",
          "Value": "43a0c19c-275e-47fb-bb7a-cabc47768a91",
          "DisplayValue": "Двустороннее"
        }
      ]
    },
    {
      "Row": [
        {
          "SchemaColumnUId": "ae0e45ca-c495-4fe7-a39d-3ab7278e1617",
          "Value": "adfe55b3-a780-4361-9368-989fecabe3f7"
        },
        {
          "SchemaColumnUId": "02846dbd-40b7-4b76-6335-542aa94c4eff",
          "Value": "CrocPurchaseType"
        },
        {
          "SchemaColumnUId": "312f5ba3-fdbb-7efe-693d-51c58e13f1be",
          "Value": "Тип закупки"
        },
        {
          "SchemaColumnUId": "414b83b4-1c1b-49d6-8934-f67237e3a015",
          "Value": "43a0c19c-275e-47fb-bb7a-cabc47768a91",
          "DisplayValue": "Двустороннее"
        },
        {
          "SchemaColumnUId": "585189c2-0deb-1405-6064-62a70e1356aa",
          "Value": true
        },
        {
          "SchemaColumnUId": "6387e23a-305e-eb60-ffd6-8e99adf9ac13",
          "Value": "{\"className\":\"Terrasoft.FilterGroup\",\"items\":{},\"logicalOperation\":0,\"isEnabled\":true,\"filterType\":6,\"rootSchemaName\":\"CrocPurchaseType\",\"key\":\"\"}"
        },
        {
          "SchemaColumnUId": "92dc1e91-f5a3-c697-9b59-1a40103b1f83",
          "Value": "788b6ef3-4970-45c1-8f00-69d6a9bb3fbc"
        },
        {
          "SchemaColumnUId": "c3812257-d0b1-4fb4-0430-65dee079a66e",
          "Value": true
        },
        {
          "SchemaColumnUId": "d151c1b9-1b50-8fda-d63f-c58a2d497c9e",
          "Value": "0ca80547-346d-4785-9b84-1ffdb0e5dd65",
          "DisplayValue": "Синхронизация Договоров"
        },
        {
          "SchemaColumnUId": "d35a5eb8-2e4d-90c4-f639-18c27d9f4416",
          "Value": "fa4915da-b80e-4c31-a543-4c455b178e35",
          "DisplayValue": "Исходящее"
        },
        {
          "SchemaColumnUId": "d7ec8742-7fd4-3a9e-c9c6-e88ff89e9a82",
          "Value": 9
        },
        {
          "SchemaColumnUId": "df166139-5759-42de-9f2a-5cf34dadf9c6",
          "Value": "43a0c19c-275e-47fb-bb7a-cabc47768a91",
          "DisplayValue": "Двустороннее"
        }
      ]
    },
    {
      "Row": [
        {
          "SchemaColumnUId": "ae0e45ca-c495-4fe7-a39d-3ab7278e1617",
          "Value": "b3e2017c-f386-45ab-ac97-d83fd5b84bc0"
        },
        {
          "SchemaColumnUId": "02846dbd-40b7-4b76-6335-542aa94c4eff",
          "Value": "CrocSmartseedsAddresses"
        },
        {
          "SchemaColumnUId": "312f5ba3-fdbb-7efe-693d-51c58e13f1be",
          "Value": "Адрес Smartseeds"
        },
        {
          "SchemaColumnUId": "414b83b4-1c1b-49d6-8934-f67237e3a015",
          "Value": "43a0c19c-275e-47fb-bb7a-cabc47768a91",
          "DisplayValue": "Двустороннее"
        },
        {
          "SchemaColumnUId": "585189c2-0deb-1405-6064-62a70e1356aa",
          "Value": true
        },
        {
          "SchemaColumnUId": "6387e23a-305e-eb60-ffd6-8e99adf9ac13",
          "Value": "{\"className\":\"Terrasoft.FilterGroup\",\"items\":{},\"logicalOperation\":0,\"isEnabled\":true,\"filterType\":6,\"rootSchemaName\":\"CrocSmartseedsAddresses\",\"key\":\"\"}"
        },
        {
          "SchemaColumnUId": "92dc1e91-f5a3-c697-9b59-1a40103b1f83",
          "Value": "638498a8-8c5e-41d8-a4a5-69a827ececa7"
        },
        {
          "SchemaColumnUId": "c3812257-d0b1-4fb4-0430-65dee079a66e",
          "Value": true
        },
        {
          "SchemaColumnUId": "d151c1b9-1b50-8fda-d63f-c58a2d497c9e",
          "Value": "0ca80547-346d-4785-9b84-1ffdb0e5dd65",
          "DisplayValue": "Синхронизация Договоров"
        },
        {
          "SchemaColumnUId": "d35a5eb8-2e4d-90c4-f639-18c27d9f4416",
          "Value": "fa4915da-b80e-4c31-a543-4c455b178e35",
          "DisplayValue": "Исходящее"
        },
        {
          "SchemaColumnUId": "d7ec8742-7fd4-3a9e-c9c6-e88ff89e9a82",
          "Value": 10
        },
        {
          "SchemaColumnUId": "df166139-5759-42de-9f2a-5cf34dadf9c6",
          "Value": "43a0c19c-275e-47fb-bb7a-cabc47768a91",
          "DisplayValue": "Двустороннее"
        }
      ]
    },
    {
      "Row": [
        {
          "SchemaColumnUId": "ae0e45ca-c495-4fe7-a39d-3ab7278e1617",
          "Value": "b99009fc-a910-41f8-b619-27b1606c3ad3"
        },
        {
          "SchemaColumnUId": "02846dbd-40b7-4b76-6335-542aa94c4eff",
          "Value": "CrocChart"
        },
        {
          "SchemaColumnUId": "312f5ba3-fdbb-7efe-693d-51c58e13f1be",
          "Value": "График (задание на логистику)"
        },
        {
          "SchemaColumnUId": "414b83b4-1c1b-49d6-8934-f67237e3a015",
          "Value": "43a0c19c-275e-47fb-bb7a-cabc47768a91",
          "DisplayValue": "Двустороннее"
        },
        {
          "SchemaColumnUId": "585189c2-0deb-1405-6064-62a70e1356aa",
          "Value": true
        },
        {
          "SchemaColumnUId": "6387e23a-305e-eb60-ffd6-8e99adf9ac13",
          "Value": "{\"className\":\"Terrasoft.FilterGroup\",\"items\":{\"2511400c-5455-4cc8-8b17-44126702d7e7\":{\"className\":\"Terrasoft.CompareFilter\",\"filterType\":1,\"comparisonType\":3,\"isEnabled\":true,\"trimDateTimeParameterToDate\":false,\"leftExpression\":{\"className\":\"Terrasoft.ColumnExpression\",\"expressionType\":0,\"columnPath\":\"CrocContract.CrocIsSynchronize\"},\"isAggregative\":false,\"key\":\"2511400c-5455-4cc8-8b17-44126702d7e7\",\"dataValueType\":12,\"leftExpressionCaption\":\"Дополнительное соглашение.Синхронизировать\",\"rightExpression\":{\"className\":\"Terrasoft.ParameterExpression\",\"expressionType\":2,\"parameter\":{\"className\":\"Terrasoft.Parameter\",\"dataValueType\":12,\"value\":true}}}},\"logicalOperation\":0,\"isEnabled\":true,\"filterType\":6,\"rootSchemaName\":\"CrocChart\",\"key\":\"\"}"
        },
        {
          "SchemaColumnUId": "92dc1e91-f5a3-c697-9b59-1a40103b1f83",
          "Value": "3a4d96e8-e6fc-4d51-be76-a920d82a2177"
        },
        {
          "SchemaColumnUId": "c3812257-d0b1-4fb4-0430-65dee079a66e",
          "Value": true
        },
        {
          "SchemaColumnUId": "d151c1b9-1b50-8fda-d63f-c58a2d497c9e",
          "Value": "0ca80547-346d-4785-9b84-1ffdb0e5dd65",
          "DisplayValue": "Синхронизация Договоров"
        },
        {
          "SchemaColumnUId": "d35a5eb8-2e4d-90c4-f639-18c27d9f4416",
          "Value": "fa4915da-b80e-4c31-a543-4c455b178e35",
          "DisplayValue": "Исходящее"
        },
        {
          "SchemaColumnUId": "d7ec8742-7fd4-3a9e-c9c6-e88ff89e9a82",
          "Value": 14
        },
        {
          "SchemaColumnUId": "df166139-5759-42de-9f2a-5cf34dadf9c6",
          "Value": "43a0c19c-275e-47fb-bb7a-cabc47768a91",
          "DisplayValue": "Двустороннее"
        }
      ]
    },
    {
      "Row": [
        {
          "SchemaColumnUId": "ae0e45ca-c495-4fe7-a39d-3ab7278e1617",
          "Value": "bc702f16-3c05-4ae1-8c43-3f1808460e9e"
        },
        {
          "SchemaColumnUId": "02846dbd-40b7-4b76-6335-542aa94c4eff",
          "Value": "CrocPlannedRefund"
        },
        {
          "SchemaColumnUId": "312f5ba3-fdbb-7efe-693d-51c58e13f1be",
          "Value": "Планируемый возврат денежных средств"
        },
        {
          "SchemaColumnUId": "414b83b4-1c1b-49d6-8934-f67237e3a015",
          "Value": "43a0c19c-275e-47fb-bb7a-cabc47768a91",
          "DisplayValue": "Двустороннее"
        },
        {
          "SchemaColumnUId": "585189c2-0deb-1405-6064-62a70e1356aa",
          "Value": true
        },
        {
          "SchemaColumnUId": "6387e23a-305e-eb60-ffd6-8e99adf9ac13",
          "Value": "{\"className\":\"Terrasoft.FilterGroup\",\"items\":{\"d75049b7-9958-4109-a12f-00ae0c69cf82\":{\"className\":\"Terrasoft.CompareFilter\",\"filterType\":1,\"comparisonType\":3,\"isEnabled\":true,\"trimDateTimeParameterToDate\":false,\"leftExpression\":{\"className\":\"Terrasoft.ColumnExpression\",\"expressionType\":0,\"columnPath\":\"CrocContract.CrocIsSynchronize\"},\"isAggregative\":false,\"key\":\"d75049b7-9958-4109-a12f-00ae0c69cf82\",\"dataValueType\":12,\"leftExpressionCaption\":\"Дополнительное соглашение.Синхронизировать\",\"rightExpression\":{\"className\":\"Terrasoft.ParameterExpression\",\"expressionType\":2,\"parameter\":{\"className\":\"Terrasoft.Parameter\",\"dataValueType\":12,\"value\":true}}}},\"logicalOperation\":0,\"isEnabled\":true,\"filterType\":6,\"rootSchemaName\":\"CrocPlannedRefund\",\"key\":\"\"}"
        },
        {
          "SchemaColumnUId": "92dc1e91-f5a3-c697-9b59-1a40103b1f83",
          "Value": "2c386747-a90d-4b9b-bcc0-a502f4bc46c4"
        },
        {
          "SchemaColumnUId": "c3812257-d0b1-4fb4-0430-65dee079a66e",
          "Value": true
        },
        {
          "SchemaColumnUId": "d151c1b9-1b50-8fda-d63f-c58a2d497c9e",
          "Value": "0ca80547-346d-4785-9b84-1ffdb0e5dd65",
          "DisplayValue": "Синхронизация Договоров"
        },
        {
          "SchemaColumnUId": "d35a5eb8-2e4d-90c4-f639-18c27d9f4416",
          "Value": "fa4915da-b80e-4c31-a543-4c455b178e35",
          "DisplayValue": "Исходящее"
        },
        {
          "SchemaColumnUId": "d7ec8742-7fd4-3a9e-c9c6-e88ff89e9a82",
          "Value": 16
        },
        {
          "SchemaColumnUId": "df166139-5759-42de-9f2a-5cf34dadf9c6",
          "Value": "43a0c19c-275e-47fb-bb7a-cabc47768a91",
          "DisplayValue": "Двустороннее"
        }
      ]
    },
    {
      "Row": [
        {
          "SchemaColumnUId": "ae0e45ca-c495-4fe7-a39d-3ab7278e1617",
          "Value": "be94df83-b9aa-4f3b-a47b-1a13653c557c"
        },
        {
          "SchemaColumnUId": "02846dbd-40b7-4b76-6335-542aa94c4eff",
          "Value": "Account"
        },
        {
          "SchemaColumnUId": "312f5ba3-fdbb-7efe-693d-51c58e13f1be",
          "Value": "Контрагент"
        },
        {
          "SchemaColumnUId": "414b83b4-1c1b-49d6-8934-f67237e3a015",
          "Value": "43a0c19c-275e-47fb-bb7a-cabc47768a91",
          "DisplayValue": "Двустороннее"
        },
        {
          "SchemaColumnUId": "585189c2-0deb-1405-6064-62a70e1356aa",
          "Value": true
        },
        {
          "SchemaColumnUId": "6387e23a-305e-eb60-ffd6-8e99adf9ac13",
          "Value": "{\"className\":\"Terrasoft.FilterGroup\",\"items\":{},\"logicalOperation\":0,\"isEnabled\":true,\"filterType\":6,\"rootSchemaName\":\"Account\",\"key\":\"\"}"
        },
        {
          "SchemaColumnUId": "92dc1e91-f5a3-c697-9b59-1a40103b1f83",
          "Value": "25d7c1ab-1de0-4501-b402-02e0e5a72d6e"
        },
        {
          "SchemaColumnUId": "c3812257-d0b1-4fb4-0430-65dee079a66e",
          "Value": true
        },
        {
          "SchemaColumnUId": "d151c1b9-1b50-8fda-d63f-c58a2d497c9e",
          "Value": "0ca80547-346d-4785-9b84-1ffdb0e5dd65",
          "DisplayValue": "Синхронизация Договоров"
        },
        {
          "SchemaColumnUId": "d35a5eb8-2e4d-90c4-f639-18c27d9f4416",
          "Value": "fa4915da-b80e-4c31-a543-4c455b178e35",
          "DisplayValue": "Исходящее"
        },
        {
          "SchemaColumnUId": "d7ec8742-7fd4-3a9e-c9c6-e88ff89e9a82",
          "Value": 0
        },
        {
          "SchemaColumnUId": "df166139-5759-42de-9f2a-5cf34dadf9c6",
          "Value": "43a0c19c-275e-47fb-bb7a-cabc47768a91",
          "DisplayValue": "Двустороннее"
        }
      ]
    },
    {
      "Row": [
        {
          "SchemaColumnUId": "ae0e45ca-c495-4fe7-a39d-3ab7278e1617",
          "Value": "c81cb572-cd26-4bf5-813e-415630785f87"
        },
        {
          "SchemaColumnUId": "02846dbd-40b7-4b76-6335-542aa94c4eff",
          "Value": "Contact"
        },
        {
          "SchemaColumnUId": "312f5ba3-fdbb-7efe-693d-51c58e13f1be",
          "Value": "Контакт"
        },
        {
          "SchemaColumnUId": "414b83b4-1c1b-49d6-8934-f67237e3a015",
          "Value": "43a0c19c-275e-47fb-bb7a-cabc47768a91",
          "DisplayValue": "Двустороннее"
        },
        {
          "SchemaColumnUId": "585189c2-0deb-1405-6064-62a70e1356aa",
          "Value": true
        },
        {
          "SchemaColumnUId": "6387e23a-305e-eb60-ffd6-8e99adf9ac13",
          "Value": "{\"className\":\"Terrasoft.FilterGroup\",\"items\":{},\"logicalOperation\":0,\"isEnabled\":true,\"filterType\":6,\"rootSchemaName\":\"Contact\",\"key\":\"\"}"
        },
        {
          "SchemaColumnUId": "92dc1e91-f5a3-c697-9b59-1a40103b1f83",
          "Value": "16be3651-8fe2-4159-8dd0-a803d4683dd3"
        },
        {
          "SchemaColumnUId": "c3812257-d0b1-4fb4-0430-65dee079a66e",
          "Value": true
        },
        {
          "SchemaColumnUId": "d151c1b9-1b50-8fda-d63f-c58a2d497c9e",
          "Value": "0ca80547-346d-4785-9b84-1ffdb0e5dd65",
          "DisplayValue": "Синхронизация Договоров"
        },
        {
          "SchemaColumnUId": "d35a5eb8-2e4d-90c4-f639-18c27d9f4416",
          "Value": "fa4915da-b80e-4c31-a543-4c455b178e35",
          "DisplayValue": "Исходящее"
        },
        {
          "SchemaColumnUId": "d7ec8742-7fd4-3a9e-c9c6-e88ff89e9a82",
          "Value": 1
        },
        {
          "SchemaColumnUId": "df166139-5759-42de-9f2a-5cf34dadf9c6",
          "Value": "43a0c19c-275e-47fb-bb7a-cabc47768a91",
          "DisplayValue": "Двустороннее"
        }
      ]
    },
    {
      "Row": [
        {
          "SchemaColumnUId": "ae0e45ca-c495-4fe7-a39d-3ab7278e1617",
          "Value": "cdcf82bd-d40d-4ff6-832e-5fd0cc8721ae"
        },
        {
          "SchemaColumnUId": "02846dbd-40b7-4b76-6335-542aa94c4eff",
          "Value": "CrocTerminal"
        },
        {
          "SchemaColumnUId": "312f5ba3-fdbb-7efe-693d-51c58e13f1be",
          "Value": "Терминал"
        },
        {
          "SchemaColumnUId": "414b83b4-1c1b-49d6-8934-f67237e3a015",
          "Value": "43a0c19c-275e-47fb-bb7a-cabc47768a91",
          "DisplayValue": "Двустороннее"
        },
        {
          "SchemaColumnUId": "585189c2-0deb-1405-6064-62a70e1356aa",
          "Value": true
        },
        {
          "SchemaColumnUId": "6387e23a-305e-eb60-ffd6-8e99adf9ac13",
          "Value": "{\"className\":\"Terrasoft.FilterGroup\",\"items\":{},\"logicalOperation\":0,\"isEnabled\":true,\"filterType\":6,\"rootSchemaName\":\"CrocTerminal\",\"key\":\"\"}"
        },
        {
          "SchemaColumnUId": "92dc1e91-f5a3-c697-9b59-1a40103b1f83",
          "Value": "be7fccbb-d5d1-43b2-8402-0986e8c2faca"
        },
        {
          "SchemaColumnUId": "c3812257-d0b1-4fb4-0430-65dee079a66e",
          "Value": true
        },
        {
          "SchemaColumnUId": "d151c1b9-1b50-8fda-d63f-c58a2d497c9e",
          "Value": "0ca80547-346d-4785-9b84-1ffdb0e5dd65",
          "DisplayValue": "Синхронизация Договоров"
        },
        {
          "SchemaColumnUId": "d35a5eb8-2e4d-90c4-f639-18c27d9f4416",
          "Value": "fa4915da-b80e-4c31-a543-4c455b178e35",
          "DisplayValue": "Исходящее"
        },
        {
          "SchemaColumnUId": "d7ec8742-7fd4-3a9e-c9c6-e88ff89e9a82",
          "Value": 11
        },
        {
          "SchemaColumnUId": "df166139-5759-42de-9f2a-5cf34dadf9c6",
          "Value": "43a0c19c-275e-47fb-bb7a-cabc47768a91",
          "DisplayValue": "Двустороннее"
        }
      ]
    },
    {
      "Row": [
        {
          "SchemaColumnUId": "ae0e45ca-c495-4fe7-a39d-3ab7278e1617",
          "Value": "d8d0467e-d4be-40f6-9f17-275bc0fba73a"
        },
        {
          "SchemaColumnUId": "02846dbd-40b7-4b76-6335-542aa94c4eff",
          "Value": "CrocContractFile"
        },
        {
          "SchemaColumnUId": "312f5ba3-fdbb-7efe-693d-51c58e13f1be",
          "Value": "Файл и ссылка объекта Договор"
        },
        {
          "SchemaColumnUId": "414b83b4-1c1b-49d6-8934-f67237e3a015",
          "Value": "43a0c19c-275e-47fb-bb7a-cabc47768a91",
          "DisplayValue": "Двустороннее"
        },
        {
          "SchemaColumnUId": "585189c2-0deb-1405-6064-62a70e1356aa",
          "Value": true
        },
        {
          "SchemaColumnUId": "6387e23a-305e-eb60-ffd6-8e99adf9ac13",
          "Value": "{\"className\":\"Terrasoft.FilterGroup\",\"items\":{\"36bdf78f-0c10-4c07-a626-7770860fef56\":{\"className\":\"Terrasoft.CompareFilter\",\"filterType\":1,\"comparisonType\":3,\"isEnabled\":true,\"trimDateTimeParameterToDate\":false,\"leftExpression\":{\"className\":\"Terrasoft.ColumnExpression\",\"expressionType\":0,\"columnPath\":\"CrocContract.CrocIsSynchronize\"},\"isAggregative\":false,\"key\":\"36bdf78f-0c10-4c07-a626-7770860fef56\",\"dataValueType\":12,\"leftExpressionCaption\":\"Договор.Синхронизировать\",\"rightExpression\":{\"className\":\"Terrasoft.ParameterExpression\",\"expressionType\":2,\"parameter\":{\"className\":\"Terrasoft.Parameter\",\"dataValueType\":12,\"value\":true}}}},\"logicalOperation\":0,\"isEnabled\":true,\"filterType\":6,\"rootSchemaName\":\"CrocContractFile\",\"key\":\"\"}"
        },
        {
          "SchemaColumnUId": "92dc1e91-f5a3-c697-9b59-1a40103b1f83",
          "Value": "57385857-b3db-4f1c-9b55-7d8b0101c2db"
        },
        {
          "SchemaColumnUId": "c3812257-d0b1-4fb4-0430-65dee079a66e",
          "Value": true
        },
        {
          "SchemaColumnUId": "d151c1b9-1b50-8fda-d63f-c58a2d497c9e",
          "Value": "0ca80547-346d-4785-9b84-1ffdb0e5dd65",
          "DisplayValue": "Синхронизация Договоров"
        },
        {
          "SchemaColumnUId": "d35a5eb8-2e4d-90c4-f639-18c27d9f4416",
          "Value": "fa4915da-b80e-4c31-a543-4c455b178e35",
          "DisplayValue": "Исходящее"
        },
        {
          "SchemaColumnUId": "d7ec8742-7fd4-3a9e-c9c6-e88ff89e9a82",
          "Value": 18
        },
        {
          "SchemaColumnUId": "df166139-5759-42de-9f2a-5cf34dadf9c6",
          "Value": "43a0c19c-275e-47fb-bb7a-cabc47768a91",
          "DisplayValue": "Двустороннее"
        }
      ]
    },
    {
      "Row": [
        {
          "SchemaColumnUId": "ae0e45ca-c495-4fe7-a39d-3ab7278e1617",
          "Value": "eaf52404-f8e2-4029-806e-ff8a17385578"
        },
        {
          "SchemaColumnUId": "02846dbd-40b7-4b76-6335-542aa94c4eff",
          "Value": "CrocPurchaseReturns"
        },
        {
          "SchemaColumnUId": "312f5ba3-fdbb-7efe-693d-51c58e13f1be",
          "Value": "Возврат товара"
        },
        {
          "SchemaColumnUId": "414b83b4-1c1b-49d6-8934-f67237e3a015",
          "Value": "43a0c19c-275e-47fb-bb7a-cabc47768a91",
          "DisplayValue": "Двустороннее"
        },
        {
          "SchemaColumnUId": "585189c2-0deb-1405-6064-62a70e1356aa",
          "Value": true
        },
        {
          "SchemaColumnUId": "6387e23a-305e-eb60-ffd6-8e99adf9ac13",
          "Value": "{\"className\":\"Terrasoft.FilterGroup\",\"items\":{\"48c016a9-c8a4-42d6-8c15-45015916b2e7\":{\"className\":\"Terrasoft.CompareFilter\",\"filterType\":1,\"comparisonType\":3,\"isEnabled\":true,\"trimDateTimeParameterToDate\":false,\"leftExpression\":{\"className\":\"Terrasoft.ColumnExpression\",\"expressionType\":0,\"columnPath\":\"CrocContract.CrocIsSynchronize\"},\"isAggregative\":false,\"key\":\"48c016a9-c8a4-42d6-8c15-45015916b2e7\",\"dataValueType\":12,\"leftExpressionCaption\":\"Дополнительное соглашение.Синхронизировать\",\"rightExpression\":{\"className\":\"Terrasoft.ParameterExpression\",\"expressionType\":2,\"parameter\":{\"className\":\"Terrasoft.Parameter\",\"dataValueType\":12,\"value\":true}}}},\"logicalOperation\":0,\"isEnabled\":true,\"filterType\":6,\"rootSchemaName\":\"CrocPurchaseReturns\",\"key\":\"\"}"
        },
        {
          "SchemaColumnUId": "92dc1e91-f5a3-c697-9b59-1a40103b1f83",
          "Value": "8f1b3f07-c264-42a7-9c92-de9352d843cd"
        },
        {
          "SchemaColumnUId": "c3812257-d0b1-4fb4-0430-65dee079a66e",
          "Value": true
        },
        {
          "SchemaColumnUId": "d151c1b9-1b50-8fda-d63f-c58a2d497c9e",
          "Value": "0ca80547-346d-4785-9b84-1ffdb0e5dd65",
          "DisplayValue": "Синхронизация Договоров"
        },
        {
          "SchemaColumnUId": "d35a5eb8-2e4d-90c4-f639-18c27d9f4416",
          "Value": "fa4915da-b80e-4c31-a543-4c455b178e35",
          "DisplayValue": "Исходящее"
        },
        {
          "SchemaColumnUId": "d7ec8742-7fd4-3a9e-c9c6-e88ff89e9a82",
          "Value": 17
        },
        {
          "SchemaColumnUId": "df166139-5759-42de-9f2a-5cf34dadf9c6",
          "Value": "43a0c19c-275e-47fb-bb7a-cabc47768a91",
          "DisplayValue": "Двустороннее"
        }
      ]
    }
  ]
}