﻿{
  "Descriptor": {
    "UId": "b34365e9-e778-463d-b639-15b6523c79c0",
    "Name": "CrocProcessAcceptanceStopDowntimeCalculation",
    "ModifiedOnUtc": "\/Date(1658929970000)\/",
    "ManagerName": "ProcessSchemaManager",
    "Caption": "Остановка приемки. Расчет простоя",
    "DependsOn": []
  }
}

