﻿{
  "Descriptor": {
    "UId": "0b0a4733-a2fc-1902-f6cc-3c0069650aa6",
    "Name": "CrocApprovalRequirement",
    "ModifiedOnUtc": "\/Date(1659019394000)\/",
    "InstallType": 0,
    "Schema": {
      "UId": "71d5e2ca-0937-4b39-aaff-d963af2d4692",
      "Name": "CrocApprovalRequirement"
    },
    "Columns": [
      {
        "ColumnUId": "ae0e45ca-c495-4fe7-a39d-3ab7278e1617",
        "IsForceUpdate": false,
        "IsKey": true,
        "ColumnName": "Id",
        "DataTypeValueUId": "23018567-a13c-4320-8687-fd6f9e3699bd"
      },
      {
        "ColumnUId": "736c30a7-c0ec-4fa9-b034-2552b319b633",
        "IsForceUpdate": true,
        "IsKey": false,
        "ColumnName": "Name",
        "DataTypeValueUId": "ddb3a1ee-07e8-4d62-b7a9-d0e618b00fbd"
      },
      {
        "ColumnUId": "9e53fd7c-dde4-4502-a64c-b9e34148108b",
        "IsForceUpdate": true,
        "IsKey": false,
        "ColumnName": "Description",
        "DataTypeValueUId": "ddb3a1ee-07e8-4d62-b7a9-d0e618b00fbd"
      }
    ]
  }
}