﻿{
  "Descriptor": {
    "UId": "ee7fefa5-bb44-47b1-ae24-0cd9cf31b37e",
    "Name": "CrocProcessContractGU12NeedAdd",
    "ModifiedOnUtc": "\/Date(1664818526000)\/",
    "ManagerName": "ProcessSchemaManager",
    "Caption": "Типовое сообщение. Необходимо добавить Заявку ГУ-12"
  }
}