﻿{
  "Descriptor": {
    "UId": "fda2ce51-1b4c-4d32-9524-cf37af89ce28",
    "Name": "CrocRuleRequirement",
    "ModifiedOnUtc": "\/Date(1662387276000)\/",
    "Parent": {
      "UId": "1bab9dcf-17d5-49f8-9536-8e0064f1dce0",
      "Name": "BaseEntity"
    },
    "ManagerName": "EntitySchemaManager",
    "Caption": "Требование к правилу"
  }
}