﻿{
  "PackageData": [
    {
      "Row": [
        {
          "SchemaColumnUId": "ae0e45ca-c495-4fe7-a39d-3ab7278e1617",
          "Value": "d972c3bd-9f32-4ddd-b56d-931a94cc836c"
        },
        {
          "SchemaColumnUId": "085d7c7c-fdbc-443a-ad06-1f04ace34173",
          "Value": ""
        },
        {
          "SchemaColumnUId": "08aeb0b2-b929-4208-900f-d5d58700a872",
          "Value": "74ff0cee-6593-482f-a62f-6dde6e17ab5e",
          "DisplayValue": "Email template"
        },
        {
          "SchemaColumnUId": "1fea7f02-7faa-4a8b-a1f9-ee4e05fef97d",
          "Value": "208edb8b-df4f-46ee-abb2-34f7d1c7216b",
          "DisplayValue": "EmailTemplated972c3bd-9f32-4ddd-b56d-931a94cc836c.png"
        },
        {
          "SchemaColumnUId": "26bd9f25-0d50-4c47-829f-8b286576317c",
          "Value": "3f5225b9-55c4-420e-98c3-10083904c273",
          "DisplayValue": "CrocDocument"
        },
        {
          "SchemaColumnUId": "2e7c35e3-0774-4a4a-bea5-6ce4c8de1465",
          "Value": "Деметра. Пройдена проверка по аккредитации"
        },
        {
          "SchemaColumnUId": "2f0c4548-e688-4561-a3a3-e6e9422ff3f7",
          "Value": ""
        },
        {
          "SchemaColumnUId": "382c1794-3e8d-4895-91ce-02c9f5e3553e",
          "Value": ""
        },
        {
          "SchemaColumnUId": "47e72ecd-b21c-4b09-933e-6c1263381425",
          "Value": ""
        },
        {
          "SchemaColumnUId": "54425b16-8b5b-40a1-baf1-3997560a6b0e",
          "Value": "<title></title><!--[if !mso]><!--><!--<![endif]--><style type=\"text/css\">#outlook a { padding:0; }\n          body { margin:0;padding:0;-webkit-text-size-adjust:100%;-ms-text-size-adjust:100%; }\n          table, td { border-collapse:collapse;mso-table-lspace:0pt;mso-table-rspace:0pt; }\n          img { border:0;height:auto;line-height:100%; outline:none;text-decoration:none;-ms-interpolation-mode:bicubic; }\n          p { display:block;margin:13px 0; }</style><!--[if mso]>\n        <noscript>\n        <xml>\n        <o:OfficeDocumentSettings>\n          <o:AllowPNG/>\n          <o:PixelsPerInch>96</o:PixelsPerInch>\n        </o:OfficeDocumentSettings>\n        </xml>\n        </noscript>\n        <![endif]--><!--[if lte mso 11]>\n        <style type=\"text/css\">\n          .mj-outlook-group-fix { width:100% !important; }\n        </style>\n        <![endif]--><style type=\"text/css\">@media only screen and (min-width:480px) {\n        .mj-column-per-100 { width:100% !important; max-width: 100%; }\n      }</style><style media=\"screen and (min-width:480px)\">.moz-text-html .mj-column-per-100 { width:100% !important; max-width: 100%; }</style><style type=\"text/css\"></style><style type=\"text/css\">.mj-block {font-family: Arial, Helvetica, sans-serif;font-size: 13px;}</style><div style=\"background-color:#ffffff;\"><!--[if mso | IE]><table align=\"center\" border=\"0\" cellpadding=\"0\" cellspacing=\"0\" class=\"mj-block-outlook\" role=\"presentation\" style=\"width:600px;\" width=\"600\" ><tr><td style=\"line-height:0px;font-size:0px;mso-line-height-rule:exactly;\"><![endif]--><div style=\"margin:0px auto;max-width:600px;\" class=\"mj-block\"><table style=\"width:100%;\" role=\"presentation\" cellspacing=\"0\" cellpadding=\"0\" border=\"0\" align=\"center\"><tbody><tr><td style=\"direction:ltr;font-size:0px;padding:0;text-align:center;\"><!--[if mso | IE]><table role=\"presentation\" border=\"0\" cellpadding=\"0\" cellspacing=\"0\"><tr><td class=\"\" width=\"600px\" ><table align=\"center\" border=\"0\" cellpadding=\"0\" cellspacing=\"0\" class=\"\" role=\"presentation\" style=\"width:600px;\" width=\"600\" ><tr><td style=\"line-height:0px;font-size:0px;mso-line-height-rule:exactly;\"><![endif]--><div style=\"margin:0px auto;max-width:600px;\"><table style=\"width:100%;\" role=\"presentation\" cellspacing=\"0\" cellpadding=\"0\" border=\"0\" align=\"center\"><tbody><tr><td style=\"direction:ltr;font-size:0px;padding:0;text-align:center;\"><!--[if mso | IE]><table role=\"presentation\" border=\"0\" cellpadding=\"0\" cellspacing=\"0\"><tr><td class=\"\" style=\"vertical-align:top;width:600px;\" ><![endif]--><div style=\"font-size:0px;text-align:left;direction:ltr;display:inline-block;vertical-align:top;width:100%;\" class=\"mj-column-per-100 mj-outlook-group-fix\"><table width=\"100%\" style=\"vertical-align:top;\" role=\"presentation\" cellspacing=\"0\" cellpadding=\"0\" border=\"0\"><tbody><tr><td style=\"font-size:0px;padding:10px 25px;padding-top:5px;padding-right:5px;padding-bottom:5px;padding-left:5px;word-break:break-word;\" align=\"left\"><div style=\"font-family:Arial, Helvetica, sans-serif;font-size:13px;line-height:22px;text-align:left;color:#000001;\">Уважаемый(ая), [#CrocAccount.PrimaryContact#]!<br><br>Получен ответ по запросу аккредитации контрагента [#CrocAccount#]. Проверка документов пройдена.<br><br><strong>ПРИМЕЧАНИЕ:</strong><br>Сообщение сформировано автоматически, носит информационный характер и не требует ответа.<br>&nbsp;</div></td></tr></tbody></table></div><!--[if mso | IE]></td></tr></table><![endif]--></td></tr></tbody></table></div><!--[if mso | IE]></td></tr></table></td></tr></table><![endif]--></td></tr></tbody></table></div><!--[if mso | IE]></td></tr></table><![endif]--></div>"
        },
        {
          "SchemaColumnUId": "613d189f-c6a0-4ec4-b2b0-a43199cacef4",
          "Value": false
        },
        {
          "SchemaColumnUId": "698c2960-3832-4ba4-ad56-8a6489b32ad4",
          "Value": false
        },
        {
          "SchemaColumnUId": "aa4c5784-7f68-47d8-b7bb-ee3f89221ac8",
          "Value": false
        },
        {
          "SchemaColumnUId": "b1b8aa8c-787f-42e0-8af1-603d1761f75a",
          "Value": "null"
        },
        {
          "SchemaColumnUId": "b4972436-c042-4a3b-a025-f04575f10532",
          "Value": "{\"ItemType\":\"sheet\",\"Caption\":\"Дизайнер контента\",\"Width\":600,\"BackgroundColor\":\"#ffffff\",\"SheetAlign\":\"center\",\"BreakpointWidth\":480,\"Items\":[{\"ItemType\":\"mjblock\",\"Styles\":{\"background-position\":\"top center\",\"background-repeat\":\"no-repeat\"},\"Items\":[{\"ItemType\":\"section\",\"Styles\":{\"direction\":\"ltr\"},\"Items\":[{\"ItemType\":\"column\",\"Width\":100,\"Styles\":{},\"WrapperStyles\":{\"vertical-align\":\"top\",\"direction\":\"ltr\",\"width\":\"100%\"},\"Items\":[{\"ItemType\":\"text\",\"Content\":\"Уважаемый(ая), [#CrocAccount.PrimaryContact#]!<br />\\n<br />\\nПолучен ответ по запросу аккредитации контрагента [#CrocAccount#]. Проверка документов пройдена.<br />\\n<br />\\n<strong>ПРИМЕЧАНИЕ:</strong><br />\\nСообщение сформировано автоматически, носит информационный характер и не требует ответа.<br />\\n&nbsp;\",\"Styles\":{\"font-family\":\"Arial, Helvetica, sans-serif\",\"font-size\":\"13px\",\"color\":\"#000001\",\"line-height\":\"22px\",\"text-align\":\"left\",\"padding-left\":\"5px\",\"padding-right\":\"5px\",\"padding-top\":\"5px\",\"padding-bottom\":\"5px\"}}]}]}]}]}"
        },
        {
          "SchemaColumnUId": "cf75d513-0d42-439c-b19f-8c7fe4234460",
          "Value": "e75ac3fe-be9b-4a01-87db-c7dffd354f8c",
          "DisplayValue": "Personal message to each recipient"
        },
        {
          "SchemaColumnUId": "e6618002-83f7-419a-a866-63ea7599b123",
          "Value": ""
        },
        {
          "SchemaColumnUId": "f73ea119-e10f-4db3-a89f-02b338f69444",
          "Value": 1
        },
        {
          "SchemaColumnUId": "fe78489d-8d90-d516-a731-0f942d006555",
          "Value": ""
        },
        {
          "SchemaColumnUId": "feab52f3-9df5-4499-8425-855973838905",
          "Value": "null",
          "DisplayValue": ""
        }
      ]
    }
  ]
}