﻿{
  "Descriptor": {
    "UId": "e5f20746-e019-2c5c-62a9-7749cf94270d",
    "Name": "CrocDocumentType",
    "ModifiedOnUtc": "\/Date(1670518878000)\/",
    "InstallType": 0,
    "Schema": {
      "UId": "da8a65e4-19ba-468c-a10c-afd11265762e",
      "Name": "CrocDocumentType"
    },
    "Columns": [
      {
        "ColumnUId": "ae0e45ca-c495-4fe7-a39d-3ab7278e1617",
        "IsForceUpdate": false,
        "IsKey": true,
        "ColumnName": "Id",
        "DataTypeValueUId": "23018567-a13c-4320-8687-fd6f9e3699bd"
      },
      {
        "ColumnUId": "736c30a7-c0ec-4fa9-b034-2552b319b633",
        "IsForceUpdate": true,
        "IsKey": false,
        "ColumnName": "Name",
        "DataTypeValueUId": "ddb3a1ee-07e8-4d62-b7a9-d0e618b00fbd"
      },
      {
        "ColumnUId": "9e53fd7c-dde4-4502-a64c-b9e34148108b",
        "IsForceUpdate": true,
        "IsKey": false,
        "ColumnName": "Description",
        "DataTypeValueUId": "ddb3a1ee-07e8-4d62-b7a9-d0e618b00fbd"
      },
      {
        "ColumnUId": "1797653e-e4bb-e8c2-9571-918e31d9ff8f",
        "IsForceUpdate": true,
        "IsKey": false,
        "ColumnName": "CrocIsPackage",
        "DataTypeValueUId": "90b65bf8-0ffc-4141-8779-2420877af907"
      },
      {
        "ColumnUId": "e7849d97-cbe9-84af-b3f9-08b6660839e9",
        "IsForceUpdate": true,
        "IsKey": false,
        "ColumnName": "CrocGuid",
        "DataTypeValueUId": "23018567-a13c-4320-8687-fd6f9e3699bd"
      }
    ]
  }
}