{
  "MetaData": {
    "Schema": {
      "ManagerName": "DcmSchemaManager",
      "UId": "396a3724-ade6-4f32-bb7f-fae351a75f98",
      "A2": "CrocCaseRequest3",
      "A5": "42dd13ee-c166-4d57-9f8a-4cf3ea2311a0",
      "B1": [],
      "B2": [],
      "B3": [],
      "B6": "8027c309-f63e-4894-a830-daa104b3be05",
      "B8": "7.18.5.1500",
      "FJ1": [],
      "IJ1": true,
      "BK8": "51b280eb-d8a3-4932-81b9-ef61a0877aab",
      "IJ10": true,
      "EntitySchemaUId": "93e05845-66be-48d2-8969-f8996bcbc2b6",
      "BK15": [
        {
          "BL1": "Terrasoft.Core.Process.ProcessSchemaMapping",
          "UId": "5ec4a510-9668-42a6-b001-0631d0a3d7ad",
          "A2": "DcmProcessElement1",
          "A3": "396a3724-ade6-4f32-bb7f-fae351a75f98",
          "A4": "396a3724-ade6-4f32-bb7f-fae351a75f98",
          "GT2": "[Element:{7a847dbc-2193-41fb-89d6-f9e25d049746}].[Parameter:{50750b9d-6869-45d0-917f-40f0de51b0d0}]",
          "GT3": "50750b9d-6869-45d0-917f-40f0de51b0d0",
          "GT5": "b5832364-e935-4e3e-87da-ff12f8a4fc21",
          "GT4": "295ad372-1b8c-47cc-b18a-36cca6d38ebf",
          "GT1": {
            "GS1": 3,
            "GS2": "[#ColumnValue.{93e05845-66be-48d2-8969-f8996bcbc2b6}.{ae0e45ca-c495-4fe7-a39d-3ab7278e1617}#]",
            "GS5": "295ad372-1b8c-47cc-b18a-36cca6d38ebf"
          }
        },
        {
          "BL1": "Terrasoft.Core.Process.ProcessSchemaMapping",
          "UId": "721ebbf5-42b2-44c5-a9c6-ab6823e75680",
          "A2": "DcmProcessElement1",
          "A3": "396a3724-ade6-4f32-bb7f-fae351a75f98",
          "A4": "396a3724-ade6-4f32-bb7f-fae351a75f98",
          "GT2": "[Element:{7a847dbc-2193-41fb-89d6-f9e25d049746}].[Parameter:{f1220fe6-f568-41c2-9b03-a93bab4ac1a8}]",
          "GT3": "f1220fe6-f568-41c2-9b03-a93bab4ac1a8",
          "GT5": "888e836e-4542-49ef-9481-055e3af984fc",
          "GT4": "295ad372-1b8c-47cc-b18a-36cca6d38ebf",
          "GT1": {
            "GS1": 3,
            "GS2": "[#ColumnValue.{93e05845-66be-48d2-8969-f8996bcbc2b6}.{62a9db1a-0d7e-2d89-5828-938edd3050b8}#]",
            "GS5": "295ad372-1b8c-47cc-b18a-36cca6d38ebf"
          }
        },
        {
          "BL1": "Terrasoft.Core.Process.ProcessSchemaMapping",
          "UId": "45d05089-3f17-4ab4-860e-541b5516b182",
          "A2": "DcmProcessElement1",
          "A3": "396a3724-ade6-4f32-bb7f-fae351a75f98",
          "A4": "396a3724-ade6-4f32-bb7f-fae351a75f98",
          "GT2": "[Element:{7a847dbc-2193-41fb-89d6-f9e25d049746}].[Parameter:{e7523654-1a0e-48d5-bc8d-1e20d311b3b4}]",
          "GT3": "e7523654-1a0e-48d5-bc8d-1e20d311b3b4",
          "GT5": "8a4765cf-3134-4b6f-a8d7-9bb6f672fe28",
          "GT4": "295ad372-1b8c-47cc-b18a-36cca6d38ebf",
          "GT1": {
            "GS5": "295ad372-1b8c-47cc-b18a-36cca6d38ebf"
          }
        },
        {
          "BL1": "Terrasoft.Core.Process.ProcessSchemaMapping",
          "UId": "dcfffafb-b2f5-49b4-9d2c-e96c4821fedb",
          "A2": "DcmProcessElement1",
          "A3": "396a3724-ade6-4f32-bb7f-fae351a75f98",
          "A4": "396a3724-ade6-4f32-bb7f-fae351a75f98",
          "GT2": "[Element:{7a847dbc-2193-41fb-89d6-f9e25d049746}].[Parameter:{4129893f-8aa7-462c-91cc-1d42c3da1c05}]",
          "GT3": "4129893f-8aa7-462c-91cc-1d42c3da1c05",
          "GT5": "711b990d-05d7-407a-84b9-c8233fd12ae8",
          "GT4": "295ad372-1b8c-47cc-b18a-36cca6d38ebf",
          "GT1": {
            "GS1": 3,
            "GS2": "[#ColumnValue.{93e05845-66be-48d2-8969-f8996bcbc2b6}.{b1dd8e98-f014-d3fb-4e19-3d951548dda7}#]",
            "GS5": "295ad372-1b8c-47cc-b18a-36cca6d38ebf"
          }
        },
        {
          "BL1": "Terrasoft.Core.Process.ProcessSchemaMapping",
          "UId": "bfcf6de8-3e5e-4a5f-bd3d-efd0a47cb114",
          "A2": "DcmProcessElement1",
          "A3": "396a3724-ade6-4f32-bb7f-fae351a75f98",
          "A4": "396a3724-ade6-4f32-bb7f-fae351a75f98",
          "GT2": "[Element:{7a847dbc-2193-41fb-89d6-f9e25d049746}].[Parameter:{54f1ffaf-0da6-4901-8002-f213712ad2af}]",
          "GT3": "54f1ffaf-0da6-4901-8002-f213712ad2af",
          "GT5": "9e355e53-b28e-42f5-9537-c0ed77425afb",
          "GT4": "295ad372-1b8c-47cc-b18a-36cca6d38ebf",
          "GT1": {
            "GS5": "295ad372-1b8c-47cc-b18a-36cca6d38ebf"
          }
        },
        {
          "BL1": "Terrasoft.Core.Process.ProcessSchemaMapping",
          "UId": "2204e8a5-fe4d-4815-a3ae-ca9cba7866b1",
          "A2": "DcmProcessElement2",
          "A3": "396a3724-ade6-4f32-bb7f-fae351a75f98",
          "A4": "396a3724-ade6-4f32-bb7f-fae351a75f98",
          "GT2": "[Element:{965619cb-5b5a-4e3b-8c35-a599d62ab9ee}].[Parameter:{1b622155-9c67-4d58-bdf9-f1ed3f0d5323}]",
          "GT3": "1b622155-9c67-4d58-bdf9-f1ed3f0d5323",
          "GT5": "c48f1d63-59b1-4992-b9dc-d303a66fa455",
          "GT4": "915dbbec-ec2c-4caa-a9ce-d0a33b7e7afe",
          "GT1": {
            "GS5": "915dbbec-ec2c-4caa-a9ce-d0a33b7e7afe"
          }
        },
        {
          "BL1": "Terrasoft.Core.Process.ProcessSchemaMapping",
          "UId": "5db8db4e-5a67-476d-a61b-147aeeeddfd1",
          "A2": "DcmProcessElement2",
          "A3": "396a3724-ade6-4f32-bb7f-fae351a75f98",
          "A4": "396a3724-ade6-4f32-bb7f-fae351a75f98",
          "GT2": "[Element:{965619cb-5b5a-4e3b-8c35-a599d62ab9ee}].[Parameter:{cfce9248-cf58-49d7-9522-93ae7849ce5b}]",
          "GT3": "cfce9248-cf58-49d7-9522-93ae7849ce5b",
          "GT5": "3389255a-4c5d-4fd4-8d81-2653b8ed9955",
          "GT4": "915dbbec-ec2c-4caa-a9ce-d0a33b7e7afe",
          "GT1": {
            "GS5": "915dbbec-ec2c-4caa-a9ce-d0a33b7e7afe"
          }
        },
        {
          "BL1": "Terrasoft.Core.Process.ProcessSchemaMapping",
          "UId": "2eacefcb-36f4-49f1-9f7c-1417df2d3d24",
          "A2": "DcmProcessElement3",
          "A3": "396a3724-ade6-4f32-bb7f-fae351a75f98",
          "A4": "396a3724-ade6-4f32-bb7f-fae351a75f98",
          "GT2": "[Element:{0e645677-2d28-4026-b170-48d27d63baf1}].[Parameter:{f7fe691d-6f58-45dd-988c-6cf31595636d}]",
          "GT3": "f7fe691d-6f58-45dd-988c-6cf31595636d",
          "GT5": "3389255a-4c5d-4fd4-8d81-2653b8ed9955",
          "GT4": "915dbbec-ec2c-4caa-a9ce-d0a33b7e7afe",
          "GT1": {
            "GS1": 3,
            "GS2": "[#ColumnValue.{93e05845-66be-48d2-8969-f8996bcbc2b6}.{ae0e45ca-c495-4fe7-a39d-3ab7278e1617}#]",
            "GS5": "915dbbec-ec2c-4caa-a9ce-d0a33b7e7afe"
          }
        },
        {
          "BL1": "Terrasoft.Core.Process.ProcessSchemaMapping",
          "UId": "4da8b5e1-a025-4368-b8f5-5629eb5774a3",
          "A2": "DcmProcessElement3",
          "A3": "396a3724-ade6-4f32-bb7f-fae351a75f98",
          "A4": "396a3724-ade6-4f32-bb7f-fae351a75f98",
          "GT2": "[Element:{0e645677-2d28-4026-b170-48d27d63baf1}].[Parameter:{86498c67-e129-4782-a8e6-b11004bbaae0}]",
          "GT3": "86498c67-e129-4782-a8e6-b11004bbaae0",
          "GT5": "c48f1d63-59b1-4992-b9dc-d303a66fa455",
          "GT4": "915dbbec-ec2c-4caa-a9ce-d0a33b7e7afe",
          "GT1": {
            "GS1": 3,
            "GS2": "[#Lookup.6708137b-a37b-4f51-a809-db4c555f8cea.00dbd905-1c53-41bb-a94b-8123032fa194#]",
            "GS5": "915dbbec-ec2c-4caa-a9ce-d0a33b7e7afe"
          }
        },
        {
          "BL1": "Terrasoft.Core.Process.ProcessSchemaMapping",
          "UId": "f4e223b4-4255-40be-b567-56fb786e1012",
          "A2": "DcmProcessElement4",
          "A3": "396a3724-ade6-4f32-bb7f-fae351a75f98",
          "A4": "396a3724-ade6-4f32-bb7f-fae351a75f98",
          "GT2": "[Element:{beb22a4b-f836-40e2-9e1e-055b9e4d7c0b}].[Parameter:{f74f466e-1496-4774-ae2d-3661f63c7338}]",
          "GT3": "f74f466e-1496-4774-ae2d-3661f63c7338",
          "GT5": "7fcd0bce-8e07-4300-921c-7613eedc9998",
          "GT4": "1086395c-2594-4f80-8ce0-95e4676130aa",
          "GT1": {
            "GS1": 3,
            "GS2": "[#ColumnValue.{93e05845-66be-48d2-8969-f8996bcbc2b6}.{ae0e45ca-c495-4fe7-a39d-3ab7278e1617}#]",
            "GS5": "1086395c-2594-4f80-8ce0-95e4676130aa"
          }
        },
        {
          "BL1": "Terrasoft.Core.Process.ProcessSchemaMapping",
          "UId": "fe125520-1f16-41ed-a6d6-517b3f74ba5c",
          "A2": "DcmProcessElement4",
          "A3": "396a3724-ade6-4f32-bb7f-fae351a75f98",
          "A4": "396a3724-ade6-4f32-bb7f-fae351a75f98",
          "GT2": "[Element:{beb22a4b-f836-40e2-9e1e-055b9e4d7c0b}].[Parameter:{bbf4cbb8-3156-4446-a64e-4c202b8cede6}]",
          "GT3": "bbf4cbb8-3156-4446-a64e-4c202b8cede6",
          "GT5": "821d408e-d89e-41e1-bbda-6919ac0dea80",
          "GT4": "1086395c-2594-4f80-8ce0-95e4676130aa",
          "GT1": {
            "GS1": 3,
            "GS2": "[#ColumnValue.{93e05845-66be-48d2-8969-f8996bcbc2b6}.{b1dd8e98-f014-d3fb-4e19-3d951548dda7}#]",
            "GS5": "1086395c-2594-4f80-8ce0-95e4676130aa"
          }
        },
        {
          "BL1": "Terrasoft.Core.Process.ProcessSchemaMapping",
          "UId": "cae007a3-fb69-432c-a8dc-b75326ad7a18",
          "A2": "DcmProcessElement5",
          "A3": "396a3724-ade6-4f32-bb7f-fae351a75f98",
          "A4": "396a3724-ade6-4f32-bb7f-fae351a75f98",
          "GT2": "[Element:{4c51090d-3f7b-4593-b4e7-c97203e470e9}].[Parameter:{780f6381-ad2f-444a-91af-4272fab914ba}]",
          "GT3": "780f6381-ad2f-444a-91af-4272fab914ba",
          "GT5": "44543ee7-3630-4bb7-a9c9-79934e274280",
          "GT4": "0b25318b-bf39-40cd-a271-c9570785b0f3",
          "GT1": {
            "GS1": 3,
            "GS2": "[#Lookup.35e7ab15-0f64-4e24-b868-6e13249cdeff.47776356-027d-4efa-8d17-b37c8ea28128#]",
            "GS5": "0b25318b-bf39-40cd-a271-c9570785b0f3"
          }
        },
        {
          "BL1": "Terrasoft.Core.Process.ProcessSchemaMapping",
          "UId": "99fd4053-848c-4bac-9d89-46a4f6fd585d",
          "A2": "DcmProcessElement5",
          "A3": "396a3724-ade6-4f32-bb7f-fae351a75f98",
          "A4": "396a3724-ade6-4f32-bb7f-fae351a75f98",
          "GT2": "[Element:{4c51090d-3f7b-4593-b4e7-c97203e470e9}].[Parameter:{2f729741-b4dc-431c-974d-fe7671ba79c0}]",
          "GT3": "2f729741-b4dc-431c-974d-fe7671ba79c0",
          "GT5": "2cdbd419-d1ff-4c23-a05d-17c03798212f",
          "GT4": "0b25318b-bf39-40cd-a271-c9570785b0f3",
          "GT1": {
            "GS1": 3,
            "GS2": "[#ColumnValue.{93e05845-66be-48d2-8969-f8996bcbc2b6}.{ae0e45ca-c495-4fe7-a39d-3ab7278e1617}#]",
            "GS5": "0b25318b-bf39-40cd-a271-c9570785b0f3"
          }
        },
        {
          "BL1": "Terrasoft.Core.Process.ProcessSchemaMapping",
          "UId": "5ce6d05f-9690-49fe-b02f-4074335e91f6",
          "A2": "DcmProcessElement5",
          "A3": "396a3724-ade6-4f32-bb7f-fae351a75f98",
          "A4": "396a3724-ade6-4f32-bb7f-fae351a75f98",
          "GT2": "[Element:{4c51090d-3f7b-4593-b4e7-c97203e470e9}].[Parameter:{7a058e25-a366-4607-a276-2aa7426e6ae6}]",
          "GT3": "7a058e25-a366-4607-a276-2aa7426e6ae6",
          "GT5": "0be0f1ee-1cb8-478a-b92f-b0584c88eab2",
          "GT4": "0b25318b-bf39-40cd-a271-c9570785b0f3",
          "GT1": {
            "GS1": 3,
            "GS2": "[#ColumnValue.{93e05845-66be-48d2-8969-f8996bcbc2b6}.{62a9db1a-0d7e-2d89-5828-938edd3050b8}#]",
            "GS5": "0b25318b-bf39-40cd-a271-c9570785b0f3"
          }
        },
        {
          "BL1": "Terrasoft.Core.Process.ProcessSchemaMapping",
          "UId": "2ec8a73a-92bf-4fa5-9c08-2a9e992caf7c",
          "A2": "DcmProcessElement6",
          "A3": "396a3724-ade6-4f32-bb7f-fae351a75f98",
          "A4": "396a3724-ade6-4f32-bb7f-fae351a75f98",
          "GT2": "[Element:{89901e6d-a1a6-450b-b9f7-eee8519f5738}].[Parameter:{717a3d96-f801-4a99-9872-d7bb6d878630}]",
          "GT3": "717a3d96-f801-4a99-9872-d7bb6d878630",
          "GT5": "44543ee7-3630-4bb7-a9c9-79934e274280",
          "GT4": "0b25318b-bf39-40cd-a271-c9570785b0f3",
          "GT1": {
            "GS1": 3,
            "GS2": "[#Lookup.35e7ab15-0f64-4e24-b868-6e13249cdeff.daccfe0a-147d-42e2-803d-7fb385901e0b#]",
            "GS5": "0b25318b-bf39-40cd-a271-c9570785b0f3"
          }
        },
        {
          "BL1": "Terrasoft.Core.Process.ProcessSchemaMapping",
          "UId": "248f0c0b-ae02-4faf-8f08-ca37eb1f5b86",
          "A2": "DcmProcessElement6",
          "A3": "396a3724-ade6-4f32-bb7f-fae351a75f98",
          "A4": "396a3724-ade6-4f32-bb7f-fae351a75f98",
          "GT2": "[Element:{89901e6d-a1a6-450b-b9f7-eee8519f5738}].[Parameter:{2550d04b-59f1-4fac-a8c0-546e5480b304}]",
          "GT3": "2550d04b-59f1-4fac-a8c0-546e5480b304",
          "GT5": "2cdbd419-d1ff-4c23-a05d-17c03798212f",
          "GT4": "0b25318b-bf39-40cd-a271-c9570785b0f3",
          "GT1": {
            "GS1": 3,
            "GS2": "[#ColumnValue.{93e05845-66be-48d2-8969-f8996bcbc2b6}.{ae0e45ca-c495-4fe7-a39d-3ab7278e1617}#]",
            "GS5": "0b25318b-bf39-40cd-a271-c9570785b0f3"
          }
        },
        {
          "BL1": "Terrasoft.Core.Process.ProcessSchemaMapping",
          "UId": "8857226c-8d7f-41cd-8c79-69f1d7bdef33",
          "A2": "DcmProcessElement6",
          "A3": "396a3724-ade6-4f32-bb7f-fae351a75f98",
          "A4": "396a3724-ade6-4f32-bb7f-fae351a75f98",
          "GT2": "[Element:{89901e6d-a1a6-450b-b9f7-eee8519f5738}].[Parameter:{85a18580-c69a-4be2-b557-e99eac16fafc}]",
          "GT3": "85a18580-c69a-4be2-b557-e99eac16fafc",
          "GT5": "0be0f1ee-1cb8-478a-b92f-b0584c88eab2",
          "GT4": "0b25318b-bf39-40cd-a271-c9570785b0f3",
          "GT1": {
            "GS1": 3,
            "GS2": "[#ColumnValue.{93e05845-66be-48d2-8969-f8996bcbc2b6}.{62a9db1a-0d7e-2d89-5828-938edd3050b8}#]",
            "GS5": "0b25318b-bf39-40cd-a271-c9570785b0f3"
          }
        },
        {
          "BL1": "Terrasoft.Core.Process.ProcessSchemaMapping",
          "UId": "62c297e5-6f41-481d-984a-e8f678fee5dc",
          "A2": "DcmProcessElement7",
          "A3": "396a3724-ade6-4f32-bb7f-fae351a75f98",
          "A4": "396a3724-ade6-4f32-bb7f-fae351a75f98",
          "GT2": "[Element:{4e6c7a1c-517f-4e9f-8e10-5b4e1b08549e}].[Parameter:{ed005188-003b-48b7-be39-bd7294217639}]",
          "GT3": "ed005188-003b-48b7-be39-bd7294217639",
          "GT5": "44543ee7-3630-4bb7-a9c9-79934e274280",
          "GT4": "0b25318b-bf39-40cd-a271-c9570785b0f3",
          "GT1": {
            "GS1": 3,
            "GS2": "[#Lookup.35e7ab15-0f64-4e24-b868-6e13249cdeff.37d42cc3-c7c7-4e4e-b0bf-73ee3e9f1e41#]",
            "GS5": "0b25318b-bf39-40cd-a271-c9570785b0f3"
          }
        },
        {
          "BL1": "Terrasoft.Core.Process.ProcessSchemaMapping",
          "UId": "814bbfc5-e72d-4c05-b72b-28124bc0fcb8",
          "A2": "DcmProcessElement7",
          "A3": "396a3724-ade6-4f32-bb7f-fae351a75f98",
          "A4": "396a3724-ade6-4f32-bb7f-fae351a75f98",
          "GT2": "[Element:{4e6c7a1c-517f-4e9f-8e10-5b4e1b08549e}].[Parameter:{7c31828c-c921-41e4-918c-6d01571ad461}]",
          "GT3": "7c31828c-c921-41e4-918c-6d01571ad461",
          "GT5": "2cdbd419-d1ff-4c23-a05d-17c03798212f",
          "GT4": "0b25318b-bf39-40cd-a271-c9570785b0f3",
          "GT1": {
            "GS1": 3,
            "GS2": "[#ColumnValue.{93e05845-66be-48d2-8969-f8996bcbc2b6}.{ae0e45ca-c495-4fe7-a39d-3ab7278e1617}#]",
            "GS5": "0b25318b-bf39-40cd-a271-c9570785b0f3"
          }
        },
        {
          "BL1": "Terrasoft.Core.Process.ProcessSchemaMapping",
          "UId": "8e3c7de1-c27b-4ee5-b826-bb29c5b8d480",
          "A2": "DcmProcessElement7",
          "A3": "396a3724-ade6-4f32-bb7f-fae351a75f98",
          "A4": "396a3724-ade6-4f32-bb7f-fae351a75f98",
          "GT2": "[Element:{4e6c7a1c-517f-4e9f-8e10-5b4e1b08549e}].[Parameter:{6958fa10-b741-4a30-add5-c737a63c3fa5}]",
          "GT3": "6958fa10-b741-4a30-add5-c737a63c3fa5",
          "GT5": "0be0f1ee-1cb8-478a-b92f-b0584c88eab2",
          "GT4": "0b25318b-bf39-40cd-a271-c9570785b0f3",
          "GT1": {
            "GS1": 3,
            "GS2": "[#ColumnValue.{93e05845-66be-48d2-8969-f8996bcbc2b6}.{62a9db1a-0d7e-2d89-5828-938edd3050b8}#]",
            "GS5": "0b25318b-bf39-40cd-a271-c9570785b0f3"
          }
        },
        {
          "BL1": "Terrasoft.Core.Process.ProcessSchemaMapping",
          "UId": "8a467b46-11a5-4cb7-9a41-680c41261e3f",
          "A2": "DcmProcessElement8",
          "A3": "396a3724-ade6-4f32-bb7f-fae351a75f98",
          "A4": "396a3724-ade6-4f32-bb7f-fae351a75f98",
          "GT2": "[Element:{4c1ca11a-7179-4d9b-b8ae-5eb29fc3435a}].[Parameter:{d747b731-ea38-4826-b457-91abde07d20e}]",
          "GT3": "d747b731-ea38-4826-b457-91abde07d20e",
          "GT5": "c3cce1f9-375e-4eaf-a0c5-d93969d036e7",
          "GT4": "0ebbb23c-f6db-45eb-ad13-a1445b7ef081",
          "GT1": {
            "GS1": 1,
            "GS2": "93e05845-66be-48d2-8969-f8996bcbc2b6"
          }
        },
        {
          "BL1": "Terrasoft.Core.Process.ProcessSchemaMapping",
          "UId": "52bd5990-2d64-4a07-9b1e-d33649ddfda1",
          "A2": "DcmProcessElement8",
          "A3": "396a3724-ade6-4f32-bb7f-fae351a75f98",
          "A4": "396a3724-ade6-4f32-bb7f-fae351a75f98",
          "GT2": "[Element:{4c1ca11a-7179-4d9b-b8ae-5eb29fc3435a}].[Parameter:{9dc650ab-c9b3-4c6a-aca7-c5d40dd6e08a}]",
          "GT3": "9dc650ab-c9b3-4c6a-aca7-c5d40dd6e08a",
          "GT5": "ccb6d7be-508f-4337-8120-f042ff8e5cec",
          "GT4": "0ebbb23c-f6db-45eb-ad13-a1445b7ef081",
          "GT1": {
            "GS1": 1,
            "GS2": "{\"className\":\"Terrasoft.FilterGroup\",\"serializedFilterEditData\":\"{\\\"className\\\":\\\"Terrasoft.FilterGroup\\\",\\\"items\\\":{\\\"0232e854-3270-4be3-95e7-3f07174fb1c2\\\":{\\\"className\\\":\\\"Terrasoft.CompareFilter\\\",\\\"filterType\\\":1,\\\"comparisonType\\\":3,\\\"isEnabled\\\":true,\\\"trimDateTimeParameterToDate\\\":false,\\\"leftExpression\\\":{\\\"className\\\":\\\"Terrasoft.ColumnExpression\\\",\\\"expressionType\\\":0,\\\"columnPath\\\":\\\"Id\\\"},\\\"isAggregative\\\":false,\\\"key\\\":\\\"0232e854-3270-4be3-95e7-3f07174fb1c2\\\",\\\"dataValueType\\\":0,\\\"leftExpressionCaption\\\":\\\"Id\\\",\\\"rightExpression\\\":{\\\"className\\\":\\\"Terrasoft.ParameterExpression\\\",\\\"expressionType\\\":2,\\\"parameter\\\":{\\\"className\\\":\\\"Terrasoft.Parameter\\\",\\\"dataValueType\\\":10,\\\"value\\\":{\\\"value\\\":\\\"[#ColumnValue.{93e05845-66be-48d2-8969-f8996bcbc2b6}.{ae0e45ca-c495-4fe7-a39d-3ab7278e1617}#]\\\",\\\"displayValue\\\":\\\"[#Основная запись.Id#]\\\",\\\"source\\\":3,\\\"dataValueType\\\":10,\\\"referenceSchemaUId\\\":\\\"93e05845-66be-48d2-8969-f8996bcbc2b6\\\"}}}}},\\\"logicalOperation\\\":0,\\\"isEnabled\\\":true,\\\"filterType\\\":6,\\\"rootSchemaName\\\":\\\"CrocRequest\\\",\\\"key\\\":\\\"\\\"}\",\"dataSourceFilters\":\"{\\\"items\\\":{\\\"0232e854-3270-4be3-95e7-3f07174fb1c2\\\":{\\\"filterType\\\":1,\\\"comparisonType\\\":3,\\\"isEnabled\\\":true,\\\"trimDateTimeParameterToDate\\\":false,\\\"leftExpression\\\":{\\\"expressionType\\\":0,\\\"columnPath\\\":\\\"Id\\\"},\\\"rightExpression\\\":{\\\"expressionType\\\":2,\\\"parameter\\\":{\\\"dataValueType\\\":10,\\\"value\\\":\\\"[#ColumnValue.{93e05845-66be-48d2-8969-f8996bcbc2b6}.{ae0e45ca-c495-4fe7-a39d-3ab7278e1617}#]\\\"}}}},\\\"logicalOperation\\\":0,\\\"isEnabled\\\":true,\\\"filterType\\\":6,\\\"rootSchemaName\\\":\\\"CrocRequest\\\"}\"}"
          }
        },
        {
          "BL1": "Terrasoft.Core.Process.ProcessSchemaMapping",
          "UId": "706b5d83-8fe5-4d50-82df-88be393e0925",
          "A2": "DcmProcessElement8",
          "A3": "396a3724-ade6-4f32-bb7f-fae351a75f98",
          "A4": "396a3724-ade6-4f32-bb7f-fae351a75f98",
          "GT2": "[Element:{4c1ca11a-7179-4d9b-b8ae-5eb29fc3435a}].[Parameter:{48d5ae59-02a7-4eb1-9545-9a34fe396820}]",
          "GT3": "48d5ae59-02a7-4eb1-9545-9a34fe396820",
          "GT5": "9fe621f1-a3b6-45dd-b329-6a3c2bffd2ce",
          "GT4": "0ebbb23c-f6db-45eb-ad13-a1445b7ef081",
          "GT1": {
            "GS1": 1,
            "GS2": "[{Id:\"6335acb1-36ef-4f47-9632-e93dd29f5b3f\",Name:\"Для всех ролей и пользователей\",CanRead:false,CanEdit:true,CanDelete:true,Source:\"1\",Grantee:\"AllRolesAndUsers\",Value:\"\"}]"
          }
        },
        {
          "BL1": "Terrasoft.Core.Process.ProcessSchemaMapping",
          "UId": "ad6b6e10-25ac-4686-b7dd-a53f004d677a",
          "A2": "DcmProcessElement8",
          "A3": "396a3724-ade6-4f32-bb7f-fae351a75f98",
          "A4": "396a3724-ade6-4f32-bb7f-fae351a75f98",
          "GT2": "[Element:{4c1ca11a-7179-4d9b-b8ae-5eb29fc3435a}].[Parameter:{ae9f4f35-fa13-4a1d-a68a-92dba69e6f5a}]",
          "GT3": "ae9f4f35-fa13-4a1d-a68a-92dba69e6f5a",
          "GT5": "2185aa6e-7e5e-4212-8164-38d402636512",
          "GT4": "0ebbb23c-f6db-45eb-ad13-a1445b7ef081",
          "GT1": {
            "GS1": 1,
            "GS2": "[]"
          }
        },
        {
          "BL1": "Terrasoft.Core.Process.ProcessSchemaMapping",
          "UId": "a52f7265-aff9-4105-a043-7d10ea929d88",
          "A2": "DcmProcessElement8",
          "A3": "396a3724-ade6-4f32-bb7f-fae351a75f98",
          "A4": "396a3724-ade6-4f32-bb7f-fae351a75f98",
          "GT2": "[Element:{4c1ca11a-7179-4d9b-b8ae-5eb29fc3435a}].[Parameter:{34673140-b772-4423-a996-e4c919fbae69}]",
          "GT3": "34673140-b772-4423-a996-e4c919fbae69",
          "GT5": "f677b88e-54e8-5d0e-aeac-f303a33ffc7a",
          "GT4": "0ebbb23c-f6db-45eb-ad13-a1445b7ef081",
          "GT1": {
            "GS1": 3,
            "GS2": "true",
            "GS5": "0ebbb23c-f6db-45eb-ad13-a1445b7ef081",
            "GS8": "false"
          }
        },
        {
          "BL1": "Terrasoft.Core.Process.ProcessSchemaMapping",
          "UId": "534856e5-7f78-479a-b439-ecb9cd301884",
          "A2": "DcmProcessElement9",
          "A3": "396a3724-ade6-4f32-bb7f-fae351a75f98",
          "A4": "396a3724-ade6-4f32-bb7f-fae351a75f98",
          "GT2": "[Element:{a530d5c2-8e97-49d7-9586-8109c53d9eeb}].[Parameter:{b1260025-9e60-439e-b4e7-8d9a2e167248}]",
          "GT3": "b1260025-9e60-439e-b4e7-8d9a2e167248",
          "GT5": "91402073-c205-4578-84de-ef1747ac70cc",
          "GT4": "9f404fe4-d3ba-4616-9cdf-2926444044c2",
          "GT1": {
            "GS1": 3,
            "GS2": "[#ColumnValue.{93e05845-66be-48d2-8969-f8996bcbc2b6}.{ae0e45ca-c495-4fe7-a39d-3ab7278e1617}#]",
            "GS5": "9f404fe4-d3ba-4616-9cdf-2926444044c2"
          }
        }
      ],
      "BK37": {
        "BL1": "Terrasoft.Core.Process.ProcessSchemaParameter",
        "UId": "cdd58be7-2dba-4a5e-869b-1ad5d6d7513a",
        "A2": "NotificationCaption",
        "A3": "396a3724-ade6-4f32-bb7f-fae351a75f98",
        "A4": "396a3724-ade6-4f32-bb7f-fae351a75f98",
        "L1": "8b3f29bb-ea14-4ce5-a5c5-293a929b6ba2",
        "L8": {
          "GS1": 3,
          "GS2": "[#[PropertyValue:Caption]#]"
        }
      },
      "Stages": [
        {
          "BL1": "Terrasoft.Core.DcmProcess.DcmSchemaStage",
          "UId": "d300b8ac-41b2-4368-a4f2-7582f0e3bb46",
          "A2": "Stage1",
          "A3": "396a3724-ade6-4f32-bb7f-fae351a75f98",
          "A4": "396a3724-ade6-4f32-bb7f-fae351a75f98",
          "A5": "8027c309-f63e-4894-a830-daa104b3be05",
          "Color": "#8ecb60",
          "StageRecordId": "3958fd32-10f6-4ce8-a0f8-44c4e4b846d2",
          "Elements": [
            {
              "BL1": "Terrasoft.Core.DcmProcess.DcmSchemaElement",
              "UId": "4fc8d5ba-3f4f-4a2f-b769-977005c8de7a",
              "A2": "DcmElement1",
              "A3": "396a3724-ade6-4f32-bb7f-fae351a75f98",
              "A4": "396a3724-ade6-4f32-bb7f-fae351a75f98",
              "A5": "8027c309-f63e-4894-a830-daa104b3be05",
              "IL2": "d300b8ac-41b2-4368-a4f2-7582f0e3bb46",
              "RequiredType": 0,
              "Conditions": "[{\"resultFormula\":{\"value\":\"[#[IsOwnerSchema:false].[IsSchema:false].[Element:{4fc8d5ba-3f4f-4a2f-b769-977005c8de7a}].[Parameter:{54f1ffaf-0da6-4901-8002-f213712ad2af}]#]==[#Lookup.9b899187-da47-47e6-8c68-500c5ebbc9c6.ad3800f2-c9ec-4398-8e1b-f3b227b8e8c9#]\",\"isValid\":true,\"displayValue\":\"[#Отправка уведомления.Стадия заявки#]==[#Справочник.Статус заявки.Запрос отправлен.ad3800f2-c9ec-4398-8e1b-f3b227b8e8c9#]\",\"source\":3,\"referenceSchemaUId\":null},\"nextStageId\":\"ad3800f2-c9ec-4398-8e1b-f3b227b8e8c9\"}]",
              "ProcessFlowElement": {
                "BL1": "Terrasoft.Core.Process.ProcessSchemaSubProcess",
                "UId": "7a847dbc-2193-41fb-89d6-f9e25d049746",
                "A2": "DcmProcessElement1",
                "BL7": "49eafdbb-a89e-4bdf-a29d-7f17b1670a45",
                "BN2": "69;55",
                "BO2": true,
                "BO3": true,
                "BP2": [
                  {
                    "BL1": "Terrasoft.Core.Process.ProcessSchemaParameter",
                    "UId": "50750b9d-6869-45d0-917f-40f0de51b0d0",
                    "A2": "ProcessSchemaParameter1",
                    "A3": "295ad372-1b8c-47cc-b18a-36cca6d38ebf",
                    "A4": "295ad372-1b8c-47cc-b18a-36cca6d38ebf",
                    "IL2": "7a847dbc-2193-41fb-89d6-f9e25d049746",
                    "L1": "23018567-a13c-4320-8687-fd6f9e3699bd",
                    "L8": {
                      "GS1": 3,
                      "GS2": "[#ColumnValue.{93e05845-66be-48d2-8969-f8996bcbc2b6}.{ae0e45ca-c495-4fe7-a39d-3ab7278e1617}#]",
                      "GS5": "396a3724-ade6-4f32-bb7f-fae351a75f98"
                    },
                    "L9": "93e05845-66be-48d2-8969-f8996bcbc2b6"
                  },
                  {
                    "BL1": "Terrasoft.Core.Process.ProcessSchemaParameter",
                    "UId": "f1220fe6-f568-41c2-9b03-a93bab4ac1a8",
                    "A2": "ProcessSchemaParameter2",
                    "A3": "295ad372-1b8c-47cc-b18a-36cca6d38ebf",
                    "A4": "295ad372-1b8c-47cc-b18a-36cca6d38ebf",
                    "IL2": "7a847dbc-2193-41fb-89d6-f9e25d049746",
                    "L1": "23018567-a13c-4320-8687-fd6f9e3699bd",
                    "L8": {
                      "GS1": 3,
                      "GS2": "[#ColumnValue.{93e05845-66be-48d2-8969-f8996bcbc2b6}.{62a9db1a-0d7e-2d89-5828-938edd3050b8}#]",
                      "GS5": "396a3724-ade6-4f32-bb7f-fae351a75f98"
                    },
                    "L9": "93e05845-66be-48d2-8969-f8996bcbc2b6"
                  },
                  {
                    "BL1": "Terrasoft.Core.Process.ProcessSchemaParameter",
                    "UId": "e7523654-1a0e-48d5-bc8d-1e20d311b3b4",
                    "A2": "ProcessSchemaParameter3",
                    "A3": "295ad372-1b8c-47cc-b18a-36cca6d38ebf",
                    "A4": "295ad372-1b8c-47cc-b18a-36cca6d38ebf",
                    "IL2": "7a847dbc-2193-41fb-89d6-f9e25d049746",
                    "L1": "b295071f-7ea9-4e62-8d1a-919bf3732ff2",
                    "L8": {
                      "GS5": "295ad372-1b8c-47cc-b18a-36cca6d38ebf"
                    },
                    "L9": "35e7ab15-0f64-4e24-b868-6e13249cdeff"
                  },
                  {
                    "BL1": "Terrasoft.Core.Process.ProcessSchemaParameter",
                    "UId": "4129893f-8aa7-462c-91cc-1d42c3da1c05",
                    "A2": "ProcessSchemaParameter4",
                    "A3": "295ad372-1b8c-47cc-b18a-36cca6d38ebf",
                    "A4": "295ad372-1b8c-47cc-b18a-36cca6d38ebf",
                    "IL2": "7a847dbc-2193-41fb-89d6-f9e25d049746",
                    "L1": "b295071f-7ea9-4e62-8d1a-919bf3732ff2",
                    "L8": {
                      "GS1": 3,
                      "GS2": "[#ColumnValue.{93e05845-66be-48d2-8969-f8996bcbc2b6}.{b1dd8e98-f014-d3fb-4e19-3d951548dda7}#]",
                      "GS5": "396a3724-ade6-4f32-bb7f-fae351a75f98"
                    },
                    "L9": "cdcb6dc4-1abe-4a23-8cbb-4cf0c118de28"
                  },
                  {
                    "BL1": "Terrasoft.Core.Process.ProcessSchemaParameter",
                    "UId": "54f1ffaf-0da6-4901-8002-f213712ad2af",
                    "A2": "ProcessSchemaParameter5",
                    "A3": "295ad372-1b8c-47cc-b18a-36cca6d38ebf",
                    "A4": "295ad372-1b8c-47cc-b18a-36cca6d38ebf",
                    "IL2": "7a847dbc-2193-41fb-89d6-f9e25d049746",
                    "L1": "b295071f-7ea9-4e62-8d1a-919bf3732ff2",
                    "L8": {
                      "GS5": "295ad372-1b8c-47cc-b18a-36cca6d38ebf"
                    },
                    "L9": "9b899187-da47-47e6-8c68-500c5ebbc9c6"
                  }
                ],
                "CK4": "295ad372-1b8c-47cc-b18a-36cca6d38ebf",
                "CK2": [],
                "CK3": []
              }
            }
          ]
        },
        {
          "BL1": "Terrasoft.Core.DcmProcess.DcmSchemaStage",
          "UId": "f7a23471-8e4f-4486-9ecb-a682698852d4",
          "A2": "Stage2",
          "A3": "396a3724-ade6-4f32-bb7f-fae351a75f98",
          "A4": "396a3724-ade6-4f32-bb7f-fae351a75f98",
          "A5": "8027c309-f63e-4894-a830-daa104b3be05",
          "ParentStageUId": "d300b8ac-41b2-4368-a4f2-7582f0e3bb46",
          "Color": "#8ecb60",
          "StageRecordId": "ad3800f2-c9ec-4398-8e1b-f3b227b8e8c9",
          "Elements": []
        },
        {
          "BL1": "Terrasoft.Core.DcmProcess.DcmSchemaStage",
          "UId": "0620cb09-fa98-4bef-9e5b-7d4dff92d6ea",
          "A2": "Stage3",
          "A3": "396a3724-ade6-4f32-bb7f-fae351a75f98",
          "A4": "396a3724-ade6-4f32-bb7f-fae351a75f98",
          "A5": "8027c309-f63e-4894-a830-daa104b3be05",
          "Color": "#8ecb60",
          "StageRecordId": "f6e761c9-ab8b-4d03-a72e-79e76bbc055e",
          "Elements": [
            {
              "BL1": "Terrasoft.Core.DcmProcess.DcmSchemaElement",
              "UId": "fff632ec-a759-48c3-bd13-bb353289e3c4",
              "A2": "DcmElement2",
              "A3": "396a3724-ade6-4f32-bb7f-fae351a75f98",
              "A4": "396a3724-ade6-4f32-bb7f-fae351a75f98",
              "A5": "8027c309-f63e-4894-a830-daa104b3be05",
              "IL2": "0620cb09-fa98-4bef-9e5b-7d4dff92d6ea",
              "RequiredType": 0,
              "ProcessFlowElement": {
                "BL1": "Terrasoft.Core.Process.ProcessSchemaSubProcess",
                "UId": "965619cb-5b5a-4e3b-8c35-a599d62ab9ee",
                "A2": "DcmProcessElement2",
                "BL7": "49eafdbb-a89e-4bdf-a29d-7f17b1670a45",
                "BN2": "69;55",
                "BO2": true,
                "BO3": true,
                "BP2": [
                  {
                    "BL1": "Terrasoft.Core.Process.ProcessSchemaParameter",
                    "UId": "1b622155-9c67-4d58-bdf9-f1ed3f0d5323",
                    "A2": "ProcessSchemaParameter2",
                    "A3": "915dbbec-ec2c-4caa-a9ce-d0a33b7e7afe",
                    "A4": "915dbbec-ec2c-4caa-a9ce-d0a33b7e7afe",
                    "IL2": "965619cb-5b5a-4e3b-8c35-a599d62ab9ee",
                    "L1": "b295071f-7ea9-4e62-8d1a-919bf3732ff2",
                    "L8": {
                      "GS1": 3,
                      "GS2": "[#Lookup.6708137b-a37b-4f51-a809-db4c555f8cea.c4e72888-6425-4484-9345-a67e26c4a5af#]",
                      "GS5": "396a3724-ade6-4f32-bb7f-fae351a75f98"
                    },
                    "L9": "6708137b-a37b-4f51-a809-db4c555f8cea"
                  },
                  {
                    "BL1": "Terrasoft.Core.Process.ProcessSchemaParameter",
                    "UId": "cfce9248-cf58-49d7-9522-93ae7849ce5b",
                    "A2": "ProcessSchemaParameter1",
                    "A3": "915dbbec-ec2c-4caa-a9ce-d0a33b7e7afe",
                    "A4": "915dbbec-ec2c-4caa-a9ce-d0a33b7e7afe",
                    "IL2": "965619cb-5b5a-4e3b-8c35-a599d62ab9ee",
                    "L1": "23018567-a13c-4320-8687-fd6f9e3699bd",
                    "L8": {
                      "GS1": 3,
                      "GS2": "[#ColumnValue.{93e05845-66be-48d2-8969-f8996bcbc2b6}.{ae0e45ca-c495-4fe7-a39d-3ab7278e1617}#]",
                      "GS5": "396a3724-ade6-4f32-bb7f-fae351a75f98"
                    },
                    "L9": "93e05845-66be-48d2-8969-f8996bcbc2b6"
                  }
                ],
                "CK4": "915dbbec-ec2c-4caa-a9ce-d0a33b7e7afe",
                "CK2": [],
                "CK3": []
              }
            }
          ]
        },
        {
          "BL1": "Terrasoft.Core.DcmProcess.DcmSchemaStage",
          "UId": "cfcd36f2-06be-4309-ab5d-0dd5bb1c4a03",
          "A2": "Stage4",
          "A3": "396a3724-ade6-4f32-bb7f-fae351a75f98",
          "A4": "396a3724-ade6-4f32-bb7f-fae351a75f98",
          "A5": "8027c309-f63e-4894-a830-daa104b3be05",
          "Color": "#eba793",
          "StageRecordId": "e8ebbc0a-4e6d-4eeb-9945-6cc6810b7618",
          "Elements": [
            {
              "BL1": "Terrasoft.Core.DcmProcess.DcmSchemaElement",
              "UId": "9c7023c0-0780-4106-8ac9-89e0f5fd6c0f",
              "A2": "DcmElement3",
              "A3": "396a3724-ade6-4f32-bb7f-fae351a75f98",
              "A4": "396a3724-ade6-4f32-bb7f-fae351a75f98",
              "A5": "8027c309-f63e-4894-a830-daa104b3be05",
              "IL2": "cfcd36f2-06be-4309-ab5d-0dd5bb1c4a03",
              "RequiredType": 0,
              "ProcessFlowElement": {
                "BL1": "Terrasoft.Core.Process.ProcessSchemaSubProcess",
                "UId": "0e645677-2d28-4026-b170-48d27d63baf1",
                "A2": "DcmProcessElement3",
                "BL7": "49eafdbb-a89e-4bdf-a29d-7f17b1670a45",
                "BN2": "69;55",
                "BO2": true,
                "BO3": true,
                "BP2": [
                  {
                    "BL1": "Terrasoft.Core.Process.ProcessSchemaParameter",
                    "UId": "f7fe691d-6f58-45dd-988c-6cf31595636d",
                    "A2": "ProcessSchemaParameter1",
                    "A3": "915dbbec-ec2c-4caa-a9ce-d0a33b7e7afe",
                    "A4": "915dbbec-ec2c-4caa-a9ce-d0a33b7e7afe",
                    "IL2": "0e645677-2d28-4026-b170-48d27d63baf1",
                    "L1": "23018567-a13c-4320-8687-fd6f9e3699bd",
                    "L8": {
                      "GS1": 3,
                      "GS2": "[#ColumnValue.{93e05845-66be-48d2-8969-f8996bcbc2b6}.{ae0e45ca-c495-4fe7-a39d-3ab7278e1617}#]",
                      "GS5": "396a3724-ade6-4f32-bb7f-fae351a75f98"
                    },
                    "L9": "93e05845-66be-48d2-8969-f8996bcbc2b6"
                  },
                  {
                    "BL1": "Terrasoft.Core.Process.ProcessSchemaParameter",
                    "UId": "86498c67-e129-4782-a8e6-b11004bbaae0",
                    "A2": "ProcessSchemaParameter2",
                    "A3": "915dbbec-ec2c-4caa-a9ce-d0a33b7e7afe",
                    "A4": "915dbbec-ec2c-4caa-a9ce-d0a33b7e7afe",
                    "IL2": "0e645677-2d28-4026-b170-48d27d63baf1",
                    "L1": "b295071f-7ea9-4e62-8d1a-919bf3732ff2",
                    "L8": {
                      "GS1": 3,
                      "GS2": "[#Lookup.6708137b-a37b-4f51-a809-db4c555f8cea.00dbd905-1c53-41bb-a94b-8123032fa194#]",
                      "GS5": "396a3724-ade6-4f32-bb7f-fae351a75f98"
                    },
                    "L9": "6708137b-a37b-4f51-a809-db4c555f8cea"
                  }
                ],
                "CK4": "915dbbec-ec2c-4caa-a9ce-d0a33b7e7afe",
                "CK2": [],
                "CK3": []
              }
            }
          ]
        },
        {
          "BL1": "Terrasoft.Core.DcmProcess.DcmSchemaStage",
          "UId": "26c0ba10-c824-4f0c-be46-f16cdfeef215",
          "A2": "Stage5",
          "A3": "396a3724-ade6-4f32-bb7f-fae351a75f98",
          "A4": "396a3724-ade6-4f32-bb7f-fae351a75f98",
          "A5": "8027c309-f63e-4894-a830-daa104b3be05",
          "Color": "#8ecb60",
          "StageRecordId": "a2da14da-3f47-471b-b7bb-eb6224c6ed83",
          "Elements": [
            {
              "BL1": "Terrasoft.Core.DcmProcess.DcmSchemaElement",
              "UId": "008ae3c6-0030-423e-9c8f-a5944660fb1e",
              "A2": "DcmElement4",
              "A3": "396a3724-ade6-4f32-bb7f-fae351a75f98",
              "A4": "396a3724-ade6-4f32-bb7f-fae351a75f98",
              "A5": "8027c309-f63e-4894-a830-daa104b3be05",
              "IL2": "26c0ba10-c824-4f0c-be46-f16cdfeef215",
              "RequiredType": 0,
              "ProcessFlowElement": {
                "BL1": "Terrasoft.Core.Process.ProcessSchemaSubProcess",
                "UId": "beb22a4b-f836-40e2-9e1e-055b9e4d7c0b",
                "A2": "DcmProcessElement4",
                "BL7": "49eafdbb-a89e-4bdf-a29d-7f17b1670a45",
                "BN2": "69;55",
                "BO2": true,
                "BO3": true,
                "BP2": [
                  {
                    "BL1": "Terrasoft.Core.Process.ProcessSchemaParameter",
                    "UId": "f74f466e-1496-4774-ae2d-3661f63c7338",
                    "A2": "ProcessSchemaParameter1",
                    "A3": "1086395c-2594-4f80-8ce0-95e4676130aa",
                    "A4": "1086395c-2594-4f80-8ce0-95e4676130aa",
                    "IL2": "beb22a4b-f836-40e2-9e1e-055b9e4d7c0b",
                    "L1": "23018567-a13c-4320-8687-fd6f9e3699bd",
                    "L8": {
                      "GS1": 3,
                      "GS2": "[#ColumnValue.{93e05845-66be-48d2-8969-f8996bcbc2b6}.{ae0e45ca-c495-4fe7-a39d-3ab7278e1617}#]",
                      "GS5": "396a3724-ade6-4f32-bb7f-fae351a75f98"
                    },
                    "L9": "93e05845-66be-48d2-8969-f8996bcbc2b6"
                  },
                  {
                    "BL1": "Terrasoft.Core.Process.ProcessSchemaParameter",
                    "UId": "bbf4cbb8-3156-4446-a64e-4c202b8cede6",
                    "A2": "ProcessSchemaParameter2",
                    "A3": "1086395c-2594-4f80-8ce0-95e4676130aa",
                    "A4": "1086395c-2594-4f80-8ce0-95e4676130aa",
                    "IL2": "beb22a4b-f836-40e2-9e1e-055b9e4d7c0b",
                    "L1": "b295071f-7ea9-4e62-8d1a-919bf3732ff2",
                    "L8": {
                      "GS1": 3,
                      "GS2": "[#ColumnValue.{93e05845-66be-48d2-8969-f8996bcbc2b6}.{b1dd8e98-f014-d3fb-4e19-3d951548dda7}#]",
                      "GS5": "396a3724-ade6-4f32-bb7f-fae351a75f98"
                    },
                    "L9": "93e05845-66be-48d2-8969-f8996bcbc2b6"
                  }
                ],
                "CK4": "1086395c-2594-4f80-8ce0-95e4676130aa",
                "CK2": [],
                "CK3": []
              }
            }
          ]
        },
        {
          "BL1": "Terrasoft.Core.DcmProcess.DcmSchemaStage",
          "UId": "05046626-8740-4eb8-a9ec-e945ff2f6376",
          "A2": "Stage6",
          "A3": "396a3724-ade6-4f32-bb7f-fae351a75f98",
          "A4": "396a3724-ade6-4f32-bb7f-fae351a75f98",
          "A5": "8027c309-f63e-4894-a830-daa104b3be05",
          "Color": "#8ecb60",
          "StageRecordId": "7ae15298-ec58-47fd-b1e0-c538f3c4d3b3",
          "Elements": [
            {
              "BL1": "Terrasoft.Core.DcmProcess.DcmSchemaElement",
              "UId": "919c156e-1475-4804-afd7-bb7e9da9d02a",
              "A2": "DcmElement5",
              "A3": "396a3724-ade6-4f32-bb7f-fae351a75f98",
              "A4": "396a3724-ade6-4f32-bb7f-fae351a75f98",
              "A5": "8027c309-f63e-4894-a830-daa104b3be05",
              "IL2": "05046626-8740-4eb8-a9ec-e945ff2f6376",
              "RequiredType": 0,
              "ProcessFlowElement": {
                "BL1": "Terrasoft.Core.Process.ProcessSchemaSubProcess",
                "UId": "4c51090d-3f7b-4593-b4e7-c97203e470e9",
                "A2": "DcmProcessElement5",
                "BL7": "49eafdbb-a89e-4bdf-a29d-7f17b1670a45",
                "BN2": "69;55",
                "BO2": true,
                "BO3": true,
                "BP2": [
                  {
                    "BL1": "Terrasoft.Core.Process.ProcessSchemaParameter",
                    "UId": "780f6381-ad2f-444a-91af-4272fab914ba",
                    "A2": "ProcessSchemaParameter1",
                    "A3": "0b25318b-bf39-40cd-a271-c9570785b0f3",
                    "A4": "0b25318b-bf39-40cd-a271-c9570785b0f3",
                    "IL2": "4c51090d-3f7b-4593-b4e7-c97203e470e9",
                    "L1": "b295071f-7ea9-4e62-8d1a-919bf3732ff2",
                    "L8": {
                      "GS1": 3,
                      "GS2": "[#Lookup.35e7ab15-0f64-4e24-b868-6e13249cdeff.47776356-027d-4efa-8d17-b37c8ea28128#]",
                      "GS5": "396a3724-ade6-4f32-bb7f-fae351a75f98"
                    },
                    "L9": "35e7ab15-0f64-4e24-b868-6e13249cdeff"
                  },
                  {
                    "BL1": "Terrasoft.Core.Process.ProcessSchemaParameter",
                    "UId": "2f729741-b4dc-431c-974d-fe7671ba79c0",
                    "A2": "ProcessSchemaParameter2",
                    "A3": "0b25318b-bf39-40cd-a271-c9570785b0f3",
                    "A4": "0b25318b-bf39-40cd-a271-c9570785b0f3",
                    "IL2": "4c51090d-3f7b-4593-b4e7-c97203e470e9",
                    "L1": "23018567-a13c-4320-8687-fd6f9e3699bd",
                    "L8": {
                      "GS1": 3,
                      "GS2": "[#ColumnValue.{93e05845-66be-48d2-8969-f8996bcbc2b6}.{ae0e45ca-c495-4fe7-a39d-3ab7278e1617}#]",
                      "GS5": "396a3724-ade6-4f32-bb7f-fae351a75f98"
                    },
                    "L9": "93e05845-66be-48d2-8969-f8996bcbc2b6"
                  },
                  {
                    "BL1": "Terrasoft.Core.Process.ProcessSchemaParameter",
                    "UId": "7a058e25-a366-4607-a276-2aa7426e6ae6",
                    "A2": "ProcessSchemaParameter3",
                    "A3": "0b25318b-bf39-40cd-a271-c9570785b0f3",
                    "A4": "0b25318b-bf39-40cd-a271-c9570785b0f3",
                    "IL2": "4c51090d-3f7b-4593-b4e7-c97203e470e9",
                    "L1": "23018567-a13c-4320-8687-fd6f9e3699bd",
                    "L8": {
                      "GS1": 3,
                      "GS2": "[#ColumnValue.{93e05845-66be-48d2-8969-f8996bcbc2b6}.{62a9db1a-0d7e-2d89-5828-938edd3050b8}#]",
                      "GS5": "396a3724-ade6-4f32-bb7f-fae351a75f98"
                    },
                    "L9": "93e05845-66be-48d2-8969-f8996bcbc2b6"
                  }
                ],
                "CK4": "0b25318b-bf39-40cd-a271-c9570785b0f3",
                "CK2": [],
                "CK3": []
              }
            }
          ]
        },
        {
          "BL1": "Terrasoft.Core.DcmProcess.DcmSchemaStage",
          "UId": "fbc22359-0f29-4ca5-865d-7a3e2d6fdffc",
          "A2": "Stage7",
          "A3": "396a3724-ade6-4f32-bb7f-fae351a75f98",
          "A4": "396a3724-ade6-4f32-bb7f-fae351a75f98",
          "A5": "8027c309-f63e-4894-a830-daa104b3be05",
          "ParentStageUId": "05046626-8740-4eb8-a9ec-e945ff2f6376",
          "Color": "#8e8eb7",
          "StageRecordId": "f4ba14fa-43a5-45a6-837a-816008ea6b9f",
          "Elements": [
            {
              "BL1": "Terrasoft.Core.DcmProcess.DcmSchemaElement",
              "UId": "e4adea26-a989-4789-ada0-d678219ee5be",
              "A2": "DcmElement6",
              "A3": "396a3724-ade6-4f32-bb7f-fae351a75f98",
              "A4": "396a3724-ade6-4f32-bb7f-fae351a75f98",
              "A5": "8027c309-f63e-4894-a830-daa104b3be05",
              "IL2": "fbc22359-0f29-4ca5-865d-7a3e2d6fdffc",
              "RequiredType": 0,
              "ProcessFlowElement": {
                "BL1": "Terrasoft.Core.Process.ProcessSchemaSubProcess",
                "UId": "89901e6d-a1a6-450b-b9f7-eee8519f5738",
                "A2": "DcmProcessElement6",
                "BL7": "49eafdbb-a89e-4bdf-a29d-7f17b1670a45",
                "BN2": "69;55",
                "BO2": true,
                "BO3": true,
                "BP2": [
                  {
                    "BL1": "Terrasoft.Core.Process.ProcessSchemaParameter",
                    "UId": "717a3d96-f801-4a99-9872-d7bb6d878630",
                    "A2": "ProcessSchemaParameter1",
                    "A3": "0b25318b-bf39-40cd-a271-c9570785b0f3",
                    "A4": "0b25318b-bf39-40cd-a271-c9570785b0f3",
                    "IL2": "89901e6d-a1a6-450b-b9f7-eee8519f5738",
                    "L1": "b295071f-7ea9-4e62-8d1a-919bf3732ff2",
                    "L8": {
                      "GS1": 3,
                      "GS2": "[#Lookup.35e7ab15-0f64-4e24-b868-6e13249cdeff.daccfe0a-147d-42e2-803d-7fb385901e0b#]",
                      "GS5": "396a3724-ade6-4f32-bb7f-fae351a75f98"
                    },
                    "L9": "35e7ab15-0f64-4e24-b868-6e13249cdeff"
                  },
                  {
                    "BL1": "Terrasoft.Core.Process.ProcessSchemaParameter",
                    "UId": "2550d04b-59f1-4fac-a8c0-546e5480b304",
                    "A2": "ProcessSchemaParameter2",
                    "A3": "0b25318b-bf39-40cd-a271-c9570785b0f3",
                    "A4": "0b25318b-bf39-40cd-a271-c9570785b0f3",
                    "IL2": "89901e6d-a1a6-450b-b9f7-eee8519f5738",
                    "L1": "23018567-a13c-4320-8687-fd6f9e3699bd",
                    "L8": {
                      "GS1": 3,
                      "GS2": "[#ColumnValue.{93e05845-66be-48d2-8969-f8996bcbc2b6}.{ae0e45ca-c495-4fe7-a39d-3ab7278e1617}#]",
                      "GS5": "396a3724-ade6-4f32-bb7f-fae351a75f98"
                    },
                    "L9": "93e05845-66be-48d2-8969-f8996bcbc2b6"
                  },
                  {
                    "BL1": "Terrasoft.Core.Process.ProcessSchemaParameter",
                    "UId": "85a18580-c69a-4be2-b557-e99eac16fafc",
                    "A2": "ProcessSchemaParameter3",
                    "A3": "0b25318b-bf39-40cd-a271-c9570785b0f3",
                    "A4": "0b25318b-bf39-40cd-a271-c9570785b0f3",
                    "IL2": "89901e6d-a1a6-450b-b9f7-eee8519f5738",
                    "L1": "23018567-a13c-4320-8687-fd6f9e3699bd",
                    "L8": {
                      "GS1": 3,
                      "GS2": "[#ColumnValue.{93e05845-66be-48d2-8969-f8996bcbc2b6}.{62a9db1a-0d7e-2d89-5828-938edd3050b8}#]",
                      "GS5": "396a3724-ade6-4f32-bb7f-fae351a75f98"
                    },
                    "L9": "93e05845-66be-48d2-8969-f8996bcbc2b6"
                  }
                ],
                "CK4": "0b25318b-bf39-40cd-a271-c9570785b0f3",
                "CK2": [],
                "CK3": []
              }
            }
          ]
        },
        {
          "BL1": "Terrasoft.Core.DcmProcess.DcmSchemaStage",
          "UId": "ef14b867-f7c9-4f7c-9e03-550489c0afca",
          "A2": "Stage8",
          "A3": "396a3724-ade6-4f32-bb7f-fae351a75f98",
          "A4": "396a3724-ade6-4f32-bb7f-fae351a75f98",
          "A5": "8027c309-f63e-4894-a830-daa104b3be05",
          "ParentStageUId": "05046626-8740-4eb8-a9ec-e945ff2f6376",
          "Color": "#eba793",
          "StageRecordId": "235c1c4a-32b3-4b61-973c-0f96098bc5d4",
          "Elements": [
            {
              "BL1": "Terrasoft.Core.DcmProcess.DcmSchemaElement",
              "UId": "1cb692b6-3290-489f-a9bd-121055a9a24f",
              "A2": "DcmElement7",
              "A3": "396a3724-ade6-4f32-bb7f-fae351a75f98",
              "A4": "396a3724-ade6-4f32-bb7f-fae351a75f98",
              "A5": "8027c309-f63e-4894-a830-daa104b3be05",
              "IL2": "ef14b867-f7c9-4f7c-9e03-550489c0afca",
              "RequiredType": 0,
              "ProcessFlowElement": {
                "BL1": "Terrasoft.Core.Process.ProcessSchemaSubProcess",
                "UId": "4e6c7a1c-517f-4e9f-8e10-5b4e1b08549e",
                "A2": "DcmProcessElement7",
                "BL7": "49eafdbb-a89e-4bdf-a29d-7f17b1670a45",
                "BN2": "69;55",
                "BO2": true,
                "BO3": true,
                "BP2": [
                  {
                    "BL1": "Terrasoft.Core.Process.ProcessSchemaParameter",
                    "UId": "ed005188-003b-48b7-be39-bd7294217639",
                    "A2": "ProcessSchemaParameter1",
                    "A3": "0b25318b-bf39-40cd-a271-c9570785b0f3",
                    "A4": "0b25318b-bf39-40cd-a271-c9570785b0f3",
                    "IL2": "4e6c7a1c-517f-4e9f-8e10-5b4e1b08549e",
                    "L1": "b295071f-7ea9-4e62-8d1a-919bf3732ff2",
                    "L8": {
                      "GS1": 3,
                      "GS2": "[#Lookup.35e7ab15-0f64-4e24-b868-6e13249cdeff.37d42cc3-c7c7-4e4e-b0bf-73ee3e9f1e41#]",
                      "GS5": "396a3724-ade6-4f32-bb7f-fae351a75f98"
                    },
                    "L9": "35e7ab15-0f64-4e24-b868-6e13249cdeff"
                  },
                  {
                    "BL1": "Terrasoft.Core.Process.ProcessSchemaParameter",
                    "UId": "7c31828c-c921-41e4-918c-6d01571ad461",
                    "A2": "ProcessSchemaParameter2",
                    "A3": "0b25318b-bf39-40cd-a271-c9570785b0f3",
                    "A4": "0b25318b-bf39-40cd-a271-c9570785b0f3",
                    "IL2": "4e6c7a1c-517f-4e9f-8e10-5b4e1b08549e",
                    "L1": "23018567-a13c-4320-8687-fd6f9e3699bd",
                    "L8": {
                      "GS1": 3,
                      "GS2": "[#ColumnValue.{93e05845-66be-48d2-8969-f8996bcbc2b6}.{ae0e45ca-c495-4fe7-a39d-3ab7278e1617}#]",
                      "GS5": "396a3724-ade6-4f32-bb7f-fae351a75f98"
                    },
                    "L9": "93e05845-66be-48d2-8969-f8996bcbc2b6"
                  },
                  {
                    "BL1": "Terrasoft.Core.Process.ProcessSchemaParameter",
                    "UId": "6958fa10-b741-4a30-add5-c737a63c3fa5",
                    "A2": "ProcessSchemaParameter3",
                    "A3": "0b25318b-bf39-40cd-a271-c9570785b0f3",
                    "A4": "0b25318b-bf39-40cd-a271-c9570785b0f3",
                    "IL2": "4e6c7a1c-517f-4e9f-8e10-5b4e1b08549e",
                    "L1": "23018567-a13c-4320-8687-fd6f9e3699bd",
                    "L8": {
                      "GS1": 3,
                      "GS2": "[#ColumnValue.{93e05845-66be-48d2-8969-f8996bcbc2b6}.{62a9db1a-0d7e-2d89-5828-938edd3050b8}#]",
                      "GS5": "396a3724-ade6-4f32-bb7f-fae351a75f98"
                    },
                    "L9": "93e05845-66be-48d2-8969-f8996bcbc2b6"
                  }
                ],
                "CK4": "0b25318b-bf39-40cd-a271-c9570785b0f3",
                "CK2": [],
                "CK3": []
              }
            }
          ]
        },
        {
          "BL1": "Terrasoft.Core.DcmProcess.DcmSchemaStage",
          "UId": "05bf6b2f-f549-4fae-a4b5-b5df27a27348",
          "A2": "Stage9",
          "A3": "396a3724-ade6-4f32-bb7f-fae351a75f98",
          "A4": "396a3724-ade6-4f32-bb7f-fae351a75f98",
          "A5": "8027c309-f63e-4894-a830-daa104b3be05",
          "Color": "#e1deed",
          "StageRecordId": "c5c46bd2-c0b6-4791-82ee-0c722097d897",
          "Elements": [
            {
              "BL1": "Terrasoft.Core.DcmProcess.DcmSchemaElement",
              "UId": "40e55940-b27f-4bb9-8dda-029fe25cddaf",
              "A2": "DcmElement8",
              "A3": "396a3724-ade6-4f32-bb7f-fae351a75f98",
              "A4": "396a3724-ade6-4f32-bb7f-fae351a75f98",
              "A5": "8027c309-f63e-4894-a830-daa104b3be05",
              "IL2": "05bf6b2f-f549-4fae-a4b5-b5df27a27348",
              "RequiredType": 0,
              "ProcessFlowElement": {
                "BL1": "Terrasoft.Core.Process.ProcessSchemaUserTask",
                "UId": "4c1ca11a-7179-4d9b-b8ae-5eb29fc3435a",
                "A2": "DcmProcessElement8",
                "BL7": "0ebbb23c-f6db-45eb-ad13-a1445b7ef081",
                "BN2": "69;55",
                "BO3": true,
                "BP2": [
                  {
                    "BL1": "Terrasoft.Core.Process.ProcessSchemaParameter",
                    "UId": "d747b731-ea38-4826-b457-91abde07d20e",
                    "A2": "EntitySchemaUId",
                    "A3": "0ebbb23c-f6db-45eb-ad13-a1445b7ef081",
                    "A4": "0ebbb23c-f6db-45eb-ad13-a1445b7ef081",
                    "IL2": "4c1ca11a-7179-4d9b-b8ae-5eb29fc3435a",
                    "L1": "23018567-a13c-4320-8687-fd6f9e3699bd",
                    "L8": {
                      "GS1": 1,
                      "GS2": "93e05845-66be-48d2-8969-f8996bcbc2b6",
                      "GS5": "396a3724-ade6-4f32-bb7f-fae351a75f98"
                    }
                  },
                  {
                    "BL1": "Terrasoft.Core.Process.ProcessSchemaParameter",
                    "UId": "9dc650ab-c9b3-4c6a-aca7-c5d40dd6e08a",
                    "A2": "DataSourceFilters",
                    "A3": "0ebbb23c-f6db-45eb-ad13-a1445b7ef081",
                    "A4": "0ebbb23c-f6db-45eb-ad13-a1445b7ef081",
                    "IL2": "4c1ca11a-7179-4d9b-b8ae-5eb29fc3435a",
                    "L1": "394e160f-c8e0-46fa-9c0d-75d97e9e9169",
                    "L8": {
                      "GS1": 1,
                      "GS2": "{\"className\":\"Terrasoft.FilterGroup\",\"serializedFilterEditData\":\"{\\\"className\\\":\\\"Terrasoft.FilterGroup\\\",\\\"items\\\":{\\\"0232e854-3270-4be3-95e7-3f07174fb1c2\\\":{\\\"className\\\":\\\"Terrasoft.CompareFilter\\\",\\\"filterType\\\":1,\\\"comparisonType\\\":3,\\\"isEnabled\\\":true,\\\"trimDateTimeParameterToDate\\\":false,\\\"leftExpression\\\":{\\\"className\\\":\\\"Terrasoft.ColumnExpression\\\",\\\"expressionType\\\":0,\\\"columnPath\\\":\\\"Id\\\"},\\\"isAggregative\\\":false,\\\"key\\\":\\\"0232e854-3270-4be3-95e7-3f07174fb1c2\\\",\\\"dataValueType\\\":0,\\\"leftExpressionCaption\\\":\\\"Id\\\",\\\"rightExpression\\\":{\\\"className\\\":\\\"Terrasoft.ParameterExpression\\\",\\\"expressionType\\\":2,\\\"parameter\\\":{\\\"className\\\":\\\"Terrasoft.Parameter\\\",\\\"dataValueType\\\":10,\\\"value\\\":{\\\"value\\\":\\\"[#ColumnValue.{93e05845-66be-48d2-8969-f8996bcbc2b6}.{ae0e45ca-c495-4fe7-a39d-3ab7278e1617}#]\\\",\\\"displayValue\\\":\\\"[#Основная запись.Id#]\\\",\\\"source\\\":3,\\\"dataValueType\\\":10,\\\"referenceSchemaUId\\\":\\\"93e05845-66be-48d2-8969-f8996bcbc2b6\\\"}}}}},\\\"logicalOperation\\\":0,\\\"isEnabled\\\":true,\\\"filterType\\\":6,\\\"rootSchemaName\\\":\\\"CrocRequest\\\",\\\"key\\\":\\\"\\\"}\",\"dataSourceFilters\":\"{\\\"items\\\":{\\\"0232e854-3270-4be3-95e7-3f07174fb1c2\\\":{\\\"filterType\\\":1,\\\"comparisonType\\\":3,\\\"isEnabled\\\":true,\\\"trimDateTimeParameterToDate\\\":false,\\\"leftExpression\\\":{\\\"expressionType\\\":0,\\\"columnPath\\\":\\\"Id\\\"},\\\"rightExpression\\\":{\\\"expressionType\\\":2,\\\"parameter\\\":{\\\"dataValueType\\\":10,\\\"value\\\":\\\"[#ColumnValue.{93e05845-66be-48d2-8969-f8996bcbc2b6}.{ae0e45ca-c495-4fe7-a39d-3ab7278e1617}#]\\\"}}}},\\\"logicalOperation\\\":0,\\\"isEnabled\\\":true,\\\"filterType\\\":6,\\\"rootSchemaName\\\":\\\"CrocRequest\\\"}\"}",
                      "GS5": "396a3724-ade6-4f32-bb7f-fae351a75f98"
                    }
                  },
                  {
                    "BL1": "Terrasoft.Core.Process.ProcessSchemaParameter",
                    "UId": "48d5ae59-02a7-4eb1-9545-9a34fe396820",
                    "A2": "DeleteRights",
                    "A3": "0ebbb23c-f6db-45eb-ad13-a1445b7ef081",
                    "A4": "0ebbb23c-f6db-45eb-ad13-a1445b7ef081",
                    "IL2": "4c1ca11a-7179-4d9b-b8ae-5eb29fc3435a",
                    "L1": "394e160f-c8e0-46fa-9c0d-75d97e9e9169",
                    "L8": {
                      "GS1": 1,
                      "GS2": "[{Id:\"6335acb1-36ef-4f47-9632-e93dd29f5b3f\",Name:\"Для всех ролей и пользователей\",CanRead:false,CanEdit:true,CanDelete:true,Source:\"1\",Grantee:\"AllRolesAndUsers\",Value:\"\"}]",
                      "GS5": "396a3724-ade6-4f32-bb7f-fae351a75f98"
                    }
                  },
                  {
                    "BL1": "Terrasoft.Core.Process.ProcessSchemaParameter",
                    "UId": "ae9f4f35-fa13-4a1d-a68a-92dba69e6f5a",
                    "A2": "AddRights",
                    "A3": "0ebbb23c-f6db-45eb-ad13-a1445b7ef081",
                    "A4": "0ebbb23c-f6db-45eb-ad13-a1445b7ef081",
                    "IL2": "4c1ca11a-7179-4d9b-b8ae-5eb29fc3435a",
                    "L1": "394e160f-c8e0-46fa-9c0d-75d97e9e9169",
                    "L8": {
                      "GS1": 1,
                      "GS2": "[]",
                      "GS5": "396a3724-ade6-4f32-bb7f-fae351a75f98"
                    }
                  },
                  {
                    "BL1": "Terrasoft.Core.Process.ProcessSchemaParameter",
                    "UId": "34673140-b772-4423-a996-e4c919fbae69",
                    "A2": "ConsiderTimeInFilter",
                    "A3": "0ebbb23c-f6db-45eb-ad13-a1445b7ef081",
                    "A4": "0ebbb23c-f6db-45eb-ad13-a1445b7ef081",
                    "IL2": "4c1ca11a-7179-4d9b-b8ae-5eb29fc3435a",
                    "L1": "90b65bf8-0ffc-4141-8779-2420877af907",
                    "L8": {
                      "GS1": 3,
                      "GS2": "true",
                      "GS5": "0ebbb23c-f6db-45eb-ad13-a1445b7ef081",
                      "GS8": "false"
                    }
                  }
                ],
                "CL2": "FFFFFFFF",
                "J6": "0ebbb23c-f6db-45eb-ad13-a1445b7ef081"
              }
            }
          ]
        },
        {
          "BL1": "Terrasoft.Core.DcmProcess.DcmSchemaStage",
          "UId": "bbf749bc-0f03-4d83-9727-7d7518b01245",
          "A2": "Stage10",
          "A3": "396a3724-ade6-4f32-bb7f-fae351a75f98",
          "A4": "396a3724-ade6-4f32-bb7f-fae351a75f98",
          "A5": "8027c309-f63e-4894-a830-daa104b3be05",
          "Color": "#64b8df",
          "StageRecordId": "5fc4870d-442e-4405-9054-6d8bb4cce7d5",
          "Elements": [
            {
              "BL1": "Terrasoft.Core.DcmProcess.DcmSchemaElement",
              "UId": "2ebab436-338a-4e6a-884a-9d36a8bb09d6",
              "A2": "DcmElement9",
              "A3": "396a3724-ade6-4f32-bb7f-fae351a75f98",
              "A4": "396a3724-ade6-4f32-bb7f-fae351a75f98",
              "A5": "8027c309-f63e-4894-a830-daa104b3be05",
              "IL2": "bbf749bc-0f03-4d83-9727-7d7518b01245",
              "RequiredType": 0,
              "ProcessFlowElement": {
                "BL1": "Terrasoft.Core.Process.ProcessSchemaSubProcess",
                "UId": "a530d5c2-8e97-49d7-9586-8109c53d9eeb",
                "A2": "DcmProcessElement9",
                "BL7": "49eafdbb-a89e-4bdf-a29d-7f17b1670a45",
                "BN2": "69;55",
                "BO2": true,
                "BO3": true,
                "BP2": [
                  {
                    "BL1": "Terrasoft.Core.Process.ProcessSchemaParameter",
                    "UId": "b1260025-9e60-439e-b4e7-8d9a2e167248",
                    "A2": "Request",
                    "A3": "9f404fe4-d3ba-4616-9cdf-2926444044c2",
                    "A4": "9f404fe4-d3ba-4616-9cdf-2926444044c2",
                    "IL2": "a530d5c2-8e97-49d7-9586-8109c53d9eeb",
                    "L1": "23018567-a13c-4320-8687-fd6f9e3699bd",
                    "L8": {
                      "GS1": 3,
                      "GS2": "[#ColumnValue.{93e05845-66be-48d2-8969-f8996bcbc2b6}.{ae0e45ca-c495-4fe7-a39d-3ab7278e1617}#]",
                      "GS5": "396a3724-ade6-4f32-bb7f-fae351a75f98"
                    },
                    "L9": "93e05845-66be-48d2-8969-f8996bcbc2b6"
                  }
                ],
                "CK4": "9f404fe4-d3ba-4616-9cdf-2926444044c2",
                "CK2": [],
                "CK3": []
              }
            }
          ]
        }
      ],
      "Transitions": [],
      "StageConnections": {
        "Connections": [
          {
            "Source": "05046626-8740-4eb8-a9ec-e945ff2f6376",
            "Target": "26c0ba10-c824-4f0c-be46-f16cdfeef215"
          },
          {
            "Source": "fbc22359-0f29-4ca5-865d-7a3e2d6fdffc",
            "Target": "05046626-8740-4eb8-a9ec-e945ff2f6376"
          },
          {
            "Source": "26c0ba10-c824-4f0c-be46-f16cdfeef215",
            "Target": "fbc22359-0f29-4ca5-865d-7a3e2d6fdffc"
          },
          {
            "Source": "05046626-8740-4eb8-a9ec-e945ff2f6376",
            "Target": "fbc22359-0f29-4ca5-865d-7a3e2d6fdffc"
          },
          {
            "Source": "ef14b867-f7c9-4f7c-9e03-550489c0afca",
            "Target": "05046626-8740-4eb8-a9ec-e945ff2f6376"
          },
          {
            "Source": "ef14b867-f7c9-4f7c-9e03-550489c0afca",
            "Target": "fbc22359-0f29-4ca5-865d-7a3e2d6fdffc"
          },
          {
            "Source": "26c0ba10-c824-4f0c-be46-f16cdfeef215",
            "Target": "ef14b867-f7c9-4f7c-9e03-550489c0afca"
          },
          {
            "Source": "05046626-8740-4eb8-a9ec-e945ff2f6376",
            "Target": "ef14b867-f7c9-4f7c-9e03-550489c0afca"
          }
        ]
      },
      "StageColumnUId": "a4a4bdcd-191e-dcb9-8dc7-3f3f8dd6b118",
      "Filters": "{\"className\":\"Terrasoft.FilterGroup\",\"items\":{\"b1dd8e98-f014-d3fb-4e19-3d951548dda7\":{\"className\":\"Terrasoft.InFilter\",\"filterType\":4,\"comparisonType\":3,\"isEnabled\":true,\"trimDateTimeParameterToDate\":false,\"leftExpression\":{\"className\":\"Terrasoft.ColumnExpression\",\"expressionType\":0,\"columnPath\":\"CrocApplicationType\"},\"isAggregative\":false,\"key\":\"b1dd8e98-f014-d3fb-4e19-3d951548dda7\",\"dataValueType\":10,\"leftExpressionCaption\":\"Тип заявки\",\"referenceSchemaName\":\"CrocApplicationType\",\"rightExpressions\":[{\"className\":\"Terrasoft.ParameterExpression\",\"expressionType\":2,\"parameter\":{\"className\":\"Terrasoft.Parameter\",\"dataValueType\":10,\"value\":{\"Name\":\"Перевозка\",\"Id\":\"4e903341-13c6-47a9-b511-073be951bb54\",\"value\":\"4e903341-13c6-47a9-b511-073be951bb54\",\"displayValue\":\"Перевозка\"}}}]}},\"logicalOperation\":0,\"isEnabled\":true,\"filterType\":6,\"rootSchemaName\":\"CrocRequest\",\"key\":\"\"}",
      "SystemElements": [
        {
          "BL1": "Terrasoft.Core.DcmProcess.DcmSchemaChangeStageUserTask",
          "UId": "c96b6f85-27f1-4597-8bb8-82fae7005f57",
          "A2": "DcmChangeStageUserTask_4fc8d5ba3f4f4a2fb769977005c8de7a_ad3800f2c9ec43988e1bf3b227b8e8c9",
          "A3": "396a3724-ade6-4f32-bb7f-fae351a75f98",
          "A4": "396a3724-ade6-4f32-bb7f-fae351a75f98",
          "BL7": "1418e61a-82c3-403e-8221-01088f52c125",
          "BP4": "93e05845-66be-48d2-8969-f8996bcbc2b6",
          "BP2": [
            {
              "BL1": "Terrasoft.Core.Process.ProcessSchemaParameter",
              "UId": "6b1b4b49-1c52-4d89-9e1e-3d7b661ad9e0",
              "A2": "RecordId",
              "A3": "c96b6f85-27f1-4597-8bb8-82fae7005f57",
              "A4": "396a3724-ade6-4f32-bb7f-fae351a75f98",
              "IL2": "c96b6f85-27f1-4597-8bb8-82fae7005f57",
              "L1": "23018567-a13c-4320-8687-fd6f9e3699bd",
              "L8": {}
            }
          ],
          "CL2": "FFFFFFFF",
          "StageColumnUId": "a4a4bdcd-191e-dcb9-8dc7-3f3f8dd6b118",
          "NextStageId": "ad3800f2-c9ec-4398-8e1b-f3b227b8e8c9"
        }
      ]
    }
  }
}