﻿{
  "Descriptor": {
    "UId": "a59d0bdf-8f36-4ce6-a107-312d793ba8c6",
    "Name": "CrocProcessAccreditationRepeat",
    "ModifiedOnUtc": "\/Date(1664818427000)\/",
    "ManagerName": "ProcessSchemaManager",
    "Caption": "Типовое сообщение. Повторная аккредитация"
  }
}