﻿{
  "PackageData": [
    {
      "Row": [
        {
          "SchemaColumnUId": "ae0e45ca-c495-4fe7-a39d-3ab7278e1617",
          "Value": "a827bf57-a1f9-462c-963b-03c7002d45f1"
        },
        {
          "SchemaColumnUId": "69bc6d48-611d-4ef1-b674-897226002622",
          "Value": "10b1affa-93c9-430c-bbab-27552f307d41"
        }
      ]
    }
  ]
}