﻿{
  "Descriptor": {
    "UId": "c5a07767-40e3-492f-a373-4fa739b9c4ff",
    "Name": "CrocNotificationFeedTag",
    "ModifiedOnUtc": "\/Date(1657810316000)\/",
    "Parent": {
      "UId": "9e3f203c-e905-4de5-9468-335b193f2439",
      "Name": "BaseTag"
    },
    "ManagerName": "EntitySchemaManager",
    "Caption": "Тег раздела Лента уведомлений"
  }
}