﻿{
  "Descriptor": {
    "UId": "33c82e76-a35b-4e97-ae62-07200fe630b0",
    "Name": "CrocPortQuota",
    "ModifiedOnUtc": "\/Date(1670506771000)\/",
    "Parent": {
      "UId": "1bab9dcf-17d5-49f8-9536-8e0064f1dce0",
      "Name": "BaseEntity"
    },
    "ManagerName": "EntitySchemaManager",
    "Caption": "Квота порта"
  }
}