﻿{
  "Descriptor": {
    "UId": "2811b934-e6d6-7b0d-848f-fd60670d7f88",
    "Name": "CrocRefundReason",
    "ModifiedOnUtc": "\/Date(1665152288000)\/",
    "InstallType": 0,
    "Schema": {
      "UId": "5baedea2-c9e0-46dc-bcea-bf9a0b26bc24",
      "Name": "CrocRefundReason"
    },
    "Columns": [
      {
        "ColumnUId": "ae0e45ca-c495-4fe7-a39d-3ab7278e1617",
        "IsForceUpdate": false,
        "IsKey": true,
        "ColumnName": "Id",
        "DataTypeValueUId": "23018567-a13c-4320-8687-fd6f9e3699bd"
      },
      {
        "ColumnUId": "736c30a7-c0ec-4fa9-b034-2552b319b633",
        "IsForceUpdate": true,
        "IsKey": false,
        "ColumnName": "Name",
        "DataTypeValueUId": "ddb3a1ee-07e8-4d62-b7a9-d0e618b00fbd"
      },
      {
        "ColumnUId": "9e53fd7c-dde4-4502-a64c-b9e34148108b",
        "IsForceUpdate": true,
        "IsKey": false,
        "ColumnName": "Description",
        "DataTypeValueUId": "ddb3a1ee-07e8-4d62-b7a9-d0e618b00fbd"
      },
      {
        "ColumnUId": "c8b64d27-1ec9-f493-3db4-0193a56bc356",
        "IsForceUpdate": true,
        "IsKey": false,
        "ColumnName": "CrocId",
        "DataTypeValueUId": "23018567-a13c-4320-8687-fd6f9e3699bd"
      }
    ]
  }
}