﻿{
  "Descriptor": {
    "UId": "504c8296-3996-49cf-91f0-7a27612d8390",
    "Name": "CrocProcessAccountNotifyEmployeesAdd",
    "ModifiedOnUtc": "\/Date(1663596775000)\/",
    "ManagerName": "ProcessSchemaManager",
    "Caption": "Контрагент. Заполнение детали Сотрудники для уведомлений"
  }
}