﻿{
  "Descriptor": {
    "UId": "ec43e3cd-8d83-4d69-9f0f-f73310109f53",
    "Name": "CrocRegisterUnloading",
    "ModifiedOnUtc": "\/Date(1672019373000)\/",
    "Parent": {
      "UId": "1bab9dcf-17d5-49f8-9536-8e0064f1dce0",
      "Name": "BaseEntity"
    },
    "ManagerName": "EntitySchemaManager",
    "Caption": "Реестр выгрузок"
  }
}