﻿{
  "Descriptor": {
    "UId": "1df9ea5d-a093-662c-a556-4188b4c5e79d",
    "Name": "SysAdminOperation_CrocCanCancelAccreditation",
    "ModifiedOnUtc": "\/Date(1669627140000)\/",
    "InstallType": 0,
    "Schema": {
      "UId": "c8fd2fd0-1f44-48c7-84e4-045250b9a638",
      "Name": "SysAdminOperation"
    },
    "Columns": [
      {
        "ColumnUId": "ae0e45ca-c495-4fe7-a39d-3ab7278e1617",
        "IsForceUpdate": false,
        "IsKey": true,
        "ColumnName": "Id",
        "DataTypeValueUId": "23018567-a13c-4320-8687-fd6f9e3699bd"
      },
      {
        "ColumnUId": "736c30a7-c0ec-4fa9-b034-2552b319b633",
        "IsForceUpdate": false,
        "IsKey": false,
        "ColumnName": "Name",
        "DataTypeValueUId": "ddb3a1ee-07e8-4d62-b7a9-d0e618b00fbd"
      },
      {
        "ColumnUId": "9e53fd7c-dde4-4502-a64c-b9e34148108b",
        "IsForceUpdate": false,
        "IsKey": false,
        "ColumnName": "Description",
        "DataTypeValueUId": "ddb3a1ee-07e8-4d62-b7a9-d0e618b00fbd"
      },
      {
        "ColumnUId": "2aec9cef-232e-413a-9a5a-9ddde2e8a2af",
        "IsForceUpdate": false,
        "IsKey": false,
        "ColumnName": "Code",
        "DataTypeValueUId": "ddb3a1ee-07e8-4d62-b7a9-d0e618b00fbd"
      },
      {
        "ColumnUId": "a2987d84-12ca-4f95-a27f-54d1cfc2517d",
        "IsForceUpdate": false,
        "IsKey": false,
        "ColumnName": "SysFolder",
        "DataTypeValueUId": "b295071f-7ea9-4e62-8d1a-919bf3732ff2"
      },
      {
        "ColumnUId": "ea5c0817-d558-42ef-a5f9-9379560f16f1",
        "IsForceUpdate": false,
        "IsKey": false,
        "ColumnName": "UseSystemOperationRestrictions",
        "DataTypeValueUId": "90b65bf8-0ffc-4141-8779-2420877af907"
      }
    ]
  }
}