{
  "MetaData": {
    "Schema": {
      "ManagerName": "ProcessSchemaManager",
      "UId": "e5cf224f-a76e-48d1-9c25-1fa3ddd298d3",
      "A2": "CrocProcessStartEmailsSending",
      "A5": "431985f0-e56c-4837-9faa-2e863676b981",
      "B1": [],
      "B2": [],
      "B3": [],
      "B6": "8027c309-f63e-4894-a830-daa104b3be05",
      "B8": "7.18.5.1500",
      "FJ1": [],
      "IJ1": true,
      "BK8": "bb4d6607-026b-4b27-b640-8f5c77c1e89d",
      "IJ10": true,
      "BK15": [
        {
          "BL1": "Terrasoft.Core.Process.ProcessSchemaMapping",
          "UId": "27ed79ab-1604-4a87-ac98-ac7e5e1d0915",
          "A2": "ReadDataUserTask1",
          "A3": "e5cf224f-a76e-48d1-9c25-1fa3ddd298d3",
          "A4": "e5cf224f-a76e-48d1-9c25-1fa3ddd298d3",
          "GT2": "[Element:{2a3d79f4-fee0-46fe-b175-89f7e2cd4987}].[Parameter:{2fae5387-1481-4b77-b626-90797c2db84c}]",
          "GT3": "2fae5387-1481-4b77-b626-90797c2db84c",
          "GT5": "5d9ac9a7-7782-49ce-8990-dcb1c73832b0",
          "GT4": "cb455b6f-78ff-4b1e-b241-c2bbc0b37e9f",
          "GT1": {
            "GS1": 1,
            "GS2": "{\"className\":\"Terrasoft.FilterGroup\",\"serializedFilterEditData\":\"{\\\"className\\\":\\\"Terrasoft.FilterGroup\\\",\\\"items\\\":{\\\"1fe93b6c-777a-4971-8d0a-58bcf112d7be\\\":{\\\"className\\\":\\\"Terrasoft.CompareFilter\\\",\\\"filterType\\\":1,\\\"comparisonType\\\":3,\\\"isEnabled\\\":true,\\\"trimDateTimeParameterToDate\\\":false,\\\"leftExpression\\\":{\\\"className\\\":\\\"Terrasoft.ColumnExpression\\\",\\\"expressionType\\\":0,\\\"columnPath\\\":\\\"CrocUseQueue\\\"},\\\"isAggregative\\\":false,\\\"key\\\":\\\"1fe93b6c-777a-4971-8d0a-58bcf112d7be\\\",\\\"dataValueType\\\":12,\\\"leftExpressionCaption\\\":\\\"Использовать очередь\\\",\\\"rightExpression\\\":{\\\"className\\\":\\\"Terrasoft.ParameterExpression\\\",\\\"expressionType\\\":2,\\\"parameter\\\":{\\\"className\\\":\\\"Terrasoft.Parameter\\\",\\\"dataValueType\\\":12,\\\"value\\\":true}}},\\\"a3dde808-1288-443f-a21c-a0f507399bfe\\\":{\\\"className\\\":\\\"Terrasoft.ExistsFilter\\\",\\\"filterType\\\":5,\\\"comparisonType\\\":15,\\\"isEnabled\\\":true,\\\"trimDateTimeParameterToDate\\\":false,\\\"leftExpression\\\":{\\\"className\\\":\\\"Terrasoft.ColumnExpression\\\",\\\"expressionType\\\":0,\\\"columnPath\\\":\\\"[CrocEmailQueue:CrocMailboxSyncSettings].Id\\\"},\\\"isAggregative\\\":true,\\\"key\\\":\\\"a3dde808-1288-443f-a21c-a0f507399bfe\\\",\\\"dataValueType\\\":0,\\\"leftExpressionCaption\\\":\\\"Очередь email (по колонке Настройки синхронизации с почтовым ящиком)\\\",\\\"subFilters\\\":{\\\"className\\\":\\\"Terrasoft.FilterGroup\\\",\\\"items\\\":{\\\"735df3a8-f75b-43b4-b6c1-9274356f54dd\\\":{\\\"className\\\":\\\"Terrasoft.InFilter\\\",\\\"filterType\\\":4,\\\"comparisonType\\\":3,\\\"isEnabled\\\":true,\\\"trimDateTimeParameterToDate\\\":false,\\\"leftExpression\\\":{\\\"className\\\":\\\"Terrasoft.ColumnExpression\\\",\\\"expressionType\\\":0,\\\"columnPath\\\":\\\"CrocStatus\\\"},\\\"isAggregative\\\":false,\\\"key\\\":\\\"735df3a8-f75b-43b4-b6c1-9274356f54dd\\\",\\\"dataValueType\\\":10,\\\"leftExpressionCaption\\\":\\\"Статус\\\",\\\"referenceSchemaName\\\":\\\"CrocEmailQueueStatus\\\",\\\"rightExpressions\\\":[{\\\"className\\\":\\\"Terrasoft.ParameterExpression\\\",\\\"expressionType\\\":2,\\\"parameter\\\":{\\\"className\\\":\\\"Terrasoft.Parameter\\\",\\\"dataValueType\\\":10,\\\"value\\\":{\\\"Name\\\":\\\"Новая\\\",\\\"Id\\\":\\\"baaecb16-4d26-4ed3-a3fc-627b539b71e5\\\",\\\"value\\\":\\\"baaecb16-4d26-4ed3-a3fc-627b539b71e5\\\",\\\"displayValue\\\":\\\"Новая\\\"}}}]},\\\"ae8bfb71-bdd3-46bb-84ee-597e4f6ab61a\\\":{\\\"className\\\":\\\"Terrasoft.FilterGroup\\\",\\\"items\\\":{\\\"cf1fd056-82a5-4193-b148-febf1ad7ae89\\\":{\\\"className\\\":\\\"Terrasoft.InFilter\\\",\\\"filterType\\\":4,\\\"comparisonType\\\":3,\\\"isEnabled\\\":true,\\\"trimDateTimeParameterToDate\\\":false,\\\"leftExpression\\\":{\\\"className\\\":\\\"Terrasoft.ColumnExpression\\\",\\\"expressionType\\\":0,\\\"columnPath\\\":\\\"CrocStatus\\\"},\\\"isAggregative\\\":false,\\\"key\\\":\\\"cf1fd056-82a5-4193-b148-febf1ad7ae89\\\",\\\"dataValueType\\\":10,\\\"leftExpressionCaption\\\":\\\"Статус\\\",\\\"referenceSchemaName\\\":\\\"CrocEmailQueueStatus\\\",\\\"rightExpressions\\\":[{\\\"className\\\":\\\"Terrasoft.ParameterExpression\\\",\\\"expressionType\\\":2,\\\"parameter\\\":{\\\"className\\\":\\\"Terrasoft.Parameter\\\",\\\"dataValueType\\\":10,\\\"value\\\":{\\\"Name\\\":\\\"Ошибка\\\",\\\"Id\\\":\\\"d151d99d-ac96-4f00-960f-974288b7fc37\\\",\\\"value\\\":\\\"d151d99d-ac96-4f00-960f-974288b7fc37\\\",\\\"displayValue\\\":\\\"Ошибка\\\"}}}]},\\\"59145f86-54f3-48ee-96f9-4e1fd4771920\\\":{\\\"className\\\":\\\"Terrasoft.CompareFilter\\\",\\\"filterType\\\":1,\\\"comparisonType\\\":5,\\\"isEnabled\\\":true,\\\"trimDateTimeParameterToDate\\\":false,\\\"leftExpression\\\":{\\\"className\\\":\\\"Terrasoft.ColumnExpression\\\",\\\"expressionType\\\":0,\\\"columnPath\\\":\\\"CrocIterationsNumber\\\"},\\\"isAggregative\\\":false,\\\"key\\\":\\\"59145f86-54f3-48ee-96f9-4e1fd4771920\\\",\\\"dataValueType\\\":4,\\\"leftExpressionCaption\\\":\\\"Количество повторов\\\",\\\"rightExpression\\\":{\\\"className\\\":\\\"Terrasoft.ParameterExpression\\\",\\\"expressionType\\\":2,\\\"parameter\\\":{\\\"className\\\":\\\"Terrasoft.Parameter\\\",\\\"dataValueType\\\":4,\\\"value\\\":3}}}},\\\"logicalOperation\\\":0,\\\"isEnabled\\\":true,\\\"filterType\\\":6,\\\"rootSchemaName\\\":\\\"CrocEmailQueue\\\",\\\"key\\\":\\\"ae8bfb71-bdd3-46bb-84ee-597e4f6ab61a\\\"}},\\\"logicalOperation\\\":1,\\\"isEnabled\\\":true,\\\"filterType\\\":6,\\\"rootSchemaName\\\":\\\"CrocEmailQueue\\\",\\\"key\\\":\\\"91d6bba2-6595-4212-b376-184958dad4a7\\\"}}},\\\"logicalOperation\\\":0,\\\"isEnabled\\\":true,\\\"filterType\\\":6,\\\"rootSchemaName\\\":\\\"MailboxSyncSettings\\\",\\\"key\\\":\\\"\\\"}\",\"dataSourceFilters\":\"{\\\"items\\\":{\\\"1fe93b6c-777a-4971-8d0a-58bcf112d7be\\\":{\\\"filterType\\\":1,\\\"comparisonType\\\":3,\\\"isEnabled\\\":true,\\\"trimDateTimeParameterToDate\\\":false,\\\"leftExpression\\\":{\\\"expressionType\\\":0,\\\"columnPath\\\":\\\"CrocUseQueue\\\"},\\\"rightExpression\\\":{\\\"expressionType\\\":2,\\\"parameter\\\":{\\\"dataValueType\\\":12,\\\"value\\\":true}}},\\\"a3dde808-1288-443f-a21c-a0f507399bfe\\\":{\\\"filterType\\\":5,\\\"comparisonType\\\":15,\\\"isEnabled\\\":true,\\\"trimDateTimeParameterToDate\\\":false,\\\"leftExpression\\\":{\\\"expressionType\\\":0,\\\"columnPath\\\":\\\"[CrocEmailQueue:CrocMailboxSyncSettings].Id\\\"},\\\"subFilters\\\":{\\\"items\\\":{\\\"735df3a8-f75b-43b4-b6c1-9274356f54dd\\\":{\\\"filterType\\\":4,\\\"comparisonType\\\":3,\\\"isEnabled\\\":true,\\\"trimDateTimeParameterToDate\\\":false,\\\"leftExpression\\\":{\\\"expressionType\\\":0,\\\"columnPath\\\":\\\"CrocStatus\\\"},\\\"rightExpressions\\\":[{\\\"expressionType\\\":2,\\\"parameter\\\":{\\\"dataValueType\\\":10,\\\"value\\\":\\\"baaecb16-4d26-4ed3-a3fc-627b539b71e5\\\"}}]},\\\"ae8bfb71-bdd3-46bb-84ee-597e4f6ab61a\\\":{\\\"items\\\":{\\\"cf1fd056-82a5-4193-b148-febf1ad7ae89\\\":{\\\"filterType\\\":4,\\\"comparisonType\\\":3,\\\"isEnabled\\\":true,\\\"trimDateTimeParameterToDate\\\":false,\\\"leftExpression\\\":{\\\"expressionType\\\":0,\\\"columnPath\\\":\\\"CrocStatus\\\"},\\\"rightExpressions\\\":[{\\\"expressionType\\\":2,\\\"parameter\\\":{\\\"dataValueType\\\":10,\\\"value\\\":\\\"d151d99d-ac96-4f00-960f-974288b7fc37\\\"}}]},\\\"59145f86-54f3-48ee-96f9-4e1fd4771920\\\":{\\\"filterType\\\":1,\\\"comparisonType\\\":5,\\\"isEnabled\\\":true,\\\"trimDateTimeParameterToDate\\\":false,\\\"leftExpression\\\":{\\\"expressionType\\\":0,\\\"columnPath\\\":\\\"CrocIterationsNumber\\\"},\\\"rightExpression\\\":{\\\"expressionType\\\":2,\\\"parameter\\\":{\\\"dataValueType\\\":4,\\\"value\\\":3}}}},\\\"logicalOperation\\\":0,\\\"isEnabled\\\":true,\\\"filterType\\\":6,\\\"rootSchemaName\\\":\\\"CrocEmailQueue\\\"}},\\\"logicalOperation\\\":1,\\\"isEnabled\\\":true,\\\"filterType\\\":6,\\\"rootSchemaName\\\":\\\"CrocEmailQueue\\\"}}},\\\"logicalOperation\\\":0,\\\"isEnabled\\\":true,\\\"filterType\\\":6,\\\"rootSchemaName\\\":\\\"MailboxSyncSettings\\\"}\"}",
            "GS5": "e5cf224f-a76e-48d1-9c25-1fa3ddd298d3"
          }
        },
        {
          "BL1": "Terrasoft.Core.Process.ProcessSchemaMapping",
          "UId": "6862dc10-26d2-45ee-883e-a287c2fca2d3",
          "A2": "ReadDataUserTask1",
          "A3": "e5cf224f-a76e-48d1-9c25-1fa3ddd298d3",
          "A4": "e5cf224f-a76e-48d1-9c25-1fa3ddd298d3",
          "GT2": "[Element:{2a3d79f4-fee0-46fe-b175-89f7e2cd4987}].[Parameter:{075a610a-cefb-4fd9-9ddd-85164a353d94}]",
          "GT3": "075a610a-cefb-4fd9-9ddd-85164a353d94",
          "GT5": "643e4d6d-7ec8-49f0-842a-066a996fbe8b",
          "GT4": "cb455b6f-78ff-4b1e-b241-c2bbc0b37e9f",
          "GT1": {
            "GS1": 1,
            "GS2": "2",
            "GS5": "cb455b6f-78ff-4b1e-b241-c2bbc0b37e9f"
          }
        },
        {
          "BL1": "Terrasoft.Core.Process.ProcessSchemaMapping",
          "UId": "ad3e3926-48e1-4602-929b-c3d4fdcfce37",
          "A2": "ReadDataUserTask1",
          "A3": "e5cf224f-a76e-48d1-9c25-1fa3ddd298d3",
          "A4": "e5cf224f-a76e-48d1-9c25-1fa3ddd298d3",
          "GT2": "[Element:{2a3d79f4-fee0-46fe-b175-89f7e2cd4987}].[Parameter:{e9a6e2b3-f1c4-4b2c-9c1c-7b1acb24ddde}]",
          "GT3": "e9a6e2b3-f1c4-4b2c-9c1c-7b1acb24ddde",
          "GT5": "29115add-7520-4ad4-8371-d91f537ac913",
          "GT4": "cb455b6f-78ff-4b1e-b241-c2bbc0b37e9f",
          "GT1": {
            "GS1": 1,
            "GS2": "true"
          }
        },
        {
          "BL1": "Terrasoft.Core.Process.ProcessSchemaMapping",
          "UId": "69622883-1cfb-4e8b-a7e1-5dac7538c44b",
          "A2": "ReadDataUserTask1",
          "A3": "e5cf224f-a76e-48d1-9c25-1fa3ddd298d3",
          "A4": "e5cf224f-a76e-48d1-9c25-1fa3ddd298d3",
          "GT2": "[Element:{2a3d79f4-fee0-46fe-b175-89f7e2cd4987}].[Parameter:{c8151b61-d27b-47eb-92cf-6ae9124a7580}]",
          "GT3": "c8151b61-d27b-47eb-92cf-6ae9124a7580",
          "GT5": "f29e5660-c5ef-4d84-8331-9046c3093519",
          "GT4": "cb455b6f-78ff-4b1e-b241-c2bbc0b37e9f",
          "GT1": {
            "GS1": 1,
            "GS2": "50"
          }
        },
        {
          "BL1": "Terrasoft.Core.Process.ProcessSchemaMapping",
          "UId": "62a8b8b8-338b-458c-90eb-62335ca2f144",
          "A2": "ReadDataUserTask1",
          "A3": "e5cf224f-a76e-48d1-9c25-1fa3ddd298d3",
          "A4": "e5cf224f-a76e-48d1-9c25-1fa3ddd298d3",
          "GT2": "[Element:{2a3d79f4-fee0-46fe-b175-89f7e2cd4987}].[Parameter:{66b1cc76-8884-4d9a-aadc-9f6fc2d792a1}]",
          "GT3": "66b1cc76-8884-4d9a-aadc-9f6fc2d792a1",
          "GT5": "94ba9876-18c1-4a68-bcef-08f7e7f0e25c",
          "GT4": "cb455b6f-78ff-4b1e-b241-c2bbc0b37e9f",
          "GT1": {
            "GS1": 1,
            "GS2": "0"
          }
        },
        {
          "BL1": "Terrasoft.Core.Process.ProcessSchemaMapping",
          "UId": "da0d35a8-24d4-4586-a552-23dc2dbac46d",
          "A2": "ReadDataUserTask1",
          "A3": "e5cf224f-a76e-48d1-9c25-1fa3ddd298d3",
          "A4": "e5cf224f-a76e-48d1-9c25-1fa3ddd298d3",
          "GT2": "[Element:{2a3d79f4-fee0-46fe-b175-89f7e2cd4987}].[Parameter:{c79d4bd9-51e3-495a-b8d2-48c563d61907}]",
          "GT3": "c79d4bd9-51e3-495a-b8d2-48c563d61907",
          "GT5": "cb5d6d26-7e81-4cbe-8730-8b7169000d14",
          "GT4": "cb455b6f-78ff-4b1e-b241-c2bbc0b37e9f",
          "GT1": {}
        },
        {
          "BL1": "Terrasoft.Core.Process.ProcessSchemaMapping",
          "UId": "ee9b8b5f-6d5e-4605-8dd8-7aff3b8f4599",
          "A2": "ReadDataUserTask1",
          "A3": "e5cf224f-a76e-48d1-9c25-1fa3ddd298d3",
          "A4": "e5cf224f-a76e-48d1-9c25-1fa3ddd298d3",
          "GT2": "[Element:{2a3d79f4-fee0-46fe-b175-89f7e2cd4987}].[Parameter:{55d96daa-1bc9-43bd-a845-268ca62afb52}]",
          "GT3": "55d96daa-1bc9-43bd-a845-268ca62afb52",
          "GT5": "473e79e2-727e-40a7-8829-7eefc576b403",
          "GT4": "cb455b6f-78ff-4b1e-b241-c2bbc0b37e9f",
          "GT1": {}
        },
        {
          "BL1": "Terrasoft.Core.Process.ProcessSchemaMapping",
          "UId": "f44ce8a0-72db-42bf-86f1-01c0a5f3ae19",
          "A2": "ReadDataUserTask1",
          "A3": "e5cf224f-a76e-48d1-9c25-1fa3ddd298d3",
          "A4": "e5cf224f-a76e-48d1-9c25-1fa3ddd298d3",
          "GT2": "[Element:{2a3d79f4-fee0-46fe-b175-89f7e2cd4987}].[Parameter:{4cdd6ab0-241b-4423-aea6-d399c73ea3d7}]",
          "GT3": "4cdd6ab0-241b-4423-aea6-d399c73ea3d7",
          "GT5": "e2fced10-4842-423e-ada0-523bf7ea8ad3",
          "GT4": "cb455b6f-78ff-4b1e-b241-c2bbc0b37e9f",
          "GT1": {
            "GS1": 1
          }
        },
        {
          "BL1": "Terrasoft.Core.Process.ProcessSchemaMapping",
          "UId": "91a1c479-a8c3-41f1-9491-90553d46c24e",
          "A2": "ReadDataUserTask1",
          "A3": "e5cf224f-a76e-48d1-9c25-1fa3ddd298d3",
          "A4": "e5cf224f-a76e-48d1-9c25-1fa3ddd298d3",
          "GT2": "[Element:{2a3d79f4-fee0-46fe-b175-89f7e2cd4987}].[Parameter:{43b41c63-b453-4596-8fbe-863ef47245cb}]",
          "GT3": "43b41c63-b453-4596-8fbe-863ef47245cb",
          "GT5": "2e63ea99-8125-4254-88bd-20d3610bd471",
          "GT4": "cb455b6f-78ff-4b1e-b241-c2bbc0b37e9f",
          "GT1": {}
        },
        {
          "BL1": "Terrasoft.Core.Process.ProcessSchemaMapping",
          "UId": "0eaf6aed-3bb2-4963-9ac7-0c8974f3efe9",
          "A2": "ReadDataUserTask1",
          "A3": "e5cf224f-a76e-48d1-9c25-1fa3ddd298d3",
          "A4": "e5cf224f-a76e-48d1-9c25-1fa3ddd298d3",
          "GT2": "[Element:{2a3d79f4-fee0-46fe-b175-89f7e2cd4987}].[Parameter:{b0914ff1-0fe2-4d46-b10b-746a3c6606cd}]",
          "GT3": "b0914ff1-0fe2-4d46-b10b-746a3c6606cd",
          "GT5": "a3660fce-a8f9-4a68-a3c1-b4f2f7983635",
          "GT4": "cb455b6f-78ff-4b1e-b241-c2bbc0b37e9f",
          "GT1": {}
        },
        {
          "BL1": "Terrasoft.Core.Process.ProcessSchemaMapping",
          "UId": "517a62ce-3c0c-4b47-bd97-84e6b2c1a82c",
          "A2": "ReadDataUserTask1",
          "A3": "e5cf224f-a76e-48d1-9c25-1fa3ddd298d3",
          "A4": "e5cf224f-a76e-48d1-9c25-1fa3ddd298d3",
          "GT2": "[Element:{2a3d79f4-fee0-46fe-b175-89f7e2cd4987}].[Parameter:{f52737d9-8fe3-4d16-a8f2-3b642291dc8d}]",
          "GT3": "f52737d9-8fe3-4d16-a8f2-3b642291dc8d",
          "GT5": "9a594933-75da-4304-b6a3-5945dba159e3",
          "GT4": "cb455b6f-78ff-4b1e-b241-c2bbc0b37e9f",
          "GT1": {}
        },
        {
          "BL1": "Terrasoft.Core.Process.ProcessSchemaMapping",
          "UId": "6db07d69-64b6-4850-90f7-5ac283f221c6",
          "A2": "ReadDataUserTask1",
          "A3": "e5cf224f-a76e-48d1-9c25-1fa3ddd298d3",
          "A4": "e5cf224f-a76e-48d1-9c25-1fa3ddd298d3",
          "GT2": "[Element:{2a3d79f4-fee0-46fe-b175-89f7e2cd4987}].[Parameter:{4da31de4-6237-41aa-8a9b-ed7d52d11a5b}]",
          "GT3": "4da31de4-6237-41aa-8a9b-ed7d52d11a5b",
          "GT5": "11fb235f-c06a-4111-84cd-a5dbf9a440d5",
          "GT4": "cb455b6f-78ff-4b1e-b241-c2bbc0b37e9f",
          "GT1": {}
        },
        {
          "BL1": "Terrasoft.Core.Process.ProcessSchemaMapping",
          "UId": "16b8048c-7276-4359-aa14-938fc365621c",
          "A2": "ReadDataUserTask1",
          "A3": "e5cf224f-a76e-48d1-9c25-1fa3ddd298d3",
          "A4": "e5cf224f-a76e-48d1-9c25-1fa3ddd298d3",
          "GT2": "[Element:{2a3d79f4-fee0-46fe-b175-89f7e2cd4987}].[Parameter:{3d4b6515-050c-41a7-9408-4194f60d4916}]",
          "GT3": "3d4b6515-050c-41a7-9408-4194f60d4916",
          "GT5": "78252e95-b759-416a-9c48-c128fbdf59ef",
          "GT4": "cb455b6f-78ff-4b1e-b241-c2bbc0b37e9f",
          "GT1": {}
        },
        {
          "BL1": "Terrasoft.Core.Process.ProcessSchemaMapping",
          "UId": "34afae0d-1fdd-411c-9256-cd2eff5e1944",
          "A2": "ReadDataUserTask1",
          "A3": "e5cf224f-a76e-48d1-9c25-1fa3ddd298d3",
          "A4": "e5cf224f-a76e-48d1-9c25-1fa3ddd298d3",
          "GT2": "[Element:{2a3d79f4-fee0-46fe-b175-89f7e2cd4987}].[Parameter:{1b533672-7925-47bf-9412-48176a377a20}]",
          "GT3": "1b533672-7925-47bf-9412-48176a377a20",
          "GT5": "2f797429-6f43-4594-96bb-62fbc7b7deec",
          "GT4": "cb455b6f-78ff-4b1e-b241-c2bbc0b37e9f",
          "GT1": {
            "GS1": 1,
            "GS2": "true",
            "GS5": "cb455b6f-78ff-4b1e-b241-c2bbc0b37e9f"
          }
        },
        {
          "BL1": "Terrasoft.Core.Process.ProcessSchemaMapping",
          "UId": "5d050513-c96d-4995-871a-a8fd7c48a46a",
          "A2": "ReadDataUserTask1",
          "A3": "e5cf224f-a76e-48d1-9c25-1fa3ddd298d3",
          "A4": "e5cf224f-a76e-48d1-9c25-1fa3ddd298d3",
          "GT2": "[Element:{2a3d79f4-fee0-46fe-b175-89f7e2cd4987}].[Parameter:{b1bb2510-202c-48fa-ac20-5dcd644790e1}]",
          "GT3": "b1bb2510-202c-48fa-ac20-5dcd644790e1",
          "GT5": "be4a0d16-6a15-41cf-ac44-a8b757565428",
          "GT4": "cb455b6f-78ff-4b1e-b241-c2bbc0b37e9f",
          "GT1": {}
        },
        {
          "BL1": "Terrasoft.Core.Process.ProcessSchemaMapping",
          "UId": "e42e935b-1470-4816-833f-e5c7ac15c5a3",
          "A2": "ReadDataUserTask1",
          "A3": "e5cf224f-a76e-48d1-9c25-1fa3ddd298d3",
          "A4": "e5cf224f-a76e-48d1-9c25-1fa3ddd298d3",
          "GT2": "[Element:{2a3d79f4-fee0-46fe-b175-89f7e2cd4987}].[Parameter:{19d92f30-3eaa-4959-8252-dfbf5e19d24d}]",
          "GT3": "19d92f30-3eaa-4959-8252-dfbf5e19d24d",
          "GT5": "cc12005f-f434-4a40-b9d0-dc8f81755545",
          "GT4": "cb455b6f-78ff-4b1e-b241-c2bbc0b37e9f",
          "GT1": {
            "GS1": 1,
            "GS2": "ae0e45ca-c495-4fe7-a39d-3ab7278e1617"
          }
        },
        {
          "BL1": "Terrasoft.Core.Process.ProcessSchemaMapping",
          "UId": "a7b50472-6f6a-452b-8967-a3c03d71c9c5",
          "A2": "ReadDataUserTask1",
          "A3": "e5cf224f-a76e-48d1-9c25-1fa3ddd298d3",
          "A4": "e5cf224f-a76e-48d1-9c25-1fa3ddd298d3",
          "GT2": "[Element:{2a3d79f4-fee0-46fe-b175-89f7e2cd4987}].[Parameter:{6fb6d25a-b874-4537-843f-9fe5dd322e0a}]",
          "GT3": "6fb6d25a-b874-4537-843f-9fe5dd322e0a",
          "GT5": "6dada847-859b-4e0a-9297-b3c9572530b6",
          "GT4": "cb455b6f-78ff-4b1e-b241-c2bbc0b37e9f",
          "GT1": {}
        },
        {
          "BL1": "Terrasoft.Core.Process.ProcessSchemaMapping",
          "UId": "c4867bdf-cc00-4c6c-96cf-07b22c86b224",
          "A2": "ReadDataUserTask1",
          "A3": "e5cf224f-a76e-48d1-9c25-1fa3ddd298d3",
          "A4": "e5cf224f-a76e-48d1-9c25-1fa3ddd298d3",
          "GT2": "[Element:{2a3d79f4-fee0-46fe-b175-89f7e2cd4987}].[Parameter:{88b17592-5b7e-45af-b94b-213260c9f7c9}]",
          "GT3": "88b17592-5b7e-45af-b94b-213260c9f7c9",
          "GT5": "555901ef-f707-4803-a887-1bc07e882096",
          "GT4": "cb455b6f-78ff-4b1e-b241-c2bbc0b37e9f",
          "GT1": {}
        },
        {
          "BL1": "Terrasoft.Core.Process.ProcessSchemaMapping",
          "UId": "9b103468-593d-4b81-be1b-cb436474e33d",
          "A2": "ReadDataUserTask1",
          "A3": "e5cf224f-a76e-48d1-9c25-1fa3ddd298d3",
          "A4": "e5cf224f-a76e-48d1-9c25-1fa3ddd298d3",
          "GT2": "[Element:{2a3d79f4-fee0-46fe-b175-89f7e2cd4987}].[Parameter:{e5bfddd8-9666-49bd-bdcf-4e4247e124af}]",
          "GT3": "e5bfddd8-9666-49bd-bdcf-4e4247e124af",
          "GT5": "978b550e-1b81-448a-8700-9c9190c3a2a4",
          "GT4": "cb455b6f-78ff-4b1e-b241-c2bbc0b37e9f",
          "GT1": {
            "GS1": 3,
            "GS2": "true",
            "GS5": "cb455b6f-78ff-4b1e-b241-c2bbc0b37e9f",
            "GS8": "false"
          }
        },
        {
          "BL1": "Terrasoft.Core.Process.ProcessSchemaMapping",
          "UId": "7ce01bf3-0a53-44cc-9e84-ac7ae1e39bd5",
          "A2": "SubProcess1",
          "A3": "e5cf224f-a76e-48d1-9c25-1fa3ddd298d3",
          "A4": "e5cf224f-a76e-48d1-9c25-1fa3ddd298d3",
          "GT2": "[Element:{47d1ec5e-6be6-45eb-98a1-e5dc439116d4}].[Parameter:{9d6dc174-db4b-4be4-a4a9-78065f439575}]",
          "GT3": "9d6dc174-db4b-4be4-a4a9-78065f439575",
          "GT5": "e2ff6709-a68b-4c9a-960e-981ca10f7d9c",
          "GT4": "83b607a7-ab2c-4b84-bc84-5ec30ecdbb6c",
          "GT1": {
            "GS1": 3,
            "GS2": "[#[IsOwnerSchema:false].[IsSchema:false].[Element:{2a3d79f4-fee0-46fe-b175-89f7e2cd4987}].[Parameter:{ae0e45ca-c495-4fe7-a39d-3ab7278e1617}]#]",
            "GS5": "83b607a7-ab2c-4b84-bc84-5ec30ecdbb6c"
          }
        }
      ],
      "BK37": {
        "BL1": "Terrasoft.Core.Process.ProcessSchemaParameter",
        "UId": "cdd58be7-2dba-4a5e-869b-1ad5d6d7513a",
        "A2": "NotificationCaption",
        "A3": "e5cf224f-a76e-48d1-9c25-1fa3ddd298d3",
        "A4": "e5cf224f-a76e-48d1-9c25-1fa3ddd298d3",
        "L1": "8b3f29bb-ea14-4ce5-a5c5-293a929b6ba2",
        "L8": {
          "GS1": 3,
          "GS2": "[#[PropertyValue:Caption]#]"
        }
      },
      "BK1": "FFFFFFFF",
      "BK2": "FFBBBBBB",
      "BK3": [
        {
          "BL1": "Terrasoft.Core.Process.ProcessSchemaLaneSet",
          "UId": "cda427f4-55fb-49ba-aff8-893cbe9864c8",
          "A2": "LaneSet1",
          "A3": "e5cf224f-a76e-48d1-9c25-1fa3ddd298d3",
          "A4": "e5cf224f-a76e-48d1-9c25-1fa3ddd298d3",
          "A5": "8027c309-f63e-4894-a830-daa104b3be05",
          "BL7": "11a47caf-a0d5-41fa-a274-a0b11f77447a",
          "BL8": "e5cf224f-a76e-48d1-9c25-1fa3ddd298d3",
          "BM4": [
            {
              "BL1": "Terrasoft.Core.Process.ProcessSchemaLane",
              "UId": "b9b5be8d-4866-4854-b944-0e6cf116b2d1",
              "A2": "Lane1",
              "A3": "e5cf224f-a76e-48d1-9c25-1fa3ddd298d3",
              "A4": "e5cf224f-a76e-48d1-9c25-1fa3ddd298d3",
              "A5": "8027c309-f63e-4894-a830-daa104b3be05",
              "IL2": "cda427f4-55fb-49ba-aff8-893cbe9864c8",
              "BL7": "abcd74b9-5912-414b-82ac-f1aa4dcd554e",
              "BL8": "e5cf224f-a76e-48d1-9c25-1fa3ddd298d3",
              "CD1": [],
              "CD2": [],
              "CD4": "cda427f4-55fb-49ba-aff8-893cbe9864c8",
              "CD7": []
            }
          ]
        }
      ],
      "BK5": [],
      "BK4": [
        {
          "BL1": "Terrasoft.Core.Process.ProcessSchemaTerminateEvent",
          "UId": "0f2fb8c7-2bbf-41e0-ba72-eb3e87808c47",
          "A2": "TerminateEvent1",
          "A3": "e5cf224f-a76e-48d1-9c25-1fa3ddd298d3",
          "A4": "e5cf224f-a76e-48d1-9c25-1fa3ddd298d3",
          "A5": "8027c309-f63e-4894-a830-daa104b3be05",
          "IL2": "b9b5be8d-4866-4854-b944-0e6cf116b2d1",
          "BL3": "600;184",
          "BL7": "1bd93619-0574-454e-bb4e-cf53b9eb9470",
          "BL8": "e5cf224f-a76e-48d1-9c25-1fa3ddd298d3",
          "BN2": "31;31",
          "BO3": true,
          "FC1": []
        },
        {
          "BL1": "Terrasoft.Core.Process.ProcessSchemaStartTimerEvent",
          "UId": "3b8d4e5e-a164-4766-b65b-6a6c7ef5ff20",
          "A2": "StartTimerEvent1",
          "A3": "e5cf224f-a76e-48d1-9c25-1fa3ddd298d3",
          "A4": "e5cf224f-a76e-48d1-9c25-1fa3ddd298d3",
          "A5": "8027c309-f63e-4894-a830-daa104b3be05",
          "IL2": "b9b5be8d-4866-4854-b944-0e6cf116b2d1",
          "BL3": "50;184",
          "BL7": "c735ed92-e545-4699-b3c6-f8f57dd8c529",
          "BL8": "e5cf224f-a76e-48d1-9c25-1fa3ddd298d3",
          "BN2": "31;31",
          "BO3": true,
          "FC1": [],
          "ED1": false,
          "PS1": "0 */10 0-23 * * ? *",
          "PS2": 1,
          "PS3": 1,
          "PS4": "null",
          "PS5": "null",
          "PS6": "UTC"
        },
        {
          "BL1": "Terrasoft.Core.Process.ProcessSchemaUserTask",
          "UId": "2a3d79f4-fee0-46fe-b175-89f7e2cd4987",
          "A2": "ReadDataUserTask1",
          "A3": "e5cf224f-a76e-48d1-9c25-1fa3ddd298d3",
          "A4": "e5cf224f-a76e-48d1-9c25-1fa3ddd298d3",
          "A5": "8027c309-f63e-4894-a830-daa104b3be05",
          "IL2": "b9b5be8d-4866-4854-b944-0e6cf116b2d1",
          "BL3": "184;172",
          "BL7": "cb455b6f-78ff-4b1e-b241-c2bbc0b37e9f",
          "BL8": "e5cf224f-a76e-48d1-9c25-1fa3ddd298d3",
          "BN2": "69;55",
          "BO2": true,
          "BO3": true,
          "BP2": [
            {
              "BL1": "Terrasoft.Core.Process.ProcessSchemaParameter",
              "UId": "2fae5387-1481-4b77-b626-90797c2db84c",
              "A2": "DataSourceFilters",
              "A3": "cb455b6f-78ff-4b1e-b241-c2bbc0b37e9f",
              "A4": "cb455b6f-78ff-4b1e-b241-c2bbc0b37e9f",
              "A5": "66e9e705-64b4-4dda-925e-d1e05a389eb6",
              "IL2": "2a3d79f4-fee0-46fe-b175-89f7e2cd4987",
              "L1": "394e160f-c8e0-46fa-9c0d-75d97e9e9169",
              "L8": {
                "GS1": 1,
                "GS2": "{\"className\":\"Terrasoft.FilterGroup\",\"serializedFilterEditData\":\"{\\\"className\\\":\\\"Terrasoft.FilterGroup\\\",\\\"items\\\":{\\\"1fe93b6c-777a-4971-8d0a-58bcf112d7be\\\":{\\\"className\\\":\\\"Terrasoft.CompareFilter\\\",\\\"filterType\\\":1,\\\"comparisonType\\\":3,\\\"isEnabled\\\":true,\\\"trimDateTimeParameterToDate\\\":false,\\\"leftExpression\\\":{\\\"className\\\":\\\"Terrasoft.ColumnExpression\\\",\\\"expressionType\\\":0,\\\"columnPath\\\":\\\"CrocUseQueue\\\"},\\\"isAggregative\\\":false,\\\"key\\\":\\\"1fe93b6c-777a-4971-8d0a-58bcf112d7be\\\",\\\"dataValueType\\\":12,\\\"leftExpressionCaption\\\":\\\"Использовать очередь\\\",\\\"rightExpression\\\":{\\\"className\\\":\\\"Terrasoft.ParameterExpression\\\",\\\"expressionType\\\":2,\\\"parameter\\\":{\\\"className\\\":\\\"Terrasoft.Parameter\\\",\\\"dataValueType\\\":12,\\\"value\\\":true}}},\\\"a3dde808-1288-443f-a21c-a0f507399bfe\\\":{\\\"className\\\":\\\"Terrasoft.ExistsFilter\\\",\\\"filterType\\\":5,\\\"comparisonType\\\":15,\\\"isEnabled\\\":true,\\\"trimDateTimeParameterToDate\\\":false,\\\"leftExpression\\\":{\\\"className\\\":\\\"Terrasoft.ColumnExpression\\\",\\\"expressionType\\\":0,\\\"columnPath\\\":\\\"[CrocEmailQueue:CrocMailboxSyncSettings].Id\\\"},\\\"isAggregative\\\":true,\\\"key\\\":\\\"a3dde808-1288-443f-a21c-a0f507399bfe\\\",\\\"dataValueType\\\":0,\\\"leftExpressionCaption\\\":\\\"Очередь email (по колонке Настройки синхронизации с почтовым ящиком)\\\",\\\"subFilters\\\":{\\\"className\\\":\\\"Terrasoft.FilterGroup\\\",\\\"items\\\":{\\\"735df3a8-f75b-43b4-b6c1-9274356f54dd\\\":{\\\"className\\\":\\\"Terrasoft.InFilter\\\",\\\"filterType\\\":4,\\\"comparisonType\\\":3,\\\"isEnabled\\\":true,\\\"trimDateTimeParameterToDate\\\":false,\\\"leftExpression\\\":{\\\"className\\\":\\\"Terrasoft.ColumnExpression\\\",\\\"expressionType\\\":0,\\\"columnPath\\\":\\\"CrocStatus\\\"},\\\"isAggregative\\\":false,\\\"key\\\":\\\"735df3a8-f75b-43b4-b6c1-9274356f54dd\\\",\\\"dataValueType\\\":10,\\\"leftExpressionCaption\\\":\\\"Статус\\\",\\\"referenceSchemaName\\\":\\\"CrocEmailQueueStatus\\\",\\\"rightExpressions\\\":[{\\\"className\\\":\\\"Terrasoft.ParameterExpression\\\",\\\"expressionType\\\":2,\\\"parameter\\\":{\\\"className\\\":\\\"Terrasoft.Parameter\\\",\\\"dataValueType\\\":10,\\\"value\\\":{\\\"Name\\\":\\\"Новая\\\",\\\"Id\\\":\\\"baaecb16-4d26-4ed3-a3fc-627b539b71e5\\\",\\\"value\\\":\\\"baaecb16-4d26-4ed3-a3fc-627b539b71e5\\\",\\\"displayValue\\\":\\\"Новая\\\"}}}]},\\\"ae8bfb71-bdd3-46bb-84ee-597e4f6ab61a\\\":{\\\"className\\\":\\\"Terrasoft.FilterGroup\\\",\\\"items\\\":{\\\"cf1fd056-82a5-4193-b148-febf1ad7ae89\\\":{\\\"className\\\":\\\"Terrasoft.InFilter\\\",\\\"filterType\\\":4,\\\"comparisonType\\\":3,\\\"isEnabled\\\":true,\\\"trimDateTimeParameterToDate\\\":false,\\\"leftExpression\\\":{\\\"className\\\":\\\"Terrasoft.ColumnExpression\\\",\\\"expressionType\\\":0,\\\"columnPath\\\":\\\"CrocStatus\\\"},\\\"isAggregative\\\":false,\\\"key\\\":\\\"cf1fd056-82a5-4193-b148-febf1ad7ae89\\\",\\\"dataValueType\\\":10,\\\"leftExpressionCaption\\\":\\\"Статус\\\",\\\"referenceSchemaName\\\":\\\"CrocEmailQueueStatus\\\",\\\"rightExpressions\\\":[{\\\"className\\\":\\\"Terrasoft.ParameterExpression\\\",\\\"expressionType\\\":2,\\\"parameter\\\":{\\\"className\\\":\\\"Terrasoft.Parameter\\\",\\\"dataValueType\\\":10,\\\"value\\\":{\\\"Name\\\":\\\"Ошибка\\\",\\\"Id\\\":\\\"d151d99d-ac96-4f00-960f-974288b7fc37\\\",\\\"value\\\":\\\"d151d99d-ac96-4f00-960f-974288b7fc37\\\",\\\"displayValue\\\":\\\"Ошибка\\\"}}}]},\\\"59145f86-54f3-48ee-96f9-4e1fd4771920\\\":{\\\"className\\\":\\\"Terrasoft.CompareFilter\\\",\\\"filterType\\\":1,\\\"comparisonType\\\":5,\\\"isEnabled\\\":true,\\\"trimDateTimeParameterToDate\\\":false,\\\"leftExpression\\\":{\\\"className\\\":\\\"Terrasoft.ColumnExpression\\\",\\\"expressionType\\\":0,\\\"columnPath\\\":\\\"CrocIterationsNumber\\\"},\\\"isAggregative\\\":false,\\\"key\\\":\\\"59145f86-54f3-48ee-96f9-4e1fd4771920\\\",\\\"dataValueType\\\":4,\\\"leftExpressionCaption\\\":\\\"Количество повторов\\\",\\\"rightExpression\\\":{\\\"className\\\":\\\"Terrasoft.ParameterExpression\\\",\\\"expressionType\\\":2,\\\"parameter\\\":{\\\"className\\\":\\\"Terrasoft.Parameter\\\",\\\"dataValueType\\\":4,\\\"value\\\":3}}}},\\\"logicalOperation\\\":0,\\\"isEnabled\\\":true,\\\"filterType\\\":6,\\\"rootSchemaName\\\":\\\"CrocEmailQueue\\\",\\\"key\\\":\\\"ae8bfb71-bdd3-46bb-84ee-597e4f6ab61a\\\"}},\\\"logicalOperation\\\":1,\\\"isEnabled\\\":true,\\\"filterType\\\":6,\\\"rootSchemaName\\\":\\\"CrocEmailQueue\\\",\\\"key\\\":\\\"91d6bba2-6595-4212-b376-184958dad4a7\\\"}}},\\\"logicalOperation\\\":0,\\\"isEnabled\\\":true,\\\"filterType\\\":6,\\\"rootSchemaName\\\":\\\"MailboxSyncSettings\\\",\\\"key\\\":\\\"\\\"}\",\"dataSourceFilters\":\"{\\\"items\\\":{\\\"1fe93b6c-777a-4971-8d0a-58bcf112d7be\\\":{\\\"filterType\\\":1,\\\"comparisonType\\\":3,\\\"isEnabled\\\":true,\\\"trimDateTimeParameterToDate\\\":false,\\\"leftExpression\\\":{\\\"expressionType\\\":0,\\\"columnPath\\\":\\\"CrocUseQueue\\\"},\\\"rightExpression\\\":{\\\"expressionType\\\":2,\\\"parameter\\\":{\\\"dataValueType\\\":12,\\\"value\\\":true}}},\\\"a3dde808-1288-443f-a21c-a0f507399bfe\\\":{\\\"filterType\\\":5,\\\"comparisonType\\\":15,\\\"isEnabled\\\":true,\\\"trimDateTimeParameterToDate\\\":false,\\\"leftExpression\\\":{\\\"expressionType\\\":0,\\\"columnPath\\\":\\\"[CrocEmailQueue:CrocMailboxSyncSettings].Id\\\"},\\\"subFilters\\\":{\\\"items\\\":{\\\"735df3a8-f75b-43b4-b6c1-9274356f54dd\\\":{\\\"filterType\\\":4,\\\"comparisonType\\\":3,\\\"isEnabled\\\":true,\\\"trimDateTimeParameterToDate\\\":false,\\\"leftExpression\\\":{\\\"expressionType\\\":0,\\\"columnPath\\\":\\\"CrocStatus\\\"},\\\"rightExpressions\\\":[{\\\"expressionType\\\":2,\\\"parameter\\\":{\\\"dataValueType\\\":10,\\\"value\\\":\\\"baaecb16-4d26-4ed3-a3fc-627b539b71e5\\\"}}]},\\\"ae8bfb71-bdd3-46bb-84ee-597e4f6ab61a\\\":{\\\"items\\\":{\\\"cf1fd056-82a5-4193-b148-febf1ad7ae89\\\":{\\\"filterType\\\":4,\\\"comparisonType\\\":3,\\\"isEnabled\\\":true,\\\"trimDateTimeParameterToDate\\\":false,\\\"leftExpression\\\":{\\\"expressionType\\\":0,\\\"columnPath\\\":\\\"CrocStatus\\\"},\\\"rightExpressions\\\":[{\\\"expressionType\\\":2,\\\"parameter\\\":{\\\"dataValueType\\\":10,\\\"value\\\":\\\"d151d99d-ac96-4f00-960f-974288b7fc37\\\"}}]},\\\"59145f86-54f3-48ee-96f9-4e1fd4771920\\\":{\\\"filterType\\\":1,\\\"comparisonType\\\":5,\\\"isEnabled\\\":true,\\\"trimDateTimeParameterToDate\\\":false,\\\"leftExpression\\\":{\\\"expressionType\\\":0,\\\"columnPath\\\":\\\"CrocIterationsNumber\\\"},\\\"rightExpression\\\":{\\\"expressionType\\\":2,\\\"parameter\\\":{\\\"dataValueType\\\":4,\\\"value\\\":3}}}},\\\"logicalOperation\\\":0,\\\"isEnabled\\\":true,\\\"filterType\\\":6,\\\"rootSchemaName\\\":\\\"CrocEmailQueue\\\"}},\\\"logicalOperation\\\":1,\\\"isEnabled\\\":true,\\\"filterType\\\":6,\\\"rootSchemaName\\\":\\\"CrocEmailQueue\\\"}}},\\\"logicalOperation\\\":0,\\\"isEnabled\\\":true,\\\"filterType\\\":6,\\\"rootSchemaName\\\":\\\"MailboxSyncSettings\\\"}\"}",
                "GS5": "e5cf224f-a76e-48d1-9c25-1fa3ddd298d3"
              }
            },
            {
              "BL1": "Terrasoft.Core.Process.ProcessSchemaParameter",
              "UId": "075a610a-cefb-4fd9-9ddd-85164a353d94",
              "A2": "ResultType",
              "A3": "cb455b6f-78ff-4b1e-b241-c2bbc0b37e9f",
              "A4": "cb455b6f-78ff-4b1e-b241-c2bbc0b37e9f",
              "IL2": "2a3d79f4-fee0-46fe-b175-89f7e2cd4987",
              "L1": "6b6b74e2-820d-490e-a017-2b73d4ccf2b0",
              "L8": {
                "GS1": 1,
                "GS2": "2",
                "GS5": "e5cf224f-a76e-48d1-9c25-1fa3ddd298d3"
              }
            },
            {
              "BL1": "Terrasoft.Core.Process.ProcessSchemaParameter",
              "UId": "e9a6e2b3-f1c4-4b2c-9c1c-7b1acb24ddde",
              "A2": "ReadSomeTopRecords",
              "A3": "cb455b6f-78ff-4b1e-b241-c2bbc0b37e9f",
              "A4": "cb455b6f-78ff-4b1e-b241-c2bbc0b37e9f",
              "IL2": "2a3d79f4-fee0-46fe-b175-89f7e2cd4987",
              "L1": "90b65bf8-0ffc-4141-8779-2420877af907",
              "L8": {
                "GS1": 1,
                "GS2": "true",
                "GS5": "e5cf224f-a76e-48d1-9c25-1fa3ddd298d3"
              }
            },
            {
              "BL1": "Terrasoft.Core.Process.ProcessSchemaParameter",
              "UId": "c8151b61-d27b-47eb-92cf-6ae9124a7580",
              "A2": "NumberOfRecords",
              "A3": "cb455b6f-78ff-4b1e-b241-c2bbc0b37e9f",
              "A4": "cb455b6f-78ff-4b1e-b241-c2bbc0b37e9f",
              "IL2": "2a3d79f4-fee0-46fe-b175-89f7e2cd4987",
              "L1": "6b6b74e2-820d-490e-a017-2b73d4ccf2b0",
              "L8": {
                "GS1": 1,
                "GS2": "50",
                "GS5": "e5cf224f-a76e-48d1-9c25-1fa3ddd298d3"
              }
            },
            {
              "BL1": "Terrasoft.Core.Process.ProcessSchemaParameter",
              "UId": "66b1cc76-8884-4d9a-aadc-9f6fc2d792a1",
              "A2": "FunctionType",
              "A3": "cb455b6f-78ff-4b1e-b241-c2bbc0b37e9f",
              "A4": "cb455b6f-78ff-4b1e-b241-c2bbc0b37e9f",
              "IL2": "2a3d79f4-fee0-46fe-b175-89f7e2cd4987",
              "L1": "6b6b74e2-820d-490e-a017-2b73d4ccf2b0",
              "L8": {
                "GS1": 1,
                "GS2": "0",
                "GS5": "e5cf224f-a76e-48d1-9c25-1fa3ddd298d3"
              }
            },
            {
              "BL1": "Terrasoft.Core.Process.ProcessSchemaParameter",
              "UId": "c79d4bd9-51e3-495a-b8d2-48c563d61907",
              "A2": "AggregationColumnName",
              "A3": "cb455b6f-78ff-4b1e-b241-c2bbc0b37e9f",
              "A4": "cb455b6f-78ff-4b1e-b241-c2bbc0b37e9f",
              "IL2": "2a3d79f4-fee0-46fe-b175-89f7e2cd4987",
              "L1": "394e160f-c8e0-46fa-9c0d-75d97e9e9169",
              "L8": {}
            },
            {
              "BL1": "Terrasoft.Core.Process.ProcessSchemaParameter",
              "UId": "55d96daa-1bc9-43bd-a845-268ca62afb52",
              "A2": "OrderInfo",
              "A3": "cb455b6f-78ff-4b1e-b241-c2bbc0b37e9f",
              "A4": "cb455b6f-78ff-4b1e-b241-c2bbc0b37e9f",
              "IL2": "2a3d79f4-fee0-46fe-b175-89f7e2cd4987",
              "L1": "394e160f-c8e0-46fa-9c0d-75d97e9e9169",
              "L8": {}
            },
            {
              "BL1": "Terrasoft.Core.Process.ProcessSchemaParameter",
              "UId": "4cdd6ab0-241b-4423-aea6-d399c73ea3d7",
              "A2": "ResultEntity",
              "A3": "cb455b6f-78ff-4b1e-b241-c2bbc0b37e9f",
              "A4": "cb455b6f-78ff-4b1e-b241-c2bbc0b37e9f",
              "A5": "66e9e705-64b4-4dda-925e-d1e05a389eb6",
              "IL2": "2a3d79f4-fee0-46fe-b175-89f7e2cd4987",
              "L1": "ebd85d37-0abf-4bbf-bb32-97dc3dffcc8c",
              "L8": {
                "GS1": 1,
                "GS5": "e5cf224f-a76e-48d1-9c25-1fa3ddd298d3"
              },
              "L9": "5e487721-02e2-48ee-b755-dfa5160f5315"
            },
            {
              "BL1": "Terrasoft.Core.Process.ProcessSchemaParameter",
              "UId": "43b41c63-b453-4596-8fbe-863ef47245cb",
              "A2": "ResultCount",
              "A3": "cb455b6f-78ff-4b1e-b241-c2bbc0b37e9f",
              "A4": "cb455b6f-78ff-4b1e-b241-c2bbc0b37e9f",
              "IL2": "2a3d79f4-fee0-46fe-b175-89f7e2cd4987",
              "L1": "6b6b74e2-820d-490e-a017-2b73d4ccf2b0",
              "L8": {}
            },
            {
              "BL1": "Terrasoft.Core.Process.ProcessSchemaParameter",
              "UId": "b0914ff1-0fe2-4d46-b10b-746a3c6606cd",
              "A2": "ResultIntegerFunction",
              "A3": "cb455b6f-78ff-4b1e-b241-c2bbc0b37e9f",
              "A4": "cb455b6f-78ff-4b1e-b241-c2bbc0b37e9f",
              "IL2": "2a3d79f4-fee0-46fe-b175-89f7e2cd4987",
              "L1": "6b6b74e2-820d-490e-a017-2b73d4ccf2b0",
              "L8": {}
            },
            {
              "BL1": "Terrasoft.Core.Process.ProcessSchemaParameter",
              "UId": "f52737d9-8fe3-4d16-a8f2-3b642291dc8d",
              "A2": "ResultFloatFunction",
              "A3": "cb455b6f-78ff-4b1e-b241-c2bbc0b37e9f",
              "A4": "cb455b6f-78ff-4b1e-b241-c2bbc0b37e9f",
              "IL2": "2a3d79f4-fee0-46fe-b175-89f7e2cd4987",
              "L1": "ff22e049-4d16-46ee-a529-92d8808932dc",
              "L8": {}
            },
            {
              "BL1": "Terrasoft.Core.Process.ProcessSchemaParameter",
              "UId": "4da31de4-6237-41aa-8a9b-ed7d52d11a5b",
              "A2": "ResultDateTimeFunction",
              "A3": "cb455b6f-78ff-4b1e-b241-c2bbc0b37e9f",
              "A4": "cb455b6f-78ff-4b1e-b241-c2bbc0b37e9f",
              "IL2": "2a3d79f4-fee0-46fe-b175-89f7e2cd4987",
              "L1": "d21e9ef4-c064-4012-b286-fa1a8171da44",
              "L8": {}
            },
            {
              "BL1": "Terrasoft.Core.Process.ProcessSchemaParameter",
              "UId": "3d4b6515-050c-41a7-9408-4194f60d4916",
              "A2": "ResultRowsCount",
              "A3": "cb455b6f-78ff-4b1e-b241-c2bbc0b37e9f",
              "A4": "cb455b6f-78ff-4b1e-b241-c2bbc0b37e9f",
              "IL2": "2a3d79f4-fee0-46fe-b175-89f7e2cd4987",
              "L1": "6b6b74e2-820d-490e-a017-2b73d4ccf2b0",
              "L8": {}
            },
            {
              "BL1": "Terrasoft.Core.Process.ProcessSchemaParameter",
              "UId": "1b533672-7925-47bf-9412-48176a377a20",
              "A2": "CanReadUncommitedData",
              "A3": "cb455b6f-78ff-4b1e-b241-c2bbc0b37e9f",
              "A4": "cb455b6f-78ff-4b1e-b241-c2bbc0b37e9f",
              "IL2": "2a3d79f4-fee0-46fe-b175-89f7e2cd4987",
              "L1": "90b65bf8-0ffc-4141-8779-2420877af907",
              "L8": {
                "GS1": 1,
                "GS2": "true",
                "GS5": "cb455b6f-78ff-4b1e-b241-c2bbc0b37e9f"
              }
            },
            {
              "BL1": "Terrasoft.Core.Process.ProcessSchemaParameter",
              "UId": "b1bb2510-202c-48fa-ac20-5dcd644790e1",
              "A2": "ResultEntityCollection",
              "A3": "cb455b6f-78ff-4b1e-b241-c2bbc0b37e9f",
              "A4": "cb455b6f-78ff-4b1e-b241-c2bbc0b37e9f",
              "IL2": "2a3d79f4-fee0-46fe-b175-89f7e2cd4987",
              "L1": "51fb23ba-3eb2-11e2-b7d5-b0c76188709b",
              "L8": {}
            },
            {
              "BL1": "Terrasoft.Core.Process.ProcessSchemaParameter",
              "UId": "19d92f30-3eaa-4959-8252-dfbf5e19d24d",
              "A2": "EntityColumnMetaPathes",
              "A3": "cb455b6f-78ff-4b1e-b241-c2bbc0b37e9f",
              "A4": "cb455b6f-78ff-4b1e-b241-c2bbc0b37e9f",
              "IL2": "2a3d79f4-fee0-46fe-b175-89f7e2cd4987",
              "L1": "394e160f-c8e0-46fa-9c0d-75d97e9e9169",
              "L8": {
                "GS1": 1,
                "GS2": "ae0e45ca-c495-4fe7-a39d-3ab7278e1617",
                "GS5": "e5cf224f-a76e-48d1-9c25-1fa3ddd298d3"
              }
            },
            {
              "BL1": "Terrasoft.Core.Process.ProcessSchemaParameter",
              "UId": "6fb6d25a-b874-4537-843f-9fe5dd322e0a",
              "A2": "IgnoreDisplayValues",
              "A3": "cb455b6f-78ff-4b1e-b241-c2bbc0b37e9f",
              "A4": "cb455b6f-78ff-4b1e-b241-c2bbc0b37e9f",
              "IL2": "2a3d79f4-fee0-46fe-b175-89f7e2cd4987",
              "L1": "90b65bf8-0ffc-4141-8779-2420877af907",
              "L8": {}
            },
            {
              "BL1": "Terrasoft.Core.Process.ProcessSchemaParameter",
              "UId": "88b17592-5b7e-45af-b94b-213260c9f7c9",
              "A2": "ResultCompositeObjectList",
              "A3": "cb455b6f-78ff-4b1e-b241-c2bbc0b37e9f",
              "A4": "cb455b6f-78ff-4b1e-b241-c2bbc0b37e9f",
              "IL2": "2a3d79f4-fee0-46fe-b175-89f7e2cd4987",
              "L1": "651ec16f-d140-46db-b9e2-825c985a8ac2",
              "L8": {},
              "L18": [
                {
                  "BL1": "Terrasoft.Core.Process.ProcessSchemaParameter",
                  "UId": "ae0e45ca-c495-4fe7-a39d-3ab7278e1617",
                  "A2": "Id",
                  "A3": "e5cf224f-a76e-48d1-9c25-1fa3ddd298d3",
                  "A4": "e5cf224f-a76e-48d1-9c25-1fa3ddd298d3",
                  "IL2": "2a3d79f4-fee0-46fe-b175-89f7e2cd4987",
                  "L1": "23018567-a13c-4320-8687-fd6f9e3699bd",
                  "L8": {},
                  "L17": "ae0e45ca-c495-4fe7-a39d-3ab7278e1617",
                  "L12": 1
                }
              ]
            },
            {
              "BL1": "Terrasoft.Core.Process.ProcessSchemaParameter",
              "UId": "e5bfddd8-9666-49bd-bdcf-4e4247e124af",
              "A2": "ConsiderTimeInFilter",
              "A3": "cb455b6f-78ff-4b1e-b241-c2bbc0b37e9f",
              "A4": "cb455b6f-78ff-4b1e-b241-c2bbc0b37e9f",
              "IL2": "2a3d79f4-fee0-46fe-b175-89f7e2cd4987",
              "L1": "90b65bf8-0ffc-4141-8779-2420877af907",
              "L8": {
                "GS1": 3,
                "GS2": "true",
                "GS5": "cb455b6f-78ff-4b1e-b241-c2bbc0b37e9f",
                "GS8": "false"
              }
            }
          ],
          "CL2": "FFFFFFFF",
          "J6": "cb455b6f-78ff-4b1e-b241-c2bbc0b37e9f"
        },
        {
          "BL1": "Terrasoft.Core.Process.ProcessSchemaSubProcess",
          "UId": "47d1ec5e-6be6-45eb-98a1-e5dc439116d4",
          "A2": "SubProcess1",
          "A3": "e5cf224f-a76e-48d1-9c25-1fa3ddd298d3",
          "A4": "e5cf224f-a76e-48d1-9c25-1fa3ddd298d3",
          "A5": "8027c309-f63e-4894-a830-daa104b3be05",
          "IL2": "b9b5be8d-4866-4854-b944-0e6cf116b2d1",
          "IL3": true,
          "BL3": "345;172",
          "BL7": "49eafdbb-a89e-4bdf-a29d-7f17b1670a45",
          "BL8": "e5cf224f-a76e-48d1-9c25-1fa3ddd298d3",
          "BN2": "69;55",
          "BO2": true,
          "BO3": true,
          "BP6": {
            "JE1": true,
            "JE2": "caa1708e-b209-4c57-aa2f-42c8cf679c24",
            "JE3": "275d2450-d7a7-4dbf-8a08-c573ca74eb14",
            "JE5": "7ccd4881-200c-441b-85c6-5cea6082b472",
            "JE6": "57db42a1-259e-4303-9dcf-97ac90c0a312",
            "JE7": "510ff26b-dbea-43b8-a26b-3e045ad8bc8d"
          },
          "BP2": [
            {
              "BL1": "Terrasoft.Core.Process.ProcessSchemaParameter",
              "UId": "caa1708e-b209-4c57-aa2f-42c8cf679c24",
              "A2": "InputRecordCollection",
              "A3": "e5cf224f-a76e-48d1-9c25-1fa3ddd298d3",
              "A4": "e5cf224f-a76e-48d1-9c25-1fa3ddd298d3",
              "IL2": "47d1ec5e-6be6-45eb-98a1-e5dc439116d4",
              "L1": "651ec16f-d140-46db-b9e2-825c985a8ac2",
              "L8": {
                "GS1": 3,
                "GS2": "[#[IsOwnerSchema:false].[IsSchema:false].[Element:{2a3d79f4-fee0-46fe-b175-89f7e2cd4987}].[Parameter:{88b17592-5b7e-45af-b94b-213260c9f7c9}]#]",
                "GS5": "e5cf224f-a76e-48d1-9c25-1fa3ddd298d3"
              },
              "L12": 0,
              "L18": [
                {
                  "BL1": "Terrasoft.Core.Process.ProcessSchemaParameter",
                  "UId": "9d6dc174-db4b-4be4-a4a9-78065f439575",
                  "A2": "MailboxSyncSettings",
                  "A3": "83b607a7-ab2c-4b84-bc84-5ec30ecdbb6c",
                  "A4": "83b607a7-ab2c-4b84-bc84-5ec30ecdbb6c",
                  "IL2": "47d1ec5e-6be6-45eb-98a1-e5dc439116d4",
                  "L1": "b295071f-7ea9-4e62-8d1a-919bf3732ff2",
                  "L8": {
                    "GS1": 3,
                    "GS2": "[#[IsOwnerSchema:false].[IsSchema:false].[Element:{2a3d79f4-fee0-46fe-b175-89f7e2cd4987}].[Parameter:{ae0e45ca-c495-4fe7-a39d-3ab7278e1617}]#]",
                    "GS5": "e5cf224f-a76e-48d1-9c25-1fa3ddd298d3"
                  },
                  "L9": "5e487721-02e2-48ee-b755-dfa5160f5315",
                  "L12": 0
                }
              ]
            },
            {
              "BL1": "Terrasoft.Core.Process.ProcessSchemaParameter",
              "UId": "275d2450-d7a7-4dbf-8a08-c573ca74eb14",
              "A2": "OutputRecordCollection",
              "A3": "e5cf224f-a76e-48d1-9c25-1fa3ddd298d3",
              "A4": "e5cf224f-a76e-48d1-9c25-1fa3ddd298d3",
              "IL2": "47d1ec5e-6be6-45eb-98a1-e5dc439116d4",
              "L1": "651ec16f-d140-46db-b9e2-825c985a8ac2",
              "L8": {},
              "L12": 1
            },
            {
              "BL1": "Terrasoft.Core.Process.ProcessSchemaParameter",
              "UId": "7ccd4881-200c-441b-85c6-5cea6082b472",
              "A2": "CompletedIterationsCount",
              "A3": "e5cf224f-a76e-48d1-9c25-1fa3ddd298d3",
              "A4": "e5cf224f-a76e-48d1-9c25-1fa3ddd298d3",
              "IL2": "47d1ec5e-6be6-45eb-98a1-e5dc439116d4",
              "L1": "6b6b74e2-820d-490e-a017-2b73d4ccf2b0",
              "L8": {},
              "L12": 1
            },
            {
              "BL1": "Terrasoft.Core.Process.ProcessSchemaParameter",
              "UId": "57db42a1-259e-4303-9dcf-97ac90c0a312",
              "A2": "TerminatedIterationsCount",
              "A3": "e5cf224f-a76e-48d1-9c25-1fa3ddd298d3",
              "A4": "e5cf224f-a76e-48d1-9c25-1fa3ddd298d3",
              "IL2": "47d1ec5e-6be6-45eb-98a1-e5dc439116d4",
              "L1": "6b6b74e2-820d-490e-a017-2b73d4ccf2b0",
              "L8": {},
              "L12": 1
            },
            {
              "BL1": "Terrasoft.Core.Process.ProcessSchemaParameter",
              "UId": "510ff26b-dbea-43b8-a26b-3e045ad8bc8d",
              "A2": "TotalIterationsCount",
              "A3": "e5cf224f-a76e-48d1-9c25-1fa3ddd298d3",
              "A4": "e5cf224f-a76e-48d1-9c25-1fa3ddd298d3",
              "IL2": "47d1ec5e-6be6-45eb-98a1-e5dc439116d4",
              "L1": "6b6b74e2-820d-490e-a017-2b73d4ccf2b0",
              "L8": {},
              "L12": 1
            }
          ],
          "CK4": "83b607a7-ab2c-4b84-bc84-5ec30ecdbb6c",
          "CK2": [],
          "CK3": []
        },
        {
          "BL1": "Terrasoft.Core.Process.ProcessSchemaSequenceFlow",
          "UId": "2984d247-cd6e-498a-8f07-c31ac93d4617",
          "A2": "SequenceFlow1",
          "A3": "e5cf224f-a76e-48d1-9c25-1fa3ddd298d3",
          "A4": "e5cf224f-a76e-48d1-9c25-1fa3ddd298d3",
          "A5": "8027c309-f63e-4894-a830-daa104b3be05",
          "BL7": "0d8351f6-c2f4-4737-bdd9-6fbfe0837fec",
          "BL8": "e5cf224f-a76e-48d1-9c25-1fa3ddd298d3",
          "CI1": "3b8d4e5e-a164-4766-b65b-6a6c7ef5ff20",
          "CI2": "2a3d79f4-fee0-46fe-b175-89f7e2cd4987",
          "CI3": "null",
          "CI5": "FF939598",
          "CI6": 1,
          "CI11": "81;200",
          "CI12": "184;200"
        },
        {
          "BL1": "Terrasoft.Core.Process.ProcessSchemaSequenceFlow",
          "UId": "e498ac48-856b-46df-bcff-410dadbc965c",
          "A2": "SequenceFlow2",
          "A3": "e5cf224f-a76e-48d1-9c25-1fa3ddd298d3",
          "A4": "e5cf224f-a76e-48d1-9c25-1fa3ddd298d3",
          "A5": "8027c309-f63e-4894-a830-daa104b3be05",
          "BL7": "0d8351f6-c2f4-4737-bdd9-6fbfe0837fec",
          "BL8": "e5cf224f-a76e-48d1-9c25-1fa3ddd298d3",
          "CI1": "2a3d79f4-fee0-46fe-b175-89f7e2cd4987",
          "CI2": "47d1ec5e-6be6-45eb-98a1-e5dc439116d4",
          "CI3": "null",
          "CI5": "FF939598",
          "CI6": 1,
          "CI11": "253;200",
          "CI12": "345;200"
        },
        {
          "BL1": "Terrasoft.Core.Process.ProcessSchemaSequenceFlow",
          "UId": "e9bf7664-4ca6-4758-b6d1-23b2c223f86c",
          "A2": "SequenceFlow3",
          "A3": "e5cf224f-a76e-48d1-9c25-1fa3ddd298d3",
          "A4": "e5cf224f-a76e-48d1-9c25-1fa3ddd298d3",
          "A5": "8027c309-f63e-4894-a830-daa104b3be05",
          "BL7": "0d8351f6-c2f4-4737-bdd9-6fbfe0837fec",
          "BL8": "e5cf224f-a76e-48d1-9c25-1fa3ddd298d3",
          "CI1": "47d1ec5e-6be6-45eb-98a1-e5dc439116d4",
          "CI2": "0f2fb8c7-2bbf-41e0-ba72-eb3e87808c47",
          "CI3": "null",
          "CI5": "FF939598",
          "CI6": 1,
          "CI11": "414;200",
          "CI12": "600;200"
        }
      ],
      "BK9": [],
      "BK18": "Business Process",
      "BK29": true,
      "BK30": true,
      "BK34": "null",
      "Labels": [],
      "BK24": []
    }
  }
}