﻿{
  "Descriptor": {
    "UId": "a5467482-b47c-4302-b497-198b3235d855",
    "Name": "CrocRefundCloseReason",
    "ModifiedOnUtc": "\/Date(1664814966000)\/",
    "Parent": {
      "UId": "11ab4bcb-9b23-4b6d-9c86-520fae925d75",
      "Name": "BaseLookup"
    },
    "ManagerName": "EntitySchemaManager",
    "Caption": "Причина закрытия возврата денежных средств"
  }
}