﻿{
  "Descriptor": {
    "UId": "05177bf6-bffa-49be-830d-4eebb0b96e5b",
    "Name": "CrocProcessSendEmailErrorsNotifications",
    "ModifiedOnUtc": "\/Date(1657896483000)\/",
    "ManagerName": "ProcessSchemaManager",
    "Caption": "Email. Рассылка администраторам при возникновении ошибок отправки сообщений"
  }
}