﻿{
  "Descriptor": {
    "UId": "7d2df582-0c0a-44b2-9fb1-e03b78bdc652",
    "Name": "CrocVwAccreditation",
    "ModifiedOnUtc": "\/Date(1670395727000)\/",
    "Parent": {
      "UId": "1bab9dcf-17d5-49f8-9536-8e0064f1dce0",
      "Name": "BaseEntity"
    },
    "ManagerName": "EntitySchemaManager",
    "Caption": "Аккредитация"
  }
}