﻿{
  "Descriptor": {
    "UId": "54b50fcd-951f-4cb5-9a38-dc68dbd92263",
    "Name": "EntityConnection_30f7f4e54a7643e789c6e898aaa01c3e",
    "ModifiedOnUtc": "\/Date(1659351858000)\/",
    "InstallType": 0,
    "Schema": {
      "UId": "187a8e9a-6f0e-465d-aeb0-9556dfa93b7d",
      "Name": "EntityConnection"
    },
    "Columns": [
      {
        "ColumnUId": "ae0e45ca-c495-4fe7-a39d-3ab7278e1617",
        "IsForceUpdate": false,
        "IsKey": true,
        "ColumnName": "Id",
        "DataTypeValueUId": "23018567-a13c-4320-8687-fd6f9e3699bd"
      },
      {
        "ColumnUId": "2d2a1d06-fa97-4bb5-b37c-6af8782f7a07",
        "IsForceUpdate": false,
        "IsKey": false,
        "ColumnName": "SysEntitySchemaUId",
        "DataTypeValueUId": "23018567-a13c-4320-8687-fd6f9e3699bd"
      },
      {
        "ColumnUId": "a79438c7-070f-4f50-b9c4-509c94770c82",
        "IsForceUpdate": false,
        "IsKey": false,
        "ColumnName": "ColumnUId",
        "DataTypeValueUId": "23018567-a13c-4320-8687-fd6f9e3699bd"
      },
      {
        "ColumnUId": "c1ab9d0a-ff01-456b-bc0f-d11cd879b870",
        "IsForceUpdate": false,
        "IsKey": false,
        "ColumnName": "Position",
        "DataTypeValueUId": "6b6b74e2-820d-490e-a017-2b73d4ccf2b0"
      }
    ]
  }
}