﻿{
  "Descriptor": {
    "UId": "91f34d34-6443-4cb9-a7af-f88a0cdd1d54",
    "Name": "KnowledgeBaseSectionV2",
    "ModifiedOnUtc": "\/Date(1657799400000)\/",
    "Parent": {
      "UId": "4d21db49-2ab4-4dff-8790-9b4741b7bf0f",
      "Name": "KnowledgeBaseSectionV2"
    },
    "ExtendParent": true,
    "ManagerName": "ClientUnitSchemaManager",
    "Caption": "Схема раздела: \"База знаний\""
  }
}