﻿{
  "Descriptor": {
    "UId": "b587cd5f-8560-49a1-a1a7-c454f70db47b",
    "Name": "ActivityFile",
    "ModifiedOnUtc": "\/Date(1661767203000)\/",
    "Parent": {
      "UId": "080c9917-7ec9-42e5-86ff-75a683d4f124",
      "Name": "ActivityFile"
    },
    "ExtendParent": true,
    "ManagerName": "EntitySchemaManager",
    "Caption": "Файл и ссылка активности"
  }
}