{
  "MetaData": {
    "Schema": {
      "ManagerName": "DcmSchemaManager",
      "UId": "bab117cb-0de9-4d7b-9dc3-2641793874a6",
      "A2": "CrocCase_Distribution",
      "A5": "431985f0-e56c-4837-9faa-2e863676b981",
      "B1": [],
      "B2": [],
      "B3": [],
      "B6": "8027c309-f63e-4894-a830-daa104b3be05",
      "B8": "7.18.5.1500",
      "FJ1": [],
      "IJ1": true,
      "BK8": "51b280eb-d8a3-4932-81b9-ef61a0877aab",
      "IJ10": true,
      "EntitySchemaUId": "cb643b9a-a7ed-4220-9ff5-a2cee09cdb4e",
      "BK15": [],
      "BK37": {
        "BL1": "Terrasoft.Core.Process.ProcessSchemaParameter",
        "UId": "cdd58be7-2dba-4a5e-869b-1ad5d6d7513a",
        "A2": "NotificationCaption",
        "A3": "bab117cb-0de9-4d7b-9dc3-2641793874a6",
        "A4": "bab117cb-0de9-4d7b-9dc3-2641793874a6",
        "L1": "8b3f29bb-ea14-4ce5-a5c5-293a929b6ba2",
        "L8": {
          "GS1": 3,
          "GS2": "[#[PropertyValue:Caption]#]"
        }
      },
      "Stages": [
        {
          "BL1": "Terrasoft.Core.DcmProcess.DcmSchemaStage",
          "UId": "385a7902-7274-45c1-9831-c6647f259726",
          "A2": "Stage1",
          "A3": "bab117cb-0de9-4d7b-9dc3-2641793874a6",
          "A4": "bab117cb-0de9-4d7b-9dc3-2641793874a6",
          "A5": "8027c309-f63e-4894-a830-daa104b3be05",
          "Color": "#8ecb60",
          "StageRecordId": "ba7a58fb-ab96-4fd8-a15d-f75230c40c44",
          "Elements": []
        },
        {
          "BL1": "Terrasoft.Core.DcmProcess.DcmSchemaStage",
          "UId": "32e2e1fa-702b-4142-81ce-7feeb04d04cc",
          "A2": "Stage2",
          "A3": "bab117cb-0de9-4d7b-9dc3-2641793874a6",
          "A4": "bab117cb-0de9-4d7b-9dc3-2641793874a6",
          "A5": "8027c309-f63e-4894-a830-daa104b3be05",
          "Color": "#8ecb60",
          "StageRecordId": "2e736da9-4812-4fff-ae68-44fabe4a29d0",
          "Elements": []
        },
        {
          "BL1": "Terrasoft.Core.DcmProcess.DcmSchemaStage",
          "UId": "faf82b64-1de3-42e2-ab88-ca0582fdcc8d",
          "A2": "Stage3",
          "A3": "bab117cb-0de9-4d7b-9dc3-2641793874a6",
          "A4": "bab117cb-0de9-4d7b-9dc3-2641793874a6",
          "A5": "8027c309-f63e-4894-a830-daa104b3be05",
          "Color": "#8ecb60",
          "StageRecordId": "c0d53676-a2b6-44cd-a4a7-3e58c5ec2ed5",
          "Elements": []
        },
        {
          "BL1": "Terrasoft.Core.DcmProcess.DcmSchemaStage",
          "UId": "8c363295-4321-45ab-995c-d99c1f048098",
          "A2": "Stage4",
          "A3": "bab117cb-0de9-4d7b-9dc3-2641793874a6",
          "A4": "bab117cb-0de9-4d7b-9dc3-2641793874a6",
          "A5": "8027c309-f63e-4894-a830-daa104b3be05",
          "Color": "#8ecb60",
          "StageRecordId": "84eca2f6-46ad-4d05-afa4-3841c79ebb60",
          "Elements": []
        }
      ],
      "Transitions": [],
      "StageConnections": {
        "Connections": [
          {
            "Source": "32e2e1fa-702b-4142-81ce-7feeb04d04cc",
            "Target": "385a7902-7274-45c1-9831-c6647f259726"
          },
          {
            "Source": "385a7902-7274-45c1-9831-c6647f259726",
            "Target": "32e2e1fa-702b-4142-81ce-7feeb04d04cc"
          },
          {
            "Source": "faf82b64-1de3-42e2-ab88-ca0582fdcc8d",
            "Target": "385a7902-7274-45c1-9831-c6647f259726"
          },
          {
            "Source": "385a7902-7274-45c1-9831-c6647f259726",
            "Target": "faf82b64-1de3-42e2-ab88-ca0582fdcc8d"
          },
          {
            "Source": "faf82b64-1de3-42e2-ab88-ca0582fdcc8d",
            "Target": "32e2e1fa-702b-4142-81ce-7feeb04d04cc"
          },
          {
            "Source": "32e2e1fa-702b-4142-81ce-7feeb04d04cc",
            "Target": "faf82b64-1de3-42e2-ab88-ca0582fdcc8d"
          },
          {
            "Source": "8c363295-4321-45ab-995c-d99c1f048098",
            "Target": "385a7902-7274-45c1-9831-c6647f259726"
          },
          {
            "Source": "385a7902-7274-45c1-9831-c6647f259726",
            "Target": "8c363295-4321-45ab-995c-d99c1f048098"
          },
          {
            "Source": "8c363295-4321-45ab-995c-d99c1f048098",
            "Target": "32e2e1fa-702b-4142-81ce-7feeb04d04cc"
          },
          {
            "Source": "32e2e1fa-702b-4142-81ce-7feeb04d04cc",
            "Target": "8c363295-4321-45ab-995c-d99c1f048098"
          },
          {
            "Source": "8c363295-4321-45ab-995c-d99c1f048098",
            "Target": "faf82b64-1de3-42e2-ab88-ca0582fdcc8d"
          },
          {
            "Source": "faf82b64-1de3-42e2-ab88-ca0582fdcc8d",
            "Target": "8c363295-4321-45ab-995c-d99c1f048098"
          }
        ]
      },
      "StageColumnUId": "dcf353db-1ead-b3c8-10e5-cc857029ea7d",
      "SystemElements": []
    }
  }
}