﻿{
  "PackageData": [
    {
      "Row": [
        {
          "SchemaColumnUId": "ae0e45ca-c495-4fe7-a39d-3ab7278e1617",
          "Value": "e0b572f7-f45d-4491-a4d9-430cd830b746"
        },
        {
          "SchemaColumnUId": "551ce105-25dc-4a76-b318-cf37635e88c3",
          "Value": ""
        },
        {
          "SchemaColumnUId": "78ed4015-b81f-49fc-9d50-847cf8df5e6c",
          "Value": 0
        },
        {
          "SchemaColumnUId": "9eedf8ab-d02e-4a4a-9f9d-19ede1c873bc",
          "Value": "null",
          "DisplayValue": ""
        },
        {
          "SchemaColumnUId": "a215f575-7283-41bd-8852-b2415a935051",
          "Value": ""
        },
        {
          "SchemaColumnUId": "fb750eb9-35b6-463e-b3b8-1a69ec871e43",
          "Value": ""
        }
      ]
    }
  ]
}