﻿{
  "Descriptor": {
    "UId": "f808ae9b-bdde-4005-b7ae-06b43e8aeb51",
    "Name": "SysWidgetDashboard_WidgetDashboardManager_e0b572f7f45d4491a4d9430cd830b746",
    "ModifiedOnUtc": "\/Date(1660476230000)\/",
    "InstallType": 0,
    "Schema": {
      "UId": "e21c1b43-38cd-4bc0-935f-2ea27cd399e1",
      "Name": "SysWidgetDashboard"
    },
    "Columns": [
      {
        "ColumnUId": "ae0e45ca-c495-4fe7-a39d-3ab7278e1617",
        "IsForceUpdate": false,
        "IsKey": true,
        "ColumnName": "Id",
        "DataTypeValueUId": "23018567-a13c-4320-8687-fd6f9e3699bd"
      },
      {
        "ColumnUId": "a215f575-7283-41bd-8852-b2415a935051",
        "IsForceUpdate": false,
        "IsKey": false,
        "ColumnName": "Caption",
        "DataTypeValueUId": "ddb3a1ee-07e8-4d62-b7a9-d0e618b00fbd"
      },
      {
        "ColumnUId": "78ed4015-b81f-49fc-9d50-847cf8df5e6c",
        "IsForceUpdate": false,
        "IsKey": false,
        "ColumnName": "Position",
        "DataTypeValueUId": "6b6b74e2-820d-490e-a017-2b73d4ccf2b0"
      },
      {
        "ColumnUId": "fb750eb9-35b6-463e-b3b8-1a69ec871e43",
        "IsForceUpdate": false,
        "IsKey": false,
        "ColumnName": "ViewConfig",
        "DataTypeValueUId": "c0f04627-4620-4bc0-84e5-9419dc8516b1"
      },
      {
        "ColumnUId": "551ce105-25dc-4a76-b318-cf37635e88c3",
        "IsForceUpdate": false,
        "IsKey": false,
        "ColumnName": "Items",
        "DataTypeValueUId": "c0f04627-4620-4bc0-84e5-9419dc8516b1"
      },
      {
        "ColumnUId": "9eedf8ab-d02e-4a4a-9f9d-19ede1c873bc",
        "IsForceUpdate": false,
        "IsKey": false,
        "ColumnName": "Section",
        "DataTypeValueUId": "b295071f-7ea9-4e62-8d1a-919bf3732ff2"
      }
    ]
  }
}