﻿{
  "Descriptor": {
    "UId": "5ff462a2-ad83-472b-92c3-32bd3c6f215b",
    "Name": "CrocGrainSaleApplicationFolder",
    "ModifiedOnUtc": "\/Date(1657723883000)\/",
    "Parent": {
      "UId": "d602bf96-d029-4b07-9755-63c8f5cb5ed5",
      "Name": "BaseFolder"
    },
    "ManagerName": "EntitySchemaManager",
    "Caption": "Группа Croc"
  }
}