﻿{
  "Descriptor": {
    "UId": "9182482b-88b3-9a9a-b79b-e31f79f14144",
    "Name": "SysAdminOperationGrantee_CrocCanNotifyRedirect",
    "ModifiedOnUtc": "\/Date(1661267312000)\/",
    "InstallType": 0,
    "Schema": {
      "UId": "3987bdc6-38bb-4b41-bcf7-90bb3995117a",
      "Name": "SysAdminOperationGrantee"
    },
    "Columns": [
      {
        "ColumnUId": "ae0e45ca-c495-4fe7-a39d-3ab7278e1617",
        "IsForceUpdate": false,
        "IsKey": true,
        "ColumnName": "Id",
        "DataTypeValueUId": "23018567-a13c-4320-8687-fd6f9e3699bd"
      },
      {
        "ColumnUId": "a64eb826-4dc1-45fb-a5ac-d768275eb719",
        "IsForceUpdate": false,
        "IsKey": false,
        "ColumnName": "SysAdminOperation",
        "DataTypeValueUId": "b295071f-7ea9-4e62-8d1a-919bf3732ff2"
      },
      {
        "ColumnUId": "423b165f-9759-437b-b532-95ef1b78063b",
        "IsForceUpdate": true,
        "IsKey": false,
        "ColumnName": "SysAdminUnit",
        "DataTypeValueUId": "b295071f-7ea9-4e62-8d1a-919bf3732ff2"
      },
      {
        "ColumnUId": "e1f978af-3b07-4c9f-a422-c6170cd1b1a4",
        "IsForceUpdate": false,
        "IsKey": false,
        "ColumnName": "CanExecute",
        "DataTypeValueUId": "90b65bf8-0ffc-4141-8779-2420877af907"
      },
      {
        "ColumnUId": "9d032101-3db5-4bba-ab16-294104cd15ad",
        "IsForceUpdate": false,
        "IsKey": false,
        "ColumnName": "Position",
        "DataTypeValueUId": "6b6b74e2-820d-490e-a017-2b73d4ccf2b0"
      },
      {
        "ColumnUId": "ebf6bb93-8aa6-4a01-900d-c6ea67affe21",
        "IsForceUpdate": false,
        "IsKey": false,
        "ColumnName": "CreatedBy",
        "DataTypeValueUId": "b295071f-7ea9-4e62-8d1a-919bf3732ff2"
      },
      {
        "ColumnUId": "3015559e-cbc6-406a-88af-07f7930be832",
        "IsForceUpdate": false,
        "IsKey": false,
        "ColumnName": "ModifiedBy",
        "DataTypeValueUId": "b295071f-7ea9-4e62-8d1a-919bf3732ff2"
      },
      {
        "ColumnUId": "e80190a5-03b2-4095-90f7-a193a960adee",
        "IsForceUpdate": false,
        "IsKey": false,
        "ColumnName": "CreatedOn",
        "DataTypeValueUId": "d21e9ef4-c064-4012-b286-fa1a8171da44"
      },
      {
        "ColumnUId": "9928edec-4272-425a-93bb-48743fee4b04",
        "IsForceUpdate": false,
        "IsKey": false,
        "ColumnName": "ModifiedOn",
        "DataTypeValueUId": "d21e9ef4-c064-4012-b286-fa1a8171da44"
      }
    ]
  }
}