﻿{
  "Descriptor": {
    "UId": "a3837227-1391-43c7-a2e2-4eba959351a1",
    "Name": "CrocProcessQuotaAllocate",
    "ModifiedOnUtc": "\/Date(1668512593000)\/",
    "ManagerName": "ProcessSchemaManager",
    "Caption": "Типовое сообщение. Наличие брака",
    "DependsOn": []
  }
}