﻿{
  "Descriptor": {
    "UId": "76554f03-ef3b-adb5-09d6-9732b7ce6810",
    "Name": "AccountType_DeactiveBase",
    "ModifiedOnUtc": "\/Date(1664876828000)\/",
    "InstallType": 2,
    "Schema": {
      "UId": "3ae4a2bb-d3dc-48bf-8271-9ca91dcdeba1",
      "Name": "AccountType"
    },
    "Columns": [
      {
        "ColumnUId": "ae0e45ca-c495-4fe7-a39d-3ab7278e1617",
        "IsForceUpdate": false,
        "IsKey": true,
        "ColumnName": "Id",
        "DataTypeValueUId": "23018567-a13c-4320-8687-fd6f9e3699bd"
      },
      {
        "ColumnUId": "e86949e7-1ee6-4277-8e20-982a9c673fdb",
        "IsForceUpdate": true,
        "IsKey": false,
        "ColumnName": "RecordInactive",
        "DataTypeValueUId": "90b65bf8-0ffc-4141-8779-2420877af907"
      },
      {
        "ColumnUId": "736c30a7-c0ec-4fa9-b034-2552b319b633",
        "IsForceUpdate": false,
        "IsKey": false,
        "ColumnName": "Name",
        "DataTypeValueUId": "ddb3a1ee-07e8-4d62-b7a9-d0e618b00fbd"
      }
    ]
  }
}