﻿{
  "Descriptor": {
    "UId": "bc2eb5f5-aee4-4f0f-9203-208e4c27f550",
    "Name": "CrocRepayment",
    "ModifiedOnUtc": "\/Date(1669805764000)\/",
    "Parent": {
      "UId": "1bab9dcf-17d5-49f8-9536-8e0064f1dce0",
      "Name": "BaseEntity"
    },
    "ManagerName": "EntitySchemaManager",
    "Caption": "Object",
    "DependsOn": []
  }
}