﻿{
  "Descriptor": {
    "UId": "48a8939f-1315-47a6-94a2-0d22596d0007",
    "Name": "CrocProgressReportStatus",
    "ModifiedOnUtc": "\/Date(1661787461000)\/",
    "Parent": {
      "UId": "11ab4bcb-9b23-4b6d-9c86-520fae925d75",
      "Name": "BaseLookup"
    },
    "ManagerName": "EntitySchemaManager",
    "Caption": "Статус отчета о проделанной работе"
  }
}