﻿{
  "Descriptor": {
    "UId": "ab800313-f8a8-4576-ba34-7f94abfa6b3d",
    "Name": "CrocPaymentStatus",
    "ModifiedOnUtc": "\/Date(1665071272000)\/",
    "Parent": {
      "UId": "11ab4bcb-9b23-4b6d-9c86-520fae925d75",
      "Name": "BaseLookup"
    },
    "ManagerName": "EntitySchemaManager",
    "Caption": "Статус оплаты"
  }
}