﻿{
  "Descriptor": {
    "UId": "d69ad823-8758-4ea4-a68d-fce53bbc1c34",
    "Name": "CrocPlannedRefund1Page",
    "ModifiedOnUtc": "\/Date(1662019965000)\/",
    "Parent": {
      "UId": "d3cc497c-f286-4f13-99c1-751c468733c0",
      "Name": "BasePageV2"
    },
    "ManagerName": "ClientUnitSchemaManager",
    "Caption": "Карточка схемы: \"Планируемый возврат денежных средств\""
  }
}