﻿{
  "Descriptor": {
    "UId": "05ed4a08-867e-4e68-947c-111b10fa77bd",
    "Name": "CrocSampleMessageFolder",
    "ModifiedOnUtc": "\/Date(1660143913000)\/",
    "Parent": {
      "UId": "d602bf96-d029-4b07-9755-63c8f5cb5ed5",
      "Name": "BaseFolder"
    },
    "ManagerName": "EntitySchemaManager",
    "Caption": "Группа Типовое сообщение"
  }
}