﻿{
  "Descriptor": {
    "UId": "da3995be-1fae-45b7-aa19-f4e7f1898e9a",
    "Name": "CrocDeliveryScheduleHistory1Page",
    "ModifiedOnUtc": "\/Date(1659082170000)\/",
    "Parent": {
      "UId": "d3cc497c-f286-4f13-99c1-751c468733c0",
      "Name": "BasePageV2"
    },
    "ManagerName": "ClientUnitSchemaManager",
    "Caption": "Карточка схемы: \"График поставок (история)\""
  }
}