{
  "MetaData": {
    "Schema": {
      "ManagerName": "DcmSchemaManager",
      "UId": "4b07c2e5-e060-4b03-9ebe-fc35c5d589e0",
      "A2": "CrocCaseGrainSaleApplication",
      "A5": "08d9e03f-c04f-4d72-8160-baaa5a30f27f",
      "B1": [],
      "B2": [],
      "B3": [],
      "B6": "8027c309-f63e-4894-a830-daa104b3be05",
      "B8": "7.18.5.1500",
      "FJ1": [],
      "IJ1": true,
      "BK8": "51b280eb-d8a3-4932-81b9-ef61a0877aab",
      "IJ10": true,
      "EntitySchemaUId": "eac6c5ca-48e4-4878-b3a3-49fc463cc51b",
      "BK15": [],
      "BK37": {
        "BL1": "Terrasoft.Core.Process.ProcessSchemaParameter",
        "UId": "cdd58be7-2dba-4a5e-869b-1ad5d6d7513a",
        "A2": "NotificationCaption",
        "A3": "4b07c2e5-e060-4b03-9ebe-fc35c5d589e0",
        "A4": "4b07c2e5-e060-4b03-9ebe-fc35c5d589e0",
        "L1": "8b3f29bb-ea14-4ce5-a5c5-293a929b6ba2",
        "L8": {
          "GS1": 3,
          "GS2": "[#[PropertyValue:Caption]#]"
        }
      },
      "Stages": [
        {
          "BL1": "Terrasoft.Core.DcmProcess.DcmSchemaStage",
          "UId": "de9c8031-ff16-4440-8706-2dcaeb99897d",
          "A2": "Stage1",
          "A3": "4b07c2e5-e060-4b03-9ebe-fc35c5d589e0",
          "A4": "4b07c2e5-e060-4b03-9ebe-fc35c5d589e0",
          "A5": "8027c309-f63e-4894-a830-daa104b3be05",
          "Color": "#8ecb60",
          "StageRecordId": "1b887099-2a04-4536-9e3f-6c243b110ce5",
          "Elements": []
        },
        {
          "BL1": "Terrasoft.Core.DcmProcess.DcmSchemaStage",
          "UId": "c420a507-274e-4273-bca9-948fd32ca088",
          "A2": "Stage2",
          "A3": "4b07c2e5-e060-4b03-9ebe-fc35c5d589e0",
          "A4": "4b07c2e5-e060-4b03-9ebe-fc35c5d589e0",
          "A5": "8027c309-f63e-4894-a830-daa104b3be05",
          "Color": "#8ecb60",
          "StageRecordId": "96b2afcc-30d0-4dd4-9846-ca06bab68038",
          "Elements": []
        },
        {
          "BL1": "Terrasoft.Core.DcmProcess.DcmSchemaStage",
          "UId": "e019bfeb-a1b7-4036-835b-5f374ae6711d",
          "A2": "Stage3",
          "A3": "4b07c2e5-e060-4b03-9ebe-fc35c5d589e0",
          "A4": "4b07c2e5-e060-4b03-9ebe-fc35c5d589e0",
          "A5": "8027c309-f63e-4894-a830-daa104b3be05",
          "Color": "#8ecb60",
          "StageRecordId": "3f1a8dfd-ab9c-4641-9786-bb577a8f6ce2",
          "Elements": []
        },
        {
          "BL1": "Terrasoft.Core.DcmProcess.DcmSchemaStage",
          "UId": "88fc4262-2726-45a2-84c6-e6bd5f510cc8",
          "A2": "Stage4",
          "A3": "4b07c2e5-e060-4b03-9ebe-fc35c5d589e0",
          "A4": "4b07c2e5-e060-4b03-9ebe-fc35c5d589e0",
          "A5": "8027c309-f63e-4894-a830-daa104b3be05",
          "ParentStageUId": "e019bfeb-a1b7-4036-835b-5f374ae6711d",
          "Color": "#c73920",
          "StageRecordId": "35f5173d-4736-4182-941a-9cfe37afad0c",
          "Elements": []
        }
      ],
      "Transitions": [],
      "StageConnections": {
        "Connections": [
          {
            "Source": "c420a507-274e-4273-bca9-948fd32ca088",
            "Target": "de9c8031-ff16-4440-8706-2dcaeb99897d"
          },
          {
            "Source": "de9c8031-ff16-4440-8706-2dcaeb99897d",
            "Target": "c420a507-274e-4273-bca9-948fd32ca088"
          },
          {
            "Source": "e019bfeb-a1b7-4036-835b-5f374ae6711d",
            "Target": "de9c8031-ff16-4440-8706-2dcaeb99897d"
          },
          {
            "Source": "de9c8031-ff16-4440-8706-2dcaeb99897d",
            "Target": "e019bfeb-a1b7-4036-835b-5f374ae6711d"
          },
          {
            "Source": "e019bfeb-a1b7-4036-835b-5f374ae6711d",
            "Target": "c420a507-274e-4273-bca9-948fd32ca088"
          },
          {
            "Source": "c420a507-274e-4273-bca9-948fd32ca088",
            "Target": "e019bfeb-a1b7-4036-835b-5f374ae6711d"
          },
          {
            "Source": "88fc4262-2726-45a2-84c6-e6bd5f510cc8",
            "Target": "de9c8031-ff16-4440-8706-2dcaeb99897d"
          },
          {
            "Source": "de9c8031-ff16-4440-8706-2dcaeb99897d",
            "Target": "88fc4262-2726-45a2-84c6-e6bd5f510cc8"
          },
          {
            "Source": "88fc4262-2726-45a2-84c6-e6bd5f510cc8",
            "Target": "c420a507-274e-4273-bca9-948fd32ca088"
          },
          {
            "Source": "c420a507-274e-4273-bca9-948fd32ca088",
            "Target": "88fc4262-2726-45a2-84c6-e6bd5f510cc8"
          },
          {
            "Source": "88fc4262-2726-45a2-84c6-e6bd5f510cc8",
            "Target": "e019bfeb-a1b7-4036-835b-5f374ae6711d"
          },
          {
            "Source": "e019bfeb-a1b7-4036-835b-5f374ae6711d",
            "Target": "88fc4262-2726-45a2-84c6-e6bd5f510cc8"
          }
        ]
      },
      "StageColumnUId": "13d57203-154b-445f-a5df-08231a31c619",
      "SystemElements": []
    }
  }
}