﻿{
  "Descriptor": {
    "UId": "4f2bbd49-98fd-4d73-9e41-77249cfeb926",
    "Name": "CrocRule1Page",
    "ModifiedOnUtc": "\/Date(1658850550000)\/",
    "Parent": {
      "UId": "d3cc497c-f286-4f13-99c1-751c468733c0",
      "Name": "BasePageV2"
    },
    "ManagerName": "ClientUnitSchemaManager",
    "Caption": "Карточка схемы: \"Правило\""
  }
}