﻿{
  "Descriptor": {
    "UId": "8e052944-f4dc-45e9-8b42-c3ea7fdcaabd",
    "Name": "CrocRegisterEmptyCar",
    "ModifiedOnUtc": "\/Date(1670397943000)\/",
    "Parent": {
      "UId": "1bab9dcf-17d5-49f8-9536-8e0064f1dce0",
      "Name": "BaseEntity"
    },
    "ManagerName": "EntitySchemaManager",
    "Caption": "Реестр порожних машин"
  }
}