﻿{
  "Descriptor": {
    "UId": "fc39c81e-fde5-4215-8ac7-f7ad04bab942",
    "Name": "CrocDocumentSetList1Detail",
    "ModifiedOnUtc": "\/Date(1658235457000)\/",
    "Parent": {
      "UId": "01eb38ee-668a-42f0-999d-c2534f979089",
      "Name": "BaseGridDetailV2"
    },
    "ManagerName": "ClientUnitSchemaManager",
    "Caption": "Схема детали: \"Список документов в наборе\""
  }
}