﻿{
  "Descriptor": {
    "UId": "b448e6b6-db03-f053-6e76-7d663d748921",
    "Name": "CrocLegalEntityStatus",
    "ModifiedOnUtc": "\/Date(1664982760000)\/",
    "InstallType": 0,
    "Schema": {
      "UId": "872fa350-f4cb-4d4b-b934-42a310060639",
      "Name": "CrocLegalEntityStatus"
    },
    "Columns": [
      {
        "ColumnUId": "ae0e45ca-c495-4fe7-a39d-3ab7278e1617",
        "IsForceUpdate": false,
        "IsKey": true,
        "ColumnName": "Id",
        "DataTypeValueUId": "23018567-a13c-4320-8687-fd6f9e3699bd"
      },
      {
        "ColumnUId": "736c30a7-c0ec-4fa9-b034-2552b319b633",
        "IsForceUpdate": true,
        "IsKey": false,
        "ColumnName": "Name",
        "DataTypeValueUId": "ddb3a1ee-07e8-4d62-b7a9-d0e618b00fbd"
      },
      {
        "ColumnUId": "9e53fd7c-dde4-4502-a64c-b9e34148108b",
        "IsForceUpdate": true,
        "IsKey": false,
        "ColumnName": "Description",
        "DataTypeValueUId": "ddb3a1ee-07e8-4d62-b7a9-d0e618b00fbd"
      },
      {
        "ColumnUId": "7a8641ab-ca13-7f94-8613-a1b58ef37c46",
        "IsForceUpdate": true,
        "IsKey": false,
        "ColumnName": "CrocGuid",
        "DataTypeValueUId": "ddb3a1ee-07e8-4d62-b7a9-d0e618b00fbd"
      }
    ]
  }
}