﻿{
  "PackageData": [
    {
      "Row": [
        {
          "SchemaColumnUId": "ae0e45ca-c495-4fe7-a39d-3ab7278e1617",
          "ColumnName": "Id",
          "Value": "55f913fd-6807-4942-9ce1-ff2b54131b75"
        },
        {
          "SchemaColumnUId": "3da3c3b2-02fb-4cca-80c3-7946d4e8f565",
          "ColumnName": "Caption",
          "Value": ""
        },
        {
          "SchemaColumnUId": "7b904e78-84bf-408c-a7a1-1287e66837d3",
          "ColumnName": "ModuleHeader",
          "Value": ""
        }
      ]
    }
  ]
}