﻿{
  "Descriptor": {
    "UId": "7cd2ddbe-5b2a-400d-ac67-42930f1c0fe8",
    "Name": "CrocLeftPanelTopMenuModule",
    "ModifiedOnUtc": "\/Date(1669894770000)\/",
    "ManagerName": "ClientUnitSchemaManager",
    "Caption": "CrocLeftPanelTopMenuModule"
  }
}