﻿{
  "Descriptor": {
    "UId": "4be84ed8-04f4-4c4a-a3ff-2c679e5aa036",
    "Name": "CrocComment",
    "ModifiedOnUtc": "\/Date(1659603446000)\/",
    "Parent": {
      "UId": "1bab9dcf-17d5-49f8-9536-8e0064f1dce0",
      "Name": "BaseEntity"
    },
    "ManagerName": "EntitySchemaManager",
    "Caption": "Замечания"
  }
}