﻿{
  "Descriptor": {
    "UId": "93e2f99c-7856-4cbc-86ee-ee19b3ce82a1",
    "Name": "CrocNotificationFeedFolder",
    "ModifiedOnUtc": "\/Date(1657810302000)\/",
    "Parent": {
      "UId": "d602bf96-d029-4b07-9755-63c8f5cb5ed5",
      "Name": "BaseFolder"
    },
    "ManagerName": "EntitySchemaManager",
    "Caption": "Группа Лента уведомлений"
  }
}