﻿{
  "Descriptor": {
    "UId": "9064ce54-0617-43b5-b969-1536af2cd8f2",
    "Name": "CrocHelp1Page",
    "ModifiedOnUtc": "\/Date(1659100628000)\/",
    "Parent": {
      "UId": "d62293c0-7f14-44b1-b547-735fb40499cd",
      "Name": "BaseModulePageV2"
    },
    "ManagerName": "ClientUnitSchemaManager",
    "Caption": "Страница редактирования: \"Помощь\""
  }
}