﻿{
  "Descriptor": {
    "UId": "6708137b-a37b-4f51-a809-db4c555f8cea",
    "Name": "CrocInternalUserEmailTempate",
    "ModifiedOnUtc": "\/Date(1659947665000)\/",
    "Parent": {
      "UId": "11ab4bcb-9b23-4b6d-9c86-520fae925d75",
      "Name": "BaseLookup"
    },
    "ManagerName": "EntitySchemaManager",
    "Caption": "Шаблон сообщения для внутренних пользователей"
  }
}