﻿{
  "Descriptor": {
    "UId": "15c79606-c92d-4e62-807b-9e5788d27e5f",
    "Name": "CrocNewsInFolder",
    "ModifiedOnUtc": "\/Date(1657784223000)\/",
    "Parent": {
      "UId": "4f63bafb-e9e7-4082-b92e-66b97c14017c",
      "Name": "BaseItemInFolder"
    },
    "ManagerName": "EntitySchemaManager",
    "Caption": "Новость в группе"
  }
}