﻿{
  "Descriptor": {
    "UId": "8f1b3f07-c264-42a7-9c92-de9352d843cd",
    "Name": "CrocPurchaseReturns",
    "ModifiedOnUtc": "\/Date(1671700769000)\/",
    "Parent": {
      "UId": "1bab9dcf-17d5-49f8-9536-8e0064f1dce0",
      "Name": "BaseEntity"
    },
    "ManagerName": "EntitySchemaManager",
    "Caption": "Возврат товара"
  }
}