﻿{
  "Descriptor": {
    "UId": "3f5225b9-55c4-420e-98c3-10083904c273",
    "Name": "CrocDocument",
    "ModifiedOnUtc": "\/Date(1672226681000)\/",
    "Parent": {
      "UId": "1bab9dcf-17d5-49f8-9536-8e0064f1dce0",
      "Name": "BaseEntity"
    },
    "ManagerName": "EntitySchemaManager",
    "Caption": "Documents"
  }
}