﻿{
  "PackageData": [
    {
      "Row": [
        {
          "SchemaColumnUId": "ae0e45ca-c495-4fe7-a39d-3ab7278e1617",
          "Value": "03470775-6d09-4d81-8cb1-97e72e5b7945"
        },
        {
          "SchemaColumnUId": "0c59594b-490a-4b55-a564-5841cfae3c19",
          "Value": "3a4d96e8-e6fc-4d51-be76-a920d82a2177"
        },
        {
          "SchemaColumnUId": "3107ef98-a02e-4ea8-809a-67dc3025ef4a",
          "Value": "null"
        }
      ]
    }
  ]
}