﻿{
  "Descriptor": {
    "UId": "21810d68-b5f1-4a3c-bbbc-0c1b99a464b8",
    "Name": "CrocErrand1Page",
    "ModifiedOnUtc": "\/Date(1671541379000)\/",
    "Parent": {
      "UId": "d62293c0-7f14-44b1-b547-735fb40499cd",
      "Name": "BaseModulePageV2"
    },
    "ManagerName": "ClientUnitSchemaManager",
    "Caption": "Страница редактирования: \"Поручение на перевозку\""
  }
}