﻿{
  "Descriptor": {
    "UId": "96245860-db7c-4ce5-a76a-b8d91ec305e9",
    "Name": "CrocChart1Detail",
    "ModifiedOnUtc": "\/Date(1670418054000)\/",
    "Parent": {
      "UId": "01eb38ee-668a-42f0-999d-c2534f979089",
      "Name": "BaseGridDetailV2"
    },
    "ManagerName": "ClientUnitSchemaManager",
    "Caption": "Схема детали: \"График\""
  }
}