﻿{
  "Descriptor": {
    "UId": "37ffea87-d870-4d12-aa77-66f412c86453",
    "Name": "CrocNotificationFeed",
    "ModifiedOnUtc": "\/Date(1666771024000)\/",
    "Parent": {
      "UId": "1bab9dcf-17d5-49f8-9536-8e0064f1dce0",
      "Name": "BaseEntity"
    },
    "ManagerName": "EntitySchemaManager",
    "Caption": "Лента уведомлений"
  }
}