﻿{
  "PackageData": [
    {
      "Row": [
        {
          "SchemaColumnUId": "ae0e45ca-c495-4fe7-a39d-3ab7278e1617",
          "Value": "e0b877e4-063f-40eb-8e8e-17db05282f4c"
        },
        {
          "SchemaColumnUId": "0c59594b-490a-4b55-a564-5841cfae3c19",
          "Value": "a57f9f52-499f-4691-a8fd-b35003d52434"
        },
        {
          "SchemaColumnUId": "3107ef98-a02e-4ea8-809a-67dc3025ef4a",
          "Value": "null"
        }
      ]
    }
  ]
}