﻿{
  "Descriptor": {
    "UId": "c242c005-d69b-41bf-87e2-04bac4566401",
    "Name": "CrocProcessDeletePositionPlan",
    "ModifiedOnUtc": "\/Date(1671784778000)\/",
    "ManagerName": "ProcessSchemaManager",
    "Caption": "Удаление плана позиций с пометкой на удаление"
  }
}