﻿{
  "Descriptor": {
    "UId": "fc4e9052-8762-4020-850d-06e025c45d0b",
    "Name": "CrocOperationKind",
    "ModifiedOnUtc": "\/Date(1669019514000)\/",
    "Parent": {
      "UId": "11ab4bcb-9b23-4b6d-9c86-520fae925d75",
      "Name": "BaseLookup"
    },
    "ManagerName": "EntitySchemaManager",
    "Caption": "Вид операции"
  }
}