﻿{
  "Descriptor": {
    "UId": "6cbffb55-2e53-4986-af81-6d61ab0e0de6",
    "Name": "CrocProcessAddNewUserRequest",
    "ModifiedOnUtc": "\/Date(1666259806000)\/",
    "ManagerName": "ProcessSchemaManager",
    "Caption": "Контрагент. Запрос подключение нового пользователя",
    "DependsOn": []
  }
}