﻿{
  "PackageData": [
    {
      "Row": [
        {
          "SchemaColumnUId": "ae0e45ca-c495-4fe7-a39d-3ab7278e1617",
          "Value": "05a8c243-6d25-4cb1-8bf9-e05dc42f1bcf"
        },
        {
          "SchemaColumnUId": "696f3840-3dc4-9b48-0d22-0177168d2449",
          "Value": "ff779e5f-e6ea-45fc-86e1-f29d222ee08c",
          "DisplayValue": "Правила нахождения в порту"
        }
      ]
    },
    {
      "Row": [
        {
          "SchemaColumnUId": "ae0e45ca-c495-4fe7-a39d-3ab7278e1617",
          "Value": "11c5863d-b3e4-4c71-bf36-f273fd6ed2dc"
        },
        {
          "SchemaColumnUId": "696f3840-3dc4-9b48-0d22-0177168d2449",
          "Value": "c23aa4b1-526a-4387-8e80-aacc30053217",
          "DisplayValue": "Правила по работе с ЭО"
        }
      ]
    },
    {
      "Row": [
        {
          "SchemaColumnUId": "ae0e45ca-c495-4fe7-a39d-3ab7278e1617",
          "Value": "284c87c3-8dc0-4248-aa11-0e15c7a67ce9"
        },
        {
          "SchemaColumnUId": "696f3840-3dc4-9b48-0d22-0177168d2449",
          "Value": "c3d002d3-1955-4d3c-826f-bc171619c57f",
          "DisplayValue": "Шаблон/Образцы документов"
        }
      ]
    },
    {
      "Row": [
        {
          "SchemaColumnUId": "ae0e45ca-c495-4fe7-a39d-3ab7278e1617",
          "Value": "3677007b-f184-40c7-b3fc-1ed7156c6726"
        },
        {
          "SchemaColumnUId": "696f3840-3dc4-9b48-0d22-0177168d2449",
          "Value": "c3d002d3-1955-4d3c-826f-bc171619c57f",
          "DisplayValue": "Шаблон/Образцы документов"
        }
      ]
    },
    {
      "Row": [
        {
          "SchemaColumnUId": "ae0e45ca-c495-4fe7-a39d-3ab7278e1617",
          "Value": "653ab9e0-2c2a-4283-94f9-1b018e2bc282"
        },
        {
          "SchemaColumnUId": "696f3840-3dc4-9b48-0d22-0177168d2449",
          "Value": "c3d002d3-1955-4d3c-826f-bc171619c57f",
          "DisplayValue": "Шаблон/Образцы документов"
        }
      ]
    },
    {
      "Row": [
        {
          "SchemaColumnUId": "ae0e45ca-c495-4fe7-a39d-3ab7278e1617",
          "Value": "7a65684b-9812-4fc0-af84-131a4cee8d95"
        },
        {
          "SchemaColumnUId": "696f3840-3dc4-9b48-0d22-0177168d2449",
          "Value": "c3d002d3-1955-4d3c-826f-bc171619c57f",
          "DisplayValue": "Шаблон/Образцы документов"
        }
      ]
    },
    {
      "Row": [
        {
          "SchemaColumnUId": "ae0e45ca-c495-4fe7-a39d-3ab7278e1617",
          "Value": "87629a8f-a618-4b7e-8543-f1f13136b757"
        },
        {
          "SchemaColumnUId": "696f3840-3dc4-9b48-0d22-0177168d2449",
          "Value": "7199fd88-3145-402d-972a-59e1ec0fadb0",
          "DisplayValue": "Новости порта"
        }
      ]
    },
    {
      "Row": [
        {
          "SchemaColumnUId": "ae0e45ca-c495-4fe7-a39d-3ab7278e1617",
          "Value": "ad2e3f71-88fd-4ff2-98fc-be84ab0ad982"
        },
        {
          "SchemaColumnUId": "696f3840-3dc4-9b48-0d22-0177168d2449",
          "Value": "c3d002d3-1955-4d3c-826f-bc171619c57f",
          "DisplayValue": "Шаблон/Образцы документов"
        }
      ]
    },
    {
      "Row": [
        {
          "SchemaColumnUId": "ae0e45ca-c495-4fe7-a39d-3ab7278e1617",
          "Value": "b65f98da-144f-487e-90c9-4945921cd642"
        },
        {
          "SchemaColumnUId": "696f3840-3dc4-9b48-0d22-0177168d2449",
          "Value": "26d4770d-d579-47a4-b152-901e30577605",
          "DisplayValue": "Нормативные документы, регламентирующие перевозку грузов"
        }
      ]
    },
    {
      "Row": [
        {
          "SchemaColumnUId": "ae0e45ca-c495-4fe7-a39d-3ab7278e1617",
          "Value": "d650bdd7-e3cb-4a0a-bd28-2d9e1040d0e9"
        },
        {
          "SchemaColumnUId": "696f3840-3dc4-9b48-0d22-0177168d2449",
          "Value": "ce2f7150-d8fa-4898-a6aa-95faf3f3ff91",
          "DisplayValue": "Правила по движению транзитных машин"
        }
      ]
    },
    {
      "Row": [
        {
          "SchemaColumnUId": "ae0e45ca-c495-4fe7-a39d-3ab7278e1617",
          "Value": "e97b0fa9-4ce0-41ec-a2c7-f785ca34719d"
        },
        {
          "SchemaColumnUId": "696f3840-3dc4-9b48-0d22-0177168d2449",
          "Value": "26d4770d-d579-47a4-b152-901e30577605",
          "DisplayValue": "Нормативные документы, регламентирующие перевозку грузов"
        }
      ]
    },
    {
      "Row": [
        {
          "SchemaColumnUId": "ae0e45ca-c495-4fe7-a39d-3ab7278e1617",
          "Value": "ee5fc6b7-ab84-4109-aebf-de826b3526dd"
        },
        {
          "SchemaColumnUId": "696f3840-3dc4-9b48-0d22-0177168d2449",
          "Value": "c23aa4b1-526a-4387-8e80-aacc30053217",
          "DisplayValue": "Правила по работе с ЭО"
        }
      ]
    },
    {
      "Row": [
        {
          "SchemaColumnUId": "ae0e45ca-c495-4fe7-a39d-3ab7278e1617",
          "Value": "f290fa66-bbbe-437c-b9d6-3746f6acf131"
        },
        {
          "SchemaColumnUId": "696f3840-3dc4-9b48-0d22-0177168d2449",
          "Value": "c3d002d3-1955-4d3c-826f-bc171619c57f",
          "DisplayValue": "Шаблон/Образцы документов"
        }
      ]
    }
  ]
}