﻿{
  "Descriptor": {
    "UId": "0b5417a5-3553-4f73-8f15-667bbfa22d94",
    "Name": "CrocAccountInDistribution1Detail",
    "ModifiedOnUtc": "\/Date(1661862866000)\/",
    "Parent": {
      "UId": "01eb38ee-668a-42f0-999d-c2534f979089",
      "Name": "BaseGridDetailV2"
    },
    "ManagerName": "ClientUnitSchemaManager",
    "Caption": "Схема детали: \"Адресаты-Контрагенты\""
  }
}