﻿{
  "Descriptor": {
    "UId": "3bbe4dc5-cd27-458d-8a83-5e66872c013f",
    "Name": "CrocPortQuotaFile",
    "ModifiedOnUtc": "\/Date(1658398871000)\/",
    "Parent": {
      "UId": "556c5867-60a7-4456-aae1-a57a122bef70",
      "Name": "File"
    },
    "ManagerName": "EntitySchemaManager",
    "Caption": "Файл и ссылка объекта Квота порта"
  }
}