﻿{
  "Descriptor": {
    "UId": "64d322df-6650-4656-a115-861f8d5f898f",
    "Name": "CrocHistoryChartChange1Detail",
    "ModifiedOnUtc": "\/Date(1660904364000)\/",
    "Parent": {
      "UId": "01eb38ee-668a-42f0-999d-c2534f979089",
      "Name": "BaseGridDetailV2"
    },
    "ManagerName": "ClientUnitSchemaManager",
    "Caption": "Схема детали: \"История изменения графика\""
  }
}