﻿{
  "Descriptor": {
    "UId": "99c239dc-a7a8-4474-829c-289217351165",
    "Name": "CrocVWQuoteRequst",
    "ModifiedOnUtc": "\/Date(1669362293000)\/",
    "Parent": {
      "UId": "c449d832-a4cc-4b01-b9d5-8a12c42a9f89",
      "Name": "Activity"
    },
    "ManagerName": "EntitySchemaManager",
    "Caption": "CrocVWQuoteRequst"
  }
}