﻿{
  "Descriptor": {
    "UId": "20dcbf8b-571c-4d29-bba4-fc52990bd273",
    "Name": "CrocSetDocument",
    "ModifiedOnUtc": "\/Date(1669461188000)\/",
    "Parent": {
      "UId": "1bab9dcf-17d5-49f8-9536-8e0064f1dce0",
      "Name": "BaseEntity"
    },
    "ManagerName": "EntitySchemaManager",
    "Caption": "Комплект документов"
  }
}