﻿{
  "Descriptor": {
    "UId": "9a4e411f-8d4e-4170-b8b8-fc01e9c9b4c0",
    "Name": "CrocCommentInFolder",
    "ModifiedOnUtc": "\/Date(1659603472000)\/",
    "Parent": {
      "UId": "4f63bafb-e9e7-4082-b92e-66b97c14017c",
      "Name": "BaseItemInFolder"
    },
    "ManagerName": "EntitySchemaManager",
    "Caption": "Замечание в группе"
  }
}