﻿{
  "Descriptor": {
    "UId": "5baedea2-c9e0-46dc-bcea-bf9a0b26bc24",
    "Name": "CrocRefundReason",
    "ModifiedOnUtc": "\/Date(1664814796000)\/",
    "Parent": {
      "UId": "11ab4bcb-9b23-4b6d-9c86-520fae925d75",
      "Name": "BaseLookup"
    },
    "ManagerName": "EntitySchemaManager",
    "Caption": "Причина возврата денежных средств"
  }
}