﻿{
  "Descriptor": {
    "UId": "cce2caf2-4b95-4bf1-883b-7a27e96e9968",
    "Name": "CrocProcessShippingPrepareDocument",
    "ModifiedOnUtc": "\/Date(1663502865000)\/",
    "ManagerName": "ProcessSchemaManager",
    "Caption": "Перевозки. Предоставление обязательных документов для организации перевозки"
  }
}