﻿{
  "PackageData": [
    {
      "Row": [
        {
          "SchemaColumnUId": "ae0e45ca-c495-4fe7-a39d-3ab7278e1617",
          "Value": "6bb805c2-bd53-435d-8c4d-c4724ef0de39"
        },
        {
          "SchemaColumnUId": "a18861e7-c840-4cae-9dd6-30277b513dc9",
          "Value": "ba5dae6f-6e08-4c72-990a-3cedb11f9a4c",
          "DisplayValue": "null"
        },
        {
          "SchemaColumnUId": "cec2ae4b-d2de-4c80-99a0-a59dc2a154cd",
          "Value": "c4db0b90-af3a-4bd0-be5f-a9d3a513c635"
        }
      ]
    }
  ]
}