﻿{
  "Descriptor": {
    "UId": "d74ce4e5-9f62-b095-2a0d-711a0b78ef3e",
    "Name": "CrocNode_demetra1_local",
    "ModifiedOnUtc": "\/Date(1665742985000)\/",
    "InstallType": 0,
    "Schema": {
      "UId": "56af8bec-e77d-0d7c-1401-d08e537fc754",
      "Name": "CrocNode"
    },
    "Columns": [
      {
        "ColumnUId": "ae0e45ca-c495-4fe7-a39d-3ab7278e1617",
        "IsForceUpdate": false,
        "IsKey": true,
        "ColumnName": "Id",
        "DataTypeValueUId": "23018567-a13c-4320-8687-fd6f9e3699bd"
      },
      {
        "ColumnUId": "736c30a7-c0ec-4fa9-b034-2552b319b633",
        "IsForceUpdate": true,
        "IsKey": false,
        "ColumnName": "Name",
        "DataTypeValueUId": "ddb3a1ee-07e8-4d62-b7a9-d0e618b00fbd"
      },
      {
        "ColumnUId": "9e53fd7c-dde4-4502-a64c-b9e34148108b",
        "IsForceUpdate": false,
        "IsKey": false,
        "ColumnName": "Description",
        "DataTypeValueUId": "ddb3a1ee-07e8-4d62-b7a9-d0e618b00fbd"
      },
      {
        "ColumnUId": "075a2b19-82f0-b1dc-7925-d4798a98b668",
        "IsForceUpdate": true,
        "IsKey": false,
        "ColumnName": "CrocPassword",
        "DataTypeValueUId": "3509b9dd-2c90-4540-b82e-8f6ae85d8248"
      },
      {
        "ColumnUId": "cd7b8157-168a-0a72-f810-0cfb19c51d49",
        "IsForceUpdate": true,
        "IsKey": false,
        "ColumnName": "CrocLogin",
        "DataTypeValueUId": "325a73b8-0f47-44a0-8412-7606f78003ac"
      },
      {
        "ColumnUId": "f8c9c05e-6834-77a7-bafe-fb1f2f674358",
        "IsForceUpdate": true,
        "IsKey": false,
        "ColumnName": "CrocURL",
        "DataTypeValueUId": "ddb3a1ee-07e8-4d62-b7a9-d0e618b00fbd"
      },
      {
        "ColumnUId": "32c46cee-7f64-3734-3623-c14788954327",
        "IsForceUpdate": true,
        "IsKey": false,
        "ColumnName": "CrocNodeType",
        "DataTypeValueUId": "b295071f-7ea9-4e62-8d1a-919bf3732ff2"
      },
      {
        "ColumnUId": "3deced59-3ddf-48d9-9eeb-f67660446410",
        "IsForceUpdate": false,
        "IsKey": false,
        "ColumnName": "CrocNameDB",
        "DataTypeValueUId": "ddb3a1ee-07e8-4d62-b7a9-d0e618b00fbd"
      },
      {
        "ColumnUId": "8d9dfc1b-4190-8121-fd6a-4d55e0ecb25b",
        "IsForceUpdate": true,
        "IsKey": false,
        "ColumnName": "CrocTimeout",
        "DataTypeValueUId": "6b6b74e2-820d-490e-a017-2b73d4ccf2b0"
      }
    ]
  }
}