﻿{
  "Descriptor": {
    "UId": "0ab904c3-0b6f-c870-a935-1a6cf0cbec60",
    "Name": "CrocSyncTask_Account",
    "ModifiedOnUtc": "\/Date(1666697799000)\/",
    "InstallType": 0,
    "Schema": {
      "UId": "664ceb6e-04ae-4e18-a963-f30f225d7140",
      "Name": "CrocSyncTask"
    },
    "Columns": [
      {
        "ColumnUId": "ae0e45ca-c495-4fe7-a39d-3ab7278e1617",
        "IsForceUpdate": false,
        "IsKey": true,
        "ColumnName": "Id",
        "DataTypeValueUId": "23018567-a13c-4320-8687-fd6f9e3699bd"
      },
      {
        "ColumnUId": "e80190a5-03b2-4095-90f7-a193a960adee",
        "IsForceUpdate": false,
        "IsKey": false,
        "ColumnName": "CreatedOn",
        "DataTypeValueUId": "d21e9ef4-c064-4012-b286-fa1a8171da44"
      },
      {
        "ColumnUId": "ebf6bb93-8aa6-4a01-900d-c6ea67affe21",
        "IsForceUpdate": false,
        "IsKey": false,
        "ColumnName": "CreatedBy",
        "DataTypeValueUId": "b295071f-7ea9-4e62-8d1a-919bf3732ff2"
      },
      {
        "ColumnUId": "9928edec-4272-425a-93bb-48743fee4b04",
        "IsForceUpdate": false,
        "IsKey": false,
        "ColumnName": "ModifiedOn",
        "DataTypeValueUId": "d21e9ef4-c064-4012-b286-fa1a8171da44"
      },
      {
        "ColumnUId": "3015559e-cbc6-406a-88af-07f7930be832",
        "IsForceUpdate": false,
        "IsKey": false,
        "ColumnName": "ModifiedBy",
        "DataTypeValueUId": "b295071f-7ea9-4e62-8d1a-919bf3732ff2"
      },
      {
        "ColumnUId": "3fabd836-6a53-4d8d-9069-6df88d9dae1e",
        "IsForceUpdate": false,
        "IsKey": false,
        "ColumnName": "ProcessListeners",
        "DataTypeValueUId": "6b6b74e2-820d-490e-a017-2b73d4ccf2b0"
      },
      {
        "ColumnUId": "6d0945e6-6aff-47a2-a773-ef7b713d611e",
        "IsForceUpdate": true,
        "IsKey": false,
        "ColumnName": "CrocName",
        "DataTypeValueUId": "ddb3a1ee-07e8-4d62-b7a9-d0e618b00fbd"
      },
      {
        "ColumnUId": "c07cd1ec-8178-4f03-be30-f50cc36a8438",
        "IsForceUpdate": false,
        "IsKey": false,
        "ColumnName": "CrocNotes",
        "DataTypeValueUId": "c0f04627-4620-4bc0-84e5-9419dc8516b1"
      },
      {
        "ColumnUId": "003b3696-6b59-5c09-526f-26448561fc9e",
        "IsForceUpdate": true,
        "IsKey": false,
        "ColumnName": "CrocNode",
        "DataTypeValueUId": "b295071f-7ea9-4e62-8d1a-919bf3732ff2"
      },
      {
        "ColumnUId": "11974fc6-4289-d1fa-96ef-eabdb7c0adcd",
        "IsForceUpdate": false,
        "IsKey": false,
        "ColumnName": "CrocStatus",
        "DataTypeValueUId": "b295071f-7ea9-4e62-8d1a-919bf3732ff2"
      },
      {
        "ColumnUId": "4ad06558-1fbb-e041-facf-93905049a03a",
        "IsForceUpdate": false,
        "IsKey": false,
        "ColumnName": "CrocActive",
        "DataTypeValueUId": "90b65bf8-0ffc-4141-8779-2420877af907"
      },
      {
        "ColumnUId": "b07af592-b0a1-5b80-7c94-0538bec7a3ee",
        "IsForceUpdate": true,
        "IsKey": false,
        "ColumnName": "CrocCron",
        "DataTypeValueUId": "325a73b8-0f47-44a0-8412-7606f78003ac"
      },
      {
        "ColumnUId": "3203afbf-b510-8ee7-f1bb-2471b845bfeb",
        "IsForceUpdate": true,
        "IsKey": false,
        "ColumnName": "CrocSaveHistoryDays",
        "DataTypeValueUId": "6b6b74e2-820d-490e-a017-2b73d4ccf2b0"
      }
    ]
  }
}