﻿{
  "MetaData": {
    "Schema": {
      "ManagerName": "SourceCodeSchemaManager",
      "UId": "74f350dc-98ba-421b-aded-489283d50a95",
      "A2": "CrocIntegrationDWHService",
      "A5": "d465586f-1fa6-4a0b-a97b-0a844efe269b",
      "B1": [],
      "B2": [],
      "B3": [],
      "B6": "8027c309-f63e-4894-a830-daa104b3be05",
      "B8": "7.18.5.1500",
      "HD1": "50e3acc0-26fc-4237-a095-849a1d534bd3"
    }
  }
}