﻿{
  "PackageData": [
    {
      "Row": [
        {
          "SchemaColumnUId": "ae0e45ca-c495-4fe7-a39d-3ab7278e1617",
          "Value": "0c8eee89-10cb-44b0-b1fb-1b775335531d"
        },
        {
          "SchemaColumnUId": "133989fd-a0fb-7345-06db-0e65f85e6f8b",
          "Value": "SendQuoteRequest"
        },
        {
          "SchemaColumnUId": "3015559e-cbc6-406a-88af-07f7930be832",
          "Value": "410006e1-ca4e-4502-a9ec-e54d922d2c00",
          "DisplayValue": "Supervisor"
        },
        {
          "SchemaColumnUId": "3fabd836-6a53-4d8d-9069-6df88d9dae1e",
          "Value": 0
        },
        {
          "SchemaColumnUId": "53ea3aa1-42f4-4265-9381-d213d16f775f",
          "Value": true
        },
        {
          "SchemaColumnUId": "64919e95-49ed-3e2c-e2c8-eca205b967b3",
          "Value": "85a5868b-a265-4cf0-972a-661ca64b466d",
          "DisplayValue": "IntegrationDWHService"
        },
        {
          "SchemaColumnUId": "7ae03303-cab9-4ea8-b208-59bda2c0331a",
          "Value": "9aa5f1e4-7ef9-49ea-81e8-cc3aa4a0848e",
          "DisplayValue": "Json"
        },
        {
          "SchemaColumnUId": "9928edec-4272-425a-93bb-48743fee4b04",
          "Value": "\/Date(1662391691139+0300)\/"
        },
        {
          "SchemaColumnUId": "a85a67b3-4f6e-42bd-94a3-f50b84f7bf84",
          "Value": ""
        },
        {
          "SchemaColumnUId": "a86e77f6-4ec8-4529-acbe-bba3e891f8af",
          "Value": "9aa5f1e4-7ef9-49ea-81e8-cc3aa4a0848e",
          "DisplayValue": "Json"
        },
        {
          "SchemaColumnUId": "def25ee1-336b-a45a-0077-c118173cc9d9",
          "Value": "ffaeb62e-51f2-46e4-80d4-06deee577df4",
          "DisplayValue": "POST"
        },
        {
          "SchemaColumnUId": "e80190a5-03b2-4095-90f7-a193a960adee",
          "Value": "\/Date(1662366745831+0300)\/"
        },
        {
          "SchemaColumnUId": "ebf6bb93-8aa6-4a01-900d-c6ea67affe21",
          "Value": "410006e1-ca4e-4502-a9ec-e54d922d2c00",
          "DisplayValue": "Supervisor"
        }
      ]
    },
    {
      "Row": [
        {
          "SchemaColumnUId": "ae0e45ca-c495-4fe7-a39d-3ab7278e1617",
          "Value": "38bfdc32-b946-45a6-bf79-50a871653d22"
        },
        {
          "SchemaColumnUId": "133989fd-a0fb-7345-06db-0e65f85e6f8b",
          "Value": "SendAccreditation"
        },
        {
          "SchemaColumnUId": "3015559e-cbc6-406a-88af-07f7930be832",
          "Value": "410006e1-ca4e-4502-a9ec-e54d922d2c00",
          "DisplayValue": "Supervisor"
        },
        {
          "SchemaColumnUId": "3fabd836-6a53-4d8d-9069-6df88d9dae1e",
          "Value": 0
        },
        {
          "SchemaColumnUId": "53ea3aa1-42f4-4265-9381-d213d16f775f",
          "Value": true
        },
        {
          "SchemaColumnUId": "64919e95-49ed-3e2c-e2c8-eca205b967b3",
          "Value": "85a5868b-a265-4cf0-972a-661ca64b466d",
          "DisplayValue": "IntegrationDWHService"
        },
        {
          "SchemaColumnUId": "7ae03303-cab9-4ea8-b208-59bda2c0331a",
          "Value": "9aa5f1e4-7ef9-49ea-81e8-cc3aa4a0848e",
          "DisplayValue": "Json"
        },
        {
          "SchemaColumnUId": "9928edec-4272-425a-93bb-48743fee4b04",
          "Value": "\/Date(1665748936203+0300)\/"
        },
        {
          "SchemaColumnUId": "a85a67b3-4f6e-42bd-94a3-f50b84f7bf84",
          "Value": ""
        },
        {
          "SchemaColumnUId": "a86e77f6-4ec8-4529-acbe-bba3e891f8af",
          "Value": "9aa5f1e4-7ef9-49ea-81e8-cc3aa4a0848e",
          "DisplayValue": "Json"
        },
        {
          "SchemaColumnUId": "def25ee1-336b-a45a-0077-c118173cc9d9",
          "Value": "ffaeb62e-51f2-46e4-80d4-06deee577df4",
          "DisplayValue": "POST"
        },
        {
          "SchemaColumnUId": "e80190a5-03b2-4095-90f7-a193a960adee",
          "Value": "\/Date(1662366717870+0300)\/"
        },
        {
          "SchemaColumnUId": "ebf6bb93-8aa6-4a01-900d-c6ea67affe21",
          "Value": "410006e1-ca4e-4502-a9ec-e54d922d2c00",
          "DisplayValue": "Supervisor"
        }
      ]
    },
    {
      "Row": [
        {
          "SchemaColumnUId": "ae0e45ca-c495-4fe7-a39d-3ab7278e1617",
          "Value": "4cede47a-c553-43ab-bd79-e94398b75167"
        },
        {
          "SchemaColumnUId": "133989fd-a0fb-7345-06db-0e65f85e6f8b",
          "Value": "SendRegistryVehicle"
        },
        {
          "SchemaColumnUId": "3015559e-cbc6-406a-88af-07f7930be832",
          "Value": "410006e1-ca4e-4502-a9ec-e54d922d2c00",
          "DisplayValue": "Supervisor"
        },
        {
          "SchemaColumnUId": "3fabd836-6a53-4d8d-9069-6df88d9dae1e",
          "Value": 0
        },
        {
          "SchemaColumnUId": "53ea3aa1-42f4-4265-9381-d213d16f775f",
          "Value": true
        },
        {
          "SchemaColumnUId": "64919e95-49ed-3e2c-e2c8-eca205b967b3",
          "Value": "85a5868b-a265-4cf0-972a-661ca64b466d",
          "DisplayValue": "IntegrationDWHService"
        },
        {
          "SchemaColumnUId": "7ae03303-cab9-4ea8-b208-59bda2c0331a",
          "Value": "9aa5f1e4-7ef9-49ea-81e8-cc3aa4a0848e",
          "DisplayValue": "Json"
        },
        {
          "SchemaColumnUId": "9928edec-4272-425a-93bb-48743fee4b04",
          "Value": "\/Date(1664896874257+0300)\/"
        },
        {
          "SchemaColumnUId": "a85a67b3-4f6e-42bd-94a3-f50b84f7bf84",
          "Value": ""
        },
        {
          "SchemaColumnUId": "a86e77f6-4ec8-4529-acbe-bba3e891f8af",
          "Value": "9aa5f1e4-7ef9-49ea-81e8-cc3aa4a0848e",
          "DisplayValue": "Json"
        },
        {
          "SchemaColumnUId": "def25ee1-336b-a45a-0077-c118173cc9d9",
          "Value": "ffaeb62e-51f2-46e4-80d4-06deee577df4",
          "DisplayValue": "POST"
        },
        {
          "SchemaColumnUId": "e80190a5-03b2-4095-90f7-a193a960adee",
          "Value": "\/Date(1664896874257+0300)\/"
        },
        {
          "SchemaColumnUId": "ebf6bb93-8aa6-4a01-900d-c6ea67affe21",
          "Value": "410006e1-ca4e-4502-a9ec-e54d922d2c00",
          "DisplayValue": "Supervisor"
        }
      ]
    },
    {
      "Row": [
        {
          "SchemaColumnUId": "ae0e45ca-c495-4fe7-a39d-3ab7278e1617",
          "Value": "4d3a60f5-8026-41e3-aefd-6297554c94dd"
        },
        {
          "SchemaColumnUId": "133989fd-a0fb-7345-06db-0e65f85e6f8b",
          "Value": "SendLoan"
        },
        {
          "SchemaColumnUId": "3015559e-cbc6-406a-88af-07f7930be832",
          "Value": "410006e1-ca4e-4502-a9ec-e54d922d2c00",
          "DisplayValue": "Supervisor"
        },
        {
          "SchemaColumnUId": "3fabd836-6a53-4d8d-9069-6df88d9dae1e",
          "Value": 0
        },
        {
          "SchemaColumnUId": "53ea3aa1-42f4-4265-9381-d213d16f775f",
          "Value": true
        },
        {
          "SchemaColumnUId": "64919e95-49ed-3e2c-e2c8-eca205b967b3",
          "Value": "85a5868b-a265-4cf0-972a-661ca64b466d",
          "DisplayValue": "IntegrationDWHService"
        },
        {
          "SchemaColumnUId": "7ae03303-cab9-4ea8-b208-59bda2c0331a",
          "Value": "9aa5f1e4-7ef9-49ea-81e8-cc3aa4a0848e",
          "DisplayValue": "Json"
        },
        {
          "SchemaColumnUId": "9928edec-4272-425a-93bb-48743fee4b04",
          "Value": "\/Date(1662391691032+0300)\/"
        },
        {
          "SchemaColumnUId": "a85a67b3-4f6e-42bd-94a3-f50b84f7bf84",
          "Value": ""
        },
        {
          "SchemaColumnUId": "a86e77f6-4ec8-4529-acbe-bba3e891f8af",
          "Value": "9aa5f1e4-7ef9-49ea-81e8-cc3aa4a0848e",
          "DisplayValue": "Json"
        },
        {
          "SchemaColumnUId": "def25ee1-336b-a45a-0077-c118173cc9d9",
          "Value": "ffaeb62e-51f2-46e4-80d4-06deee577df4",
          "DisplayValue": "POST"
        },
        {
          "SchemaColumnUId": "e80190a5-03b2-4095-90f7-a193a960adee",
          "Value": "\/Date(1662366783232+0300)\/"
        },
        {
          "SchemaColumnUId": "ebf6bb93-8aa6-4a01-900d-c6ea67affe21",
          "Value": "410006e1-ca4e-4502-a9ec-e54d922d2c00",
          "DisplayValue": "Supervisor"
        }
      ]
    },
    {
      "Row": [
        {
          "SchemaColumnUId": "ae0e45ca-c495-4fe7-a39d-3ab7278e1617",
          "Value": "5635fb83-3c24-4c12-b43f-b734209aa06e"
        },
        {
          "SchemaColumnUId": "133989fd-a0fb-7345-06db-0e65f85e6f8b",
          "Value": "SendPositionPlan"
        },
        {
          "SchemaColumnUId": "3015559e-cbc6-406a-88af-07f7930be832",
          "Value": "410006e1-ca4e-4502-a9ec-e54d922d2c00",
          "DisplayValue": "Supervisor"
        },
        {
          "SchemaColumnUId": "3fabd836-6a53-4d8d-9069-6df88d9dae1e",
          "Value": 0
        },
        {
          "SchemaColumnUId": "53ea3aa1-42f4-4265-9381-d213d16f775f",
          "Value": true
        },
        {
          "SchemaColumnUId": "64919e95-49ed-3e2c-e2c8-eca205b967b3",
          "Value": "85a5868b-a265-4cf0-972a-661ca64b466d",
          "DisplayValue": "IntegrationDWHService"
        },
        {
          "SchemaColumnUId": "7ae03303-cab9-4ea8-b208-59bda2c0331a",
          "Value": "9aa5f1e4-7ef9-49ea-81e8-cc3aa4a0848e",
          "DisplayValue": "Json"
        },
        {
          "SchemaColumnUId": "9928edec-4272-425a-93bb-48743fee4b04",
          "Value": "\/Date(1662391690983+0300)\/"
        },
        {
          "SchemaColumnUId": "a85a67b3-4f6e-42bd-94a3-f50b84f7bf84",
          "Value": ""
        },
        {
          "SchemaColumnUId": "a86e77f6-4ec8-4529-acbe-bba3e891f8af",
          "Value": "9aa5f1e4-7ef9-49ea-81e8-cc3aa4a0848e",
          "DisplayValue": "Json"
        },
        {
          "SchemaColumnUId": "def25ee1-336b-a45a-0077-c118173cc9d9",
          "Value": "ffaeb62e-51f2-46e4-80d4-06deee577df4",
          "DisplayValue": "POST"
        },
        {
          "SchemaColumnUId": "e80190a5-03b2-4095-90f7-a193a960adee",
          "Value": "\/Date(1662366773551+0300)\/"
        },
        {
          "SchemaColumnUId": "ebf6bb93-8aa6-4a01-900d-c6ea67affe21",
          "Value": "410006e1-ca4e-4502-a9ec-e54d922d2c00",
          "DisplayValue": "Supervisor"
        }
      ]
    },
    {
      "Row": [
        {
          "SchemaColumnUId": "ae0e45ca-c495-4fe7-a39d-3ab7278e1617",
          "Value": "5bf1a9d5-33c2-4ed2-9913-a10c104701f3"
        },
        {
          "SchemaColumnUId": "133989fd-a0fb-7345-06db-0e65f85e6f8b",
          "Value": "SendRegisterUnloading"
        },
        {
          "SchemaColumnUId": "3015559e-cbc6-406a-88af-07f7930be832",
          "Value": "410006e1-ca4e-4502-a9ec-e54d922d2c00",
          "DisplayValue": "Supervisor"
        },
        {
          "SchemaColumnUId": "3fabd836-6a53-4d8d-9069-6df88d9dae1e",
          "Value": 0
        },
        {
          "SchemaColumnUId": "53ea3aa1-42f4-4265-9381-d213d16f775f",
          "Value": true
        },
        {
          "SchemaColumnUId": "64919e95-49ed-3e2c-e2c8-eca205b967b3",
          "Value": "85a5868b-a265-4cf0-972a-661ca64b466d",
          "DisplayValue": "IntegrationDWHService"
        },
        {
          "SchemaColumnUId": "7ae03303-cab9-4ea8-b208-59bda2c0331a",
          "Value": "9aa5f1e4-7ef9-49ea-81e8-cc3aa4a0848e",
          "DisplayValue": "Json"
        },
        {
          "SchemaColumnUId": "9928edec-4272-425a-93bb-48743fee4b04",
          "Value": "\/Date(1662391690942+0300)\/"
        },
        {
          "SchemaColumnUId": "a85a67b3-4f6e-42bd-94a3-f50b84f7bf84",
          "Value": ""
        },
        {
          "SchemaColumnUId": "a86e77f6-4ec8-4529-acbe-bba3e891f8af",
          "Value": "9aa5f1e4-7ef9-49ea-81e8-cc3aa4a0848e",
          "DisplayValue": "Json"
        },
        {
          "SchemaColumnUId": "def25ee1-336b-a45a-0077-c118173cc9d9",
          "Value": "ffaeb62e-51f2-46e4-80d4-06deee577df4",
          "DisplayValue": "POST"
        },
        {
          "SchemaColumnUId": "e80190a5-03b2-4095-90f7-a193a960adee",
          "Value": "\/Date(1662366814326+0300)\/"
        },
        {
          "SchemaColumnUId": "ebf6bb93-8aa6-4a01-900d-c6ea67affe21",
          "Value": "410006e1-ca4e-4502-a9ec-e54d922d2c00",
          "DisplayValue": "Supervisor"
        }
      ]
    },
    {
      "Row": [
        {
          "SchemaColumnUId": "ae0e45ca-c495-4fe7-a39d-3ab7278e1617",
          "Value": "653f6e46-485c-4db5-bd41-5bdf1dccd67e"
        },
        {
          "SchemaColumnUId": "133989fd-a0fb-7345-06db-0e65f85e6f8b",
          "Value": "SendContract"
        },
        {
          "SchemaColumnUId": "3015559e-cbc6-406a-88af-07f7930be832",
          "Value": "410006e1-ca4e-4502-a9ec-e54d922d2c00",
          "DisplayValue": "Supervisor"
        },
        {
          "SchemaColumnUId": "3fabd836-6a53-4d8d-9069-6df88d9dae1e",
          "Value": 0
        },
        {
          "SchemaColumnUId": "53ea3aa1-42f4-4265-9381-d213d16f775f",
          "Value": true
        },
        {
          "SchemaColumnUId": "64919e95-49ed-3e2c-e2c8-eca205b967b3",
          "Value": "85a5868b-a265-4cf0-972a-661ca64b466d",
          "DisplayValue": "IntegrationDWHService"
        },
        {
          "SchemaColumnUId": "7ae03303-cab9-4ea8-b208-59bda2c0331a",
          "Value": "9aa5f1e4-7ef9-49ea-81e8-cc3aa4a0848e",
          "DisplayValue": "Json"
        },
        {
          "SchemaColumnUId": "9928edec-4272-425a-93bb-48743fee4b04",
          "Value": "\/Date(1662391690896+0300)\/"
        },
        {
          "SchemaColumnUId": "a85a67b3-4f6e-42bd-94a3-f50b84f7bf84",
          "Value": ""
        },
        {
          "SchemaColumnUId": "a86e77f6-4ec8-4529-acbe-bba3e891f8af",
          "Value": "9aa5f1e4-7ef9-49ea-81e8-cc3aa4a0848e",
          "DisplayValue": "Json"
        },
        {
          "SchemaColumnUId": "def25ee1-336b-a45a-0077-c118173cc9d9",
          "Value": "ffaeb62e-51f2-46e4-80d4-06deee577df4",
          "DisplayValue": "POST"
        },
        {
          "SchemaColumnUId": "e80190a5-03b2-4095-90f7-a193a960adee",
          "Value": "\/Date(1662366727002+0300)\/"
        },
        {
          "SchemaColumnUId": "ebf6bb93-8aa6-4a01-900d-c6ea67affe21",
          "Value": "410006e1-ca4e-4502-a9ec-e54d922d2c00",
          "DisplayValue": "Supervisor"
        }
      ]
    },
    {
      "Row": [
        {
          "SchemaColumnUId": "ae0e45ca-c495-4fe7-a39d-3ab7278e1617",
          "Value": "6590090b-f4fa-4797-b28b-cf872fb9c571"
        },
        {
          "SchemaColumnUId": "133989fd-a0fb-7345-06db-0e65f85e6f8b",
          "Value": "SendContragent"
        },
        {
          "SchemaColumnUId": "3015559e-cbc6-406a-88af-07f7930be832",
          "Value": "410006e1-ca4e-4502-a9ec-e54d922d2c00",
          "DisplayValue": "Supervisor"
        },
        {
          "SchemaColumnUId": "3fabd836-6a53-4d8d-9069-6df88d9dae1e",
          "Value": 0
        },
        {
          "SchemaColumnUId": "53ea3aa1-42f4-4265-9381-d213d16f775f",
          "Value": true
        },
        {
          "SchemaColumnUId": "64919e95-49ed-3e2c-e2c8-eca205b967b3",
          "Value": "85a5868b-a265-4cf0-972a-661ca64b466d",
          "DisplayValue": "IntegrationDWHService"
        },
        {
          "SchemaColumnUId": "7ae03303-cab9-4ea8-b208-59bda2c0331a",
          "Value": "9aa5f1e4-7ef9-49ea-81e8-cc3aa4a0848e",
          "DisplayValue": "Json"
        },
        {
          "SchemaColumnUId": "9928edec-4272-425a-93bb-48743fee4b04",
          "Value": "\/Date(1665745401052+0300)\/"
        },
        {
          "SchemaColumnUId": "a85a67b3-4f6e-42bd-94a3-f50b84f7bf84",
          "Value": ""
        },
        {
          "SchemaColumnUId": "a86e77f6-4ec8-4529-acbe-bba3e891f8af",
          "Value": "9aa5f1e4-7ef9-49ea-81e8-cc3aa4a0848e",
          "DisplayValue": "Json"
        },
        {
          "SchemaColumnUId": "def25ee1-336b-a45a-0077-c118173cc9d9",
          "Value": "ffaeb62e-51f2-46e4-80d4-06deee577df4",
          "DisplayValue": "POST"
        },
        {
          "SchemaColumnUId": "e80190a5-03b2-4095-90f7-a193a960adee",
          "Value": "\/Date(1660741015471+0300)\/"
        },
        {
          "SchemaColumnUId": "ebf6bb93-8aa6-4a01-900d-c6ea67affe21",
          "Value": "410006e1-ca4e-4502-a9ec-e54d922d2c00",
          "DisplayValue": "Supervisor"
        }
      ]
    },
    {
      "Row": [
        {
          "SchemaColumnUId": "ae0e45ca-c495-4fe7-a39d-3ab7278e1617",
          "Value": "7eb1be37-0106-4b04-8190-6f940aabaa7e"
        },
        {
          "SchemaColumnUId": "133989fd-a0fb-7345-06db-0e65f85e6f8b",
          "Value": "SendPortQuota"
        },
        {
          "SchemaColumnUId": "3015559e-cbc6-406a-88af-07f7930be832",
          "Value": "410006e1-ca4e-4502-a9ec-e54d922d2c00",
          "DisplayValue": "Supervisor"
        },
        {
          "SchemaColumnUId": "3fabd836-6a53-4d8d-9069-6df88d9dae1e",
          "Value": 0
        },
        {
          "SchemaColumnUId": "53ea3aa1-42f4-4265-9381-d213d16f775f",
          "Value": true
        },
        {
          "SchemaColumnUId": "64919e95-49ed-3e2c-e2c8-eca205b967b3",
          "Value": "85a5868b-a265-4cf0-972a-661ca64b466d",
          "DisplayValue": "IntegrationDWHService"
        },
        {
          "SchemaColumnUId": "7ae03303-cab9-4ea8-b208-59bda2c0331a",
          "Value": "9aa5f1e4-7ef9-49ea-81e8-cc3aa4a0848e",
          "DisplayValue": "Json"
        },
        {
          "SchemaColumnUId": "9928edec-4272-425a-93bb-48743fee4b04",
          "Value": "\/Date(1662391690808+0300)\/"
        },
        {
          "SchemaColumnUId": "a85a67b3-4f6e-42bd-94a3-f50b84f7bf84",
          "Value": ""
        },
        {
          "SchemaColumnUId": "a86e77f6-4ec8-4529-acbe-bba3e891f8af",
          "Value": "9aa5f1e4-7ef9-49ea-81e8-cc3aa4a0848e",
          "DisplayValue": "Json"
        },
        {
          "SchemaColumnUId": "def25ee1-336b-a45a-0077-c118173cc9d9",
          "Value": "ffaeb62e-51f2-46e4-80d4-06deee577df4",
          "DisplayValue": "POST"
        },
        {
          "SchemaColumnUId": "e80190a5-03b2-4095-90f7-a193a960adee",
          "Value": "\/Date(1662366763875+0300)\/"
        },
        {
          "SchemaColumnUId": "ebf6bb93-8aa6-4a01-900d-c6ea67affe21",
          "Value": "410006e1-ca4e-4502-a9ec-e54d922d2c00",
          "DisplayValue": "Supervisor"
        }
      ]
    },
    {
      "Row": [
        {
          "SchemaColumnUId": "ae0e45ca-c495-4fe7-a39d-3ab7278e1617",
          "Value": "85b8eab0-19b8-4b40-9fdd-f2bc2f0658fd"
        },
        {
          "SchemaColumnUId": "133989fd-a0fb-7345-06db-0e65f85e6f8b",
          "Value": "SendRequest"
        },
        {
          "SchemaColumnUId": "3015559e-cbc6-406a-88af-07f7930be832",
          "Value": "410006e1-ca4e-4502-a9ec-e54d922d2c00",
          "DisplayValue": "Supervisor"
        },
        {
          "SchemaColumnUId": "3fabd836-6a53-4d8d-9069-6df88d9dae1e",
          "Value": 0
        },
        {
          "SchemaColumnUId": "53ea3aa1-42f4-4265-9381-d213d16f775f",
          "Value": true
        },
        {
          "SchemaColumnUId": "64919e95-49ed-3e2c-e2c8-eca205b967b3",
          "Value": "85a5868b-a265-4cf0-972a-661ca64b466d",
          "DisplayValue": "IntegrationDWHService"
        },
        {
          "SchemaColumnUId": "7ae03303-cab9-4ea8-b208-59bda2c0331a",
          "Value": "9aa5f1e4-7ef9-49ea-81e8-cc3aa4a0848e",
          "DisplayValue": "Json"
        },
        {
          "SchemaColumnUId": "9928edec-4272-425a-93bb-48743fee4b04",
          "Value": "\/Date(1664815884511+0300)\/"
        },
        {
          "SchemaColumnUId": "a85a67b3-4f6e-42bd-94a3-f50b84f7bf84",
          "Value": ""
        },
        {
          "SchemaColumnUId": "a86e77f6-4ec8-4529-acbe-bba3e891f8af",
          "Value": "9aa5f1e4-7ef9-49ea-81e8-cc3aa4a0848e",
          "DisplayValue": "Json"
        },
        {
          "SchemaColumnUId": "def25ee1-336b-a45a-0077-c118173cc9d9",
          "Value": "ffaeb62e-51f2-46e4-80d4-06deee577df4",
          "DisplayValue": "POST"
        },
        {
          "SchemaColumnUId": "e80190a5-03b2-4095-90f7-a193a960adee",
          "Value": "\/Date(1662366792081+0300)\/"
        },
        {
          "SchemaColumnUId": "ebf6bb93-8aa6-4a01-900d-c6ea67affe21",
          "Value": "410006e1-ca4e-4502-a9ec-e54d922d2c00",
          "DisplayValue": "Supervisor"
        }
      ]
    },
    {
      "Row": [
        {
          "SchemaColumnUId": "ae0e45ca-c495-4fe7-a39d-3ab7278e1617",
          "Value": "8cb9db20-8b69-4653-8d94-a51fb9991d7c"
        },
        {
          "SchemaColumnUId": "133989fd-a0fb-7345-06db-0e65f85e6f8b",
          "Value": "SendChart"
        },
        {
          "SchemaColumnUId": "3015559e-cbc6-406a-88af-07f7930be832",
          "Value": "410006e1-ca4e-4502-a9ec-e54d922d2c00",
          "DisplayValue": "Supervisor"
        },
        {
          "SchemaColumnUId": "3fabd836-6a53-4d8d-9069-6df88d9dae1e",
          "Value": 0
        },
        {
          "SchemaColumnUId": "53ea3aa1-42f4-4265-9381-d213d16f775f",
          "Value": true
        },
        {
          "SchemaColumnUId": "64919e95-49ed-3e2c-e2c8-eca205b967b3",
          "Value": "85a5868b-a265-4cf0-972a-661ca64b466d",
          "DisplayValue": "IntegrationDWHService"
        },
        {
          "SchemaColumnUId": "7ae03303-cab9-4ea8-b208-59bda2c0331a",
          "Value": "9aa5f1e4-7ef9-49ea-81e8-cc3aa4a0848e",
          "DisplayValue": "Json"
        },
        {
          "SchemaColumnUId": "9928edec-4272-425a-93bb-48743fee4b04",
          "Value": "\/Date(1662391690721+0300)\/"
        },
        {
          "SchemaColumnUId": "a85a67b3-4f6e-42bd-94a3-f50b84f7bf84",
          "Value": ""
        },
        {
          "SchemaColumnUId": "a86e77f6-4ec8-4529-acbe-bba3e891f8af",
          "Value": "9aa5f1e4-7ef9-49ea-81e8-cc3aa4a0848e",
          "DisplayValue": "Json"
        },
        {
          "SchemaColumnUId": "def25ee1-336b-a45a-0077-c118173cc9d9",
          "Value": "ffaeb62e-51f2-46e4-80d4-06deee577df4",
          "DisplayValue": "POST"
        },
        {
          "SchemaColumnUId": "e80190a5-03b2-4095-90f7-a193a960adee",
          "Value": "\/Date(1662366806799+0300)\/"
        },
        {
          "SchemaColumnUId": "ebf6bb93-8aa6-4a01-900d-c6ea67affe21",
          "Value": "410006e1-ca4e-4502-a9ec-e54d922d2c00",
          "DisplayValue": "Supervisor"
        }
      ]
    },
    {
      "Row": [
        {
          "SchemaColumnUId": "ae0e45ca-c495-4fe7-a39d-3ab7278e1617",
          "Value": "8f13bfa9-081f-4490-9b8c-3f4464d1dc82"
        },
        {
          "SchemaColumnUId": "133989fd-a0fb-7345-06db-0e65f85e6f8b",
          "Value": "SendRejectedTransport"
        },
        {
          "SchemaColumnUId": "3015559e-cbc6-406a-88af-07f7930be832",
          "Value": "410006e1-ca4e-4502-a9ec-e54d922d2c00",
          "DisplayValue": "Supervisor"
        },
        {
          "SchemaColumnUId": "3fabd836-6a53-4d8d-9069-6df88d9dae1e",
          "Value": 0
        },
        {
          "SchemaColumnUId": "53ea3aa1-42f4-4265-9381-d213d16f775f",
          "Value": true
        },
        {
          "SchemaColumnUId": "64919e95-49ed-3e2c-e2c8-eca205b967b3",
          "Value": "85a5868b-a265-4cf0-972a-661ca64b466d",
          "DisplayValue": "IntegrationDWHService"
        },
        {
          "SchemaColumnUId": "7ae03303-cab9-4ea8-b208-59bda2c0331a",
          "Value": "9aa5f1e4-7ef9-49ea-81e8-cc3aa4a0848e",
          "DisplayValue": "Json"
        },
        {
          "SchemaColumnUId": "9928edec-4272-425a-93bb-48743fee4b04",
          "Value": "\/Date(1664815929865+0300)\/"
        },
        {
          "SchemaColumnUId": "a85a67b3-4f6e-42bd-94a3-f50b84f7bf84",
          "Value": ""
        },
        {
          "SchemaColumnUId": "a86e77f6-4ec8-4529-acbe-bba3e891f8af",
          "Value": "9aa5f1e4-7ef9-49ea-81e8-cc3aa4a0848e",
          "DisplayValue": "Json"
        },
        {
          "SchemaColumnUId": "def25ee1-336b-a45a-0077-c118173cc9d9",
          "Value": "ffaeb62e-51f2-46e4-80d4-06deee577df4",
          "DisplayValue": "POST"
        },
        {
          "SchemaColumnUId": "e80190a5-03b2-4095-90f7-a193a960adee",
          "Value": "\/Date(1662366848495+0300)\/"
        },
        {
          "SchemaColumnUId": "ebf6bb93-8aa6-4a01-900d-c6ea67affe21",
          "Value": "410006e1-ca4e-4502-a9ec-e54d922d2c00",
          "DisplayValue": "Supervisor"
        }
      ]
    },
    {
      "Row": [
        {
          "SchemaColumnUId": "ae0e45ca-c495-4fe7-a39d-3ab7278e1617",
          "Value": "932c342b-bbf3-4053-8a66-0fdb897c0d17"
        },
        {
          "SchemaColumnUId": "133989fd-a0fb-7345-06db-0e65f85e6f8b",
          "Value": "SendPlannedRefund"
        },
        {
          "SchemaColumnUId": "3015559e-cbc6-406a-88af-07f7930be832",
          "Value": "410006e1-ca4e-4502-a9ec-e54d922d2c00",
          "DisplayValue": "Supervisor"
        },
        {
          "SchemaColumnUId": "3fabd836-6a53-4d8d-9069-6df88d9dae1e",
          "Value": 0
        },
        {
          "SchemaColumnUId": "53ea3aa1-42f4-4265-9381-d213d16f775f",
          "Value": true
        },
        {
          "SchemaColumnUId": "64919e95-49ed-3e2c-e2c8-eca205b967b3",
          "Value": "85a5868b-a265-4cf0-972a-661ca64b466d",
          "DisplayValue": "IntegrationDWHService"
        },
        {
          "SchemaColumnUId": "7ae03303-cab9-4ea8-b208-59bda2c0331a",
          "Value": "9aa5f1e4-7ef9-49ea-81e8-cc3aa4a0848e",
          "DisplayValue": "Json"
        },
        {
          "SchemaColumnUId": "9928edec-4272-425a-93bb-48743fee4b04",
          "Value": "\/Date(1662391690603+0300)\/"
        },
        {
          "SchemaColumnUId": "a85a67b3-4f6e-42bd-94a3-f50b84f7bf84",
          "Value": ""
        },
        {
          "SchemaColumnUId": "a86e77f6-4ec8-4529-acbe-bba3e891f8af",
          "Value": "9aa5f1e4-7ef9-49ea-81e8-cc3aa4a0848e",
          "DisplayValue": "Json"
        },
        {
          "SchemaColumnUId": "def25ee1-336b-a45a-0077-c118173cc9d9",
          "Value": "ffaeb62e-51f2-46e4-80d4-06deee577df4",
          "DisplayValue": "POST"
        },
        {
          "SchemaColumnUId": "e80190a5-03b2-4095-90f7-a193a960adee",
          "Value": "\/Date(1662366754708+0300)\/"
        },
        {
          "SchemaColumnUId": "ebf6bb93-8aa6-4a01-900d-c6ea67affe21",
          "Value": "410006e1-ca4e-4502-a9ec-e54d922d2c00",
          "DisplayValue": "Supervisor"
        }
      ]
    },
    {
      "Row": [
        {
          "SchemaColumnUId": "ae0e45ca-c495-4fe7-a39d-3ab7278e1617",
          "Value": "938575b8-acbd-49f1-92bc-e097af51ee23"
        },
        {
          "SchemaColumnUId": "133989fd-a0fb-7345-06db-0e65f85e6f8b",
          "Value": "SendMutualSettlements"
        },
        {
          "SchemaColumnUId": "3015559e-cbc6-406a-88af-07f7930be832",
          "Value": "410006e1-ca4e-4502-a9ec-e54d922d2c00",
          "DisplayValue": "Supervisor"
        },
        {
          "SchemaColumnUId": "3fabd836-6a53-4d8d-9069-6df88d9dae1e",
          "Value": 0
        },
        {
          "SchemaColumnUId": "53ea3aa1-42f4-4265-9381-d213d16f775f",
          "Value": true
        },
        {
          "SchemaColumnUId": "64919e95-49ed-3e2c-e2c8-eca205b967b3",
          "Value": "85a5868b-a265-4cf0-972a-661ca64b466d",
          "DisplayValue": "IntegrationDWHService"
        },
        {
          "SchemaColumnUId": "7ae03303-cab9-4ea8-b208-59bda2c0331a",
          "Value": "9aa5f1e4-7ef9-49ea-81e8-cc3aa4a0848e",
          "DisplayValue": "Json"
        },
        {
          "SchemaColumnUId": "9928edec-4272-425a-93bb-48743fee4b04",
          "Value": "\/Date(1662391690547+0300)\/"
        },
        {
          "SchemaColumnUId": "a85a67b3-4f6e-42bd-94a3-f50b84f7bf84",
          "Value": ""
        },
        {
          "SchemaColumnUId": "a86e77f6-4ec8-4529-acbe-bba3e891f8af",
          "Value": "9aa5f1e4-7ef9-49ea-81e8-cc3aa4a0848e",
          "DisplayValue": "Json"
        },
        {
          "SchemaColumnUId": "def25ee1-336b-a45a-0077-c118173cc9d9",
          "Value": "ffaeb62e-51f2-46e4-80d4-06deee577df4",
          "DisplayValue": "POST"
        },
        {
          "SchemaColumnUId": "e80190a5-03b2-4095-90f7-a193a960adee",
          "Value": "\/Date(1662366736461+0300)\/"
        },
        {
          "SchemaColumnUId": "ebf6bb93-8aa6-4a01-900d-c6ea67affe21",
          "Value": "410006e1-ca4e-4502-a9ec-e54d922d2c00",
          "DisplayValue": "Supervisor"
        }
      ]
    },
    {
      "Row": [
        {
          "SchemaColumnUId": "ae0e45ca-c495-4fe7-a39d-3ab7278e1617",
          "Value": "a77fd07a-a9b7-4c7a-9b1b-dbc641f0e3c9"
        },
        {
          "SchemaColumnUId": "133989fd-a0fb-7345-06db-0e65f85e6f8b",
          "Value": "SendPurchaseReturns"
        },
        {
          "SchemaColumnUId": "3015559e-cbc6-406a-88af-07f7930be832",
          "Value": "410006e1-ca4e-4502-a9ec-e54d922d2c00",
          "DisplayValue": "Supervisor"
        },
        {
          "SchemaColumnUId": "3fabd836-6a53-4d8d-9069-6df88d9dae1e",
          "Value": 0
        },
        {
          "SchemaColumnUId": "53ea3aa1-42f4-4265-9381-d213d16f775f",
          "Value": true
        },
        {
          "SchemaColumnUId": "64919e95-49ed-3e2c-e2c8-eca205b967b3",
          "Value": "85a5868b-a265-4cf0-972a-661ca64b466d",
          "DisplayValue": "IntegrationDWHService"
        },
        {
          "SchemaColumnUId": "7ae03303-cab9-4ea8-b208-59bda2c0331a",
          "Value": "9aa5f1e4-7ef9-49ea-81e8-cc3aa4a0848e",
          "DisplayValue": "Json"
        },
        {
          "SchemaColumnUId": "9928edec-4272-425a-93bb-48743fee4b04",
          "Value": "\/Date(1662391690493+0300)\/"
        },
        {
          "SchemaColumnUId": "a85a67b3-4f6e-42bd-94a3-f50b84f7bf84",
          "Value": ""
        },
        {
          "SchemaColumnUId": "a86e77f6-4ec8-4529-acbe-bba3e891f8af",
          "Value": "9aa5f1e4-7ef9-49ea-81e8-cc3aa4a0848e",
          "DisplayValue": "Json"
        },
        {
          "SchemaColumnUId": "def25ee1-336b-a45a-0077-c118173cc9d9",
          "Value": "ffaeb62e-51f2-46e4-80d4-06deee577df4",
          "DisplayValue": "POST"
        },
        {
          "SchemaColumnUId": "e80190a5-03b2-4095-90f7-a193a960adee",
          "Value": "\/Date(1662366839479+0300)\/"
        },
        {
          "SchemaColumnUId": "ebf6bb93-8aa6-4a01-900d-c6ea67affe21",
          "Value": "410006e1-ca4e-4502-a9ec-e54d922d2c00",
          "DisplayValue": "Supervisor"
        }
      ]
    },
    {
      "Row": [
        {
          "SchemaColumnUId": "ae0e45ca-c495-4fe7-a39d-3ab7278e1617",
          "Value": "b14dd367-b5ef-4e5d-923c-28f12a47c05f"
        },
        {
          "SchemaColumnUId": "133989fd-a0fb-7345-06db-0e65f85e6f8b",
          "Value": "SendErrand"
        },
        {
          "SchemaColumnUId": "3015559e-cbc6-406a-88af-07f7930be832",
          "Value": "410006e1-ca4e-4502-a9ec-e54d922d2c00",
          "DisplayValue": "Supervisor"
        },
        {
          "SchemaColumnUId": "3fabd836-6a53-4d8d-9069-6df88d9dae1e",
          "Value": 0
        },
        {
          "SchemaColumnUId": "53ea3aa1-42f4-4265-9381-d213d16f775f",
          "Value": true
        },
        {
          "SchemaColumnUId": "64919e95-49ed-3e2c-e2c8-eca205b967b3",
          "Value": "85a5868b-a265-4cf0-972a-661ca64b466d",
          "DisplayValue": "IntegrationDWHService"
        },
        {
          "SchemaColumnUId": "7ae03303-cab9-4ea8-b208-59bda2c0331a",
          "Value": "9aa5f1e4-7ef9-49ea-81e8-cc3aa4a0848e",
          "DisplayValue": "Json"
        },
        {
          "SchemaColumnUId": "9928edec-4272-425a-93bb-48743fee4b04",
          "Value": "\/Date(1662391690445+0300)\/"
        },
        {
          "SchemaColumnUId": "a85a67b3-4f6e-42bd-94a3-f50b84f7bf84",
          "Value": ""
        },
        {
          "SchemaColumnUId": "a86e77f6-4ec8-4529-acbe-bba3e891f8af",
          "Value": "9aa5f1e4-7ef9-49ea-81e8-cc3aa4a0848e",
          "DisplayValue": "Json"
        },
        {
          "SchemaColumnUId": "def25ee1-336b-a45a-0077-c118173cc9d9",
          "Value": "ffaeb62e-51f2-46e4-80d4-06deee577df4",
          "DisplayValue": "POST"
        },
        {
          "SchemaColumnUId": "e80190a5-03b2-4095-90f7-a193a960adee",
          "Value": "\/Date(1662366856494+0300)\/"
        },
        {
          "SchemaColumnUId": "ebf6bb93-8aa6-4a01-900d-c6ea67affe21",
          "Value": "410006e1-ca4e-4502-a9ec-e54d922d2c00",
          "DisplayValue": "Supervisor"
        }
      ]
    },
    {
      "Row": [
        {
          "SchemaColumnUId": "ae0e45ca-c495-4fe7-a39d-3ab7278e1617",
          "Value": "cb55987e-14e4-4e49-96a1-0cabf8d6a203"
        },
        {
          "SchemaColumnUId": "133989fd-a0fb-7345-06db-0e65f85e6f8b",
          "Value": "SendAdditionalAgreement"
        },
        {
          "SchemaColumnUId": "3015559e-cbc6-406a-88af-07f7930be832",
          "Value": "410006e1-ca4e-4502-a9ec-e54d922d2c00",
          "DisplayValue": "Supervisor"
        },
        {
          "SchemaColumnUId": "3fabd836-6a53-4d8d-9069-6df88d9dae1e",
          "Value": 0
        },
        {
          "SchemaColumnUId": "53ea3aa1-42f4-4265-9381-d213d16f775f",
          "Value": true
        },
        {
          "SchemaColumnUId": "64919e95-49ed-3e2c-e2c8-eca205b967b3",
          "Value": "85a5868b-a265-4cf0-972a-661ca64b466d",
          "DisplayValue": "IntegrationDWHService"
        },
        {
          "SchemaColumnUId": "7ae03303-cab9-4ea8-b208-59bda2c0331a",
          "Value": "9aa5f1e4-7ef9-49ea-81e8-cc3aa4a0848e",
          "DisplayValue": "Json"
        },
        {
          "SchemaColumnUId": "9928edec-4272-425a-93bb-48743fee4b04",
          "Value": "\/Date(1664896890815+0300)\/"
        },
        {
          "SchemaColumnUId": "a85a67b3-4f6e-42bd-94a3-f50b84f7bf84",
          "Value": ""
        },
        {
          "SchemaColumnUId": "a86e77f6-4ec8-4529-acbe-bba3e891f8af",
          "Value": "9aa5f1e4-7ef9-49ea-81e8-cc3aa4a0848e",
          "DisplayValue": "Json"
        },
        {
          "SchemaColumnUId": "def25ee1-336b-a45a-0077-c118173cc9d9",
          "Value": "ffaeb62e-51f2-46e4-80d4-06deee577df4",
          "DisplayValue": "POST"
        },
        {
          "SchemaColumnUId": "e80190a5-03b2-4095-90f7-a193a960adee",
          "Value": "\/Date(1664896890815+0300)\/"
        },
        {
          "SchemaColumnUId": "ebf6bb93-8aa6-4a01-900d-c6ea67affe21",
          "Value": "410006e1-ca4e-4502-a9ec-e54d922d2c00",
          "DisplayValue": "Supervisor"
        }
      ]
    },
    {
      "Row": [
        {
          "SchemaColumnUId": "ae0e45ca-c495-4fe7-a39d-3ab7278e1617",
          "Value": "dd371852-bcf6-442d-9b2c-280cdc45c494"
        },
        {
          "SchemaColumnUId": "133989fd-a0fb-7345-06db-0e65f85e6f8b",
          "Value": "SendEmployee"
        },
        {
          "SchemaColumnUId": "3015559e-cbc6-406a-88af-07f7930be832",
          "Value": "410006e1-ca4e-4502-a9ec-e54d922d2c00",
          "DisplayValue": "Supervisor"
        },
        {
          "SchemaColumnUId": "3fabd836-6a53-4d8d-9069-6df88d9dae1e",
          "Value": 0
        },
        {
          "SchemaColumnUId": "53ea3aa1-42f4-4265-9381-d213d16f775f",
          "Value": true
        },
        {
          "SchemaColumnUId": "64919e95-49ed-3e2c-e2c8-eca205b967b3",
          "Value": "85a5868b-a265-4cf0-972a-661ca64b466d",
          "DisplayValue": "IntegrationDWHService"
        },
        {
          "SchemaColumnUId": "7ae03303-cab9-4ea8-b208-59bda2c0331a",
          "Value": "9aa5f1e4-7ef9-49ea-81e8-cc3aa4a0848e",
          "DisplayValue": "Json"
        },
        {
          "SchemaColumnUId": "9928edec-4272-425a-93bb-48743fee4b04",
          "Value": "\/Date(1662391690400+0300)\/"
        },
        {
          "SchemaColumnUId": "a85a67b3-4f6e-42bd-94a3-f50b84f7bf84",
          "Value": ""
        },
        {
          "SchemaColumnUId": "a86e77f6-4ec8-4529-acbe-bba3e891f8af",
          "Value": "9aa5f1e4-7ef9-49ea-81e8-cc3aa4a0848e",
          "DisplayValue": "Json"
        },
        {
          "SchemaColumnUId": "def25ee1-336b-a45a-0077-c118173cc9d9",
          "Value": "ffaeb62e-51f2-46e4-80d4-06deee577df4",
          "DisplayValue": "POST"
        },
        {
          "SchemaColumnUId": "e80190a5-03b2-4095-90f7-a193a960adee",
          "Value": "\/Date(1662366706053+0300)\/"
        },
        {
          "SchemaColumnUId": "ebf6bb93-8aa6-4a01-900d-c6ea67affe21",
          "Value": "410006e1-ca4e-4502-a9ec-e54d922d2c00",
          "DisplayValue": "Supervisor"
        }
      ]
    },
    {
      "Row": [
        {
          "SchemaColumnUId": "ae0e45ca-c495-4fe7-a39d-3ab7278e1617",
          "Value": "e2b31da2-2d91-4e28-9e09-8a9db97734d6"
        },
        {
          "SchemaColumnUId": "133989fd-a0fb-7345-06db-0e65f85e6f8b",
          "Value": "SendRegisterLoading"
        },
        {
          "SchemaColumnUId": "3015559e-cbc6-406a-88af-07f7930be832",
          "Value": "410006e1-ca4e-4502-a9ec-e54d922d2c00",
          "DisplayValue": "Supervisor"
        },
        {
          "SchemaColumnUId": "3fabd836-6a53-4d8d-9069-6df88d9dae1e",
          "Value": 0
        },
        {
          "SchemaColumnUId": "53ea3aa1-42f4-4265-9381-d213d16f775f",
          "Value": true
        },
        {
          "SchemaColumnUId": "64919e95-49ed-3e2c-e2c8-eca205b967b3",
          "Value": "85a5868b-a265-4cf0-972a-661ca64b466d",
          "DisplayValue": "IntegrationDWHService"
        },
        {
          "SchemaColumnUId": "7ae03303-cab9-4ea8-b208-59bda2c0331a",
          "Value": "9aa5f1e4-7ef9-49ea-81e8-cc3aa4a0848e",
          "DisplayValue": "Json"
        },
        {
          "SchemaColumnUId": "9928edec-4272-425a-93bb-48743fee4b04",
          "Value": "\/Date(1662391690341+0300)\/"
        },
        {
          "SchemaColumnUId": "a85a67b3-4f6e-42bd-94a3-f50b84f7bf84",
          "Value": ""
        },
        {
          "SchemaColumnUId": "a86e77f6-4ec8-4529-acbe-bba3e891f8af",
          "Value": "9aa5f1e4-7ef9-49ea-81e8-cc3aa4a0848e",
          "DisplayValue": "Json"
        },
        {
          "SchemaColumnUId": "def25ee1-336b-a45a-0077-c118173cc9d9",
          "Value": "ffaeb62e-51f2-46e4-80d4-06deee577df4",
          "DisplayValue": "POST"
        },
        {
          "SchemaColumnUId": "e80190a5-03b2-4095-90f7-a193a960adee",
          "Value": "\/Date(1662366799672+0300)\/"
        },
        {
          "SchemaColumnUId": "ebf6bb93-8aa6-4a01-900d-c6ea67affe21",
          "Value": "410006e1-ca4e-4502-a9ec-e54d922d2c00",
          "DisplayValue": "Supervisor"
        }
      ]
    },
    {
      "Row": [
        {
          "SchemaColumnUId": "ae0e45ca-c495-4fe7-a39d-3ab7278e1617",
          "Value": "f831e917-2499-4e6e-ab53-d7b4a42541c6"
        },
        {
          "SchemaColumnUId": "133989fd-a0fb-7345-06db-0e65f85e6f8b",
          "Value": "SendLookup"
        },
        {
          "SchemaColumnUId": "3015559e-cbc6-406a-88af-07f7930be832",
          "Value": "410006e1-ca4e-4502-a9ec-e54d922d2c00",
          "DisplayValue": "Supervisor"
        },
        {
          "SchemaColumnUId": "3fabd836-6a53-4d8d-9069-6df88d9dae1e",
          "Value": 0
        },
        {
          "SchemaColumnUId": "53ea3aa1-42f4-4265-9381-d213d16f775f",
          "Value": true
        },
        {
          "SchemaColumnUId": "64919e95-49ed-3e2c-e2c8-eca205b967b3",
          "Value": "85a5868b-a265-4cf0-972a-661ca64b466d",
          "DisplayValue": "IntegrationDWHService"
        },
        {
          "SchemaColumnUId": "7ae03303-cab9-4ea8-b208-59bda2c0331a",
          "Value": "9aa5f1e4-7ef9-49ea-81e8-cc3aa4a0848e",
          "DisplayValue": "Json"
        },
        {
          "SchemaColumnUId": "9928edec-4272-425a-93bb-48743fee4b04",
          "Value": "\/Date(1662391690279+0300)\/"
        },
        {
          "SchemaColumnUId": "a85a67b3-4f6e-42bd-94a3-f50b84f7bf84",
          "Value": ""
        },
        {
          "SchemaColumnUId": "a86e77f6-4ec8-4529-acbe-bba3e891f8af",
          "Value": "9aa5f1e4-7ef9-49ea-81e8-cc3aa4a0848e",
          "DisplayValue": "Json"
        },
        {
          "SchemaColumnUId": "def25ee1-336b-a45a-0077-c118173cc9d9",
          "Value": "ffaeb62e-51f2-46e4-80d4-06deee577df4",
          "DisplayValue": "POST"
        },
        {
          "SchemaColumnUId": "e80190a5-03b2-4095-90f7-a193a960adee",
          "Value": "\/Date(1662366865486+0300)\/"
        },
        {
          "SchemaColumnUId": "ebf6bb93-8aa6-4a01-900d-c6ea67affe21",
          "Value": "410006e1-ca4e-4502-a9ec-e54d922d2c00",
          "DisplayValue": "Supervisor"
        }
      ]
    }
  ]
}