﻿{
  "PackageData": [
    {
      "Row": [
        {
          "SchemaColumnUId": "ae0e45ca-c495-4fe7-a39d-3ab7278e1617",
          "ColumnName": "Id",
          "Value": "fb1c614b-af5d-471d-a2d2-63143d9ee7f2"
        },
        {
          "SchemaColumnUId": "ca53e2c8-0767-4f2c-8a18-2ee5821f134e",
          "ColumnName": "Name",
          "Value": ""
        }
      ]
    }
  ]
}