﻿{
  "PackageData": [
    {
      "Row": [
        {
          "SchemaColumnUId": "ae0e45ca-c495-4fe7-a39d-3ab7278e1617",
          "ColumnName": "Id",
          "Value": "56df89df-fa3c-491d-9ec1-23cc9aa4bd64"
        },
        {
          "SchemaColumnUId": "49ad8ee2-65a6-4cdd-b8f6-85c2f10a54dc",
          "ColumnName": "Caption",
          "Value": ""
        }
      ]
    }
  ]
}