﻿{
  "Descriptor": {
    "UId": "ffea296a-ac7c-4c9e-9536-99cc3b30b3d7",
    "Name": "CrocProcessUnloadingFactDataAvailability",
    "ModifiedOnUtc": "\/Date(1664819107000)\/",
    "ManagerName": "ProcessSchemaManager",
    "Caption": "Типовое сообщение. Наличие фактических данных по выгрузке"
  }
}