﻿{
  "PackageData": [
    {
      "Row": [
        {
          "SchemaColumnUId": "ae0e45ca-c495-4fe7-a39d-3ab7278e1617",
          "Value": "d89373ae-7335-42ab-af54-894d304c316c"
        },
        {
          "SchemaColumnUId": "423b165f-9759-437b-b532-95ef1b78063b",
          "Value": "7f3b869f-34f3-4f20-ab4d-7480a5fdf647",
          "DisplayValue": "Supervisor"
        },
        {
          "SchemaColumnUId": "9d032101-3db5-4bba-ab16-294104cd15ad",
          "Value": 0
        },
        {
          "SchemaColumnUId": "a64eb826-4dc1-45fb-a5ac-d768275eb719",
          "Value": "cd411cad-9f01-441d-8dc2-840d1fd80538",
          "DisplayValue": "Доступ к изменению закрепленного сотрудника в Договоре (Экспортер)"
        },
        {
          "SchemaColumnUId": "e1f978af-3b07-4c9f-a422-c6170cd1b1a4",
          "Value": true
        }
      ]
    }
  ]
}