﻿{
  "Descriptor": {
    "UId": "8a55eb29-63ba-33ec-a2be-b20148c09949",
    "Name": "CrocContractStatus",
    "ModifiedOnUtc": "\/Date(1665153638000)\/",
    "InstallType": 0,
    "Schema": {
      "UId": "00514ee1-17cb-4ffa-a412-742ee10a16f0",
      "Name": "CrocContractStatus"
    },
    "Columns": [
      {
        "ColumnUId": "ae0e45ca-c495-4fe7-a39d-3ab7278e1617",
        "IsForceUpdate": false,
        "IsKey": true,
        "ColumnName": "Id",
        "DataTypeValueUId": "23018567-a13c-4320-8687-fd6f9e3699bd"
      },
      {
        "ColumnUId": "736c30a7-c0ec-4fa9-b034-2552b319b633",
        "IsForceUpdate": true,
        "IsKey": false,
        "ColumnName": "Name",
        "DataTypeValueUId": "ddb3a1ee-07e8-4d62-b7a9-d0e618b00fbd"
      },
      {
        "ColumnUId": "9e53fd7c-dde4-4502-a64c-b9e34148108b",
        "IsForceUpdate": true,
        "IsKey": false,
        "ColumnName": "Description",
        "DataTypeValueUId": "ddb3a1ee-07e8-4d62-b7a9-d0e618b00fbd"
      },
      {
        "ColumnUId": "47adfa7b-5ac8-079c-cdc3-236fce5b109f",
        "IsForceUpdate": true,
        "IsKey": false,
        "ColumnName": "CrocId",
        "DataTypeValueUId": "23018567-a13c-4320-8687-fd6f9e3699bd"
      }
    ]
  }
}