﻿{
  "Descriptor": {
    "UId": "b83276ab-2506-4d89-8e00-85fcb8c72048",
    "Name": "Contact",
    "ModifiedOnUtc": "\/Date(1670938487000)\/",
    "Parent": {
      "UId": "16be3651-8fe2-4159-8dd0-a803d4683dd3",
      "Name": "Contact"
    },
    "ExtendParent": true,
    "ManagerName": "EntitySchemaManager",
    "Caption": "Контакт"
  }
}