﻿{
  "Descriptor": {
    "UId": "8d4c1d11-8cbf-4c3e-8129-b03fb5aa9a97",
    "Name": "CrocDocumentSetInFolder",
    "ModifiedOnUtc": "\/Date(1658225555000)\/",
    "Parent": {
      "UId": "4f63bafb-e9e7-4082-b92e-66b97c14017c",
      "Name": "BaseItemInFolder"
    },
    "ManagerName": "EntitySchemaManager",
    "Caption": "Набор документов в группе"
  }
}