﻿{
  "Descriptor": {
    "UId": "64de20d3-129e-4d81-946f-4de040bd0014",
    "Name": "CrocPosition1Detail",
    "ModifiedOnUtc": "\/Date(1659015383000)\/",
    "Parent": {
      "UId": "01eb38ee-668a-42f0-999d-c2534f979089",
      "Name": "BaseGridDetailV2"
    },
    "ManagerName": "ClientUnitSchemaManager",
    "Caption": "Схема детали: \"Позиции \""
  }
}