﻿{
  "PackageData": [
    {
      "Row": [
        {
          "SchemaColumnUId": "ae0e45ca-c495-4fe7-a39d-3ab7278e1617",
          "ColumnName": "Id",
          "Value": "94f386c9-20d6-4952-9211-b7931f9009ce"
        },
        {
          "SchemaColumnUId": "736c30a7-c0ec-4fa9-b034-2552b319b633",
          "ColumnName": "Name",
          "Value": "Доступ к кнопке \"Вернуть на доработку\" в детали Отчет о проделанной работе в карточке Заявки"
        },
        {
          "SchemaColumnUId": "9e53fd7c-dde4-4502-a64c-b9e34148108b",
          "ColumnName": "Description",
          "Value": "Роли для доступа к кнопке \"Вернуть на доработку\" в детали Отчет о проделанной работе в карточке Заявки"
        }
      ]
    }
  ]
}