﻿{
  "Descriptor": {
    "UId": "90dbd5a3-cfc9-4cc1-ac8a-517e9af7ba81",
    "Name": "ContactPageV2",
    "ModifiedOnUtc": "\/Date(1673174030000)\/",
    "Parent": {
      "UId": "8737e39c-ac08-4903-acd0-11570570691d",
      "Name": "ContactPageV2"
    },
    "ExtendParent": true,
    "ManagerName": "ClientUnitSchemaManager",
    "Caption": "ContactPageV2"
  }
}