﻿{
  "PackageData": [
    {
      "Row": [
        {
          "SchemaColumnUId": "ae0e45ca-c495-4fe7-a39d-3ab7278e1617",
          "Value": "1ace1c2e-2be0-4492-8ecc-54f0595ac57f"
        },
        {
          "SchemaColumnUId": "a04f0a3d-39e9-13be-c7fd-526596f3fb48",
          "Value": "ebbdcd86-3c36-4235-a297-7cfb546d1330",
          "DisplayValue": "Компания-трейдер (посредник не являющийся СХТП)"
        }
      ]
    },
    {
      "Row": [
        {
          "SchemaColumnUId": "ae0e45ca-c495-4fe7-a39d-3ab7278e1617",
          "Value": "2eb847b1-251f-4bb2-afe8-688c9e879079"
        },
        {
          "SchemaColumnUId": "a04f0a3d-39e9-13be-c7fd-526596f3fb48",
          "Value": "1a874f6a-6aaa-45aa-89e2-1123be8935c2",
          "DisplayValue": "Элеватор"
        }
      ]
    },
    {
      "Row": [
        {
          "SchemaColumnUId": "ae0e45ca-c495-4fe7-a39d-3ab7278e1617",
          "Value": "447022b2-589e-41a0-b1b8-af10b253fbab"
        },
        {
          "SchemaColumnUId": "a04f0a3d-39e9-13be-c7fd-526596f3fb48",
          "Value": "71802e5f-e41f-422c-968d-80cedeed8deb",
          "DisplayValue": "Поставщик-резидент"
        }
      ]
    },
    {
      "Row": [
        {
          "SchemaColumnUId": "ae0e45ca-c495-4fe7-a39d-3ab7278e1617",
          "Value": "6e8ac7a0-efa0-4cbe-bed9-a55b1b8cebb5"
        },
        {
          "SchemaColumnUId": "a04f0a3d-39e9-13be-c7fd-526596f3fb48",
          "Value": "46051397-554c-4a80-ba0c-8e6303d14f1a",
          "DisplayValue": "Автомобильный перевозчик"
        }
      ]
    },
    {
      "Row": [
        {
          "SchemaColumnUId": "ae0e45ca-c495-4fe7-a39d-3ab7278e1617",
          "Value": "9619554e-51dd-47cf-9563-04783531c148"
        },
        {
          "SchemaColumnUId": "a04f0a3d-39e9-13be-c7fd-526596f3fb48",
          "Value": "a33cbd41-f3e3-4b3c-8ef9-0dab0e4dd900",
          "DisplayValue": "Контрагент– нерезидент"
        }
      ]
    },
    {
      "Row": [
        {
          "SchemaColumnUId": "ae0e45ca-c495-4fe7-a39d-3ab7278e1617",
          "Value": "9ba786a4-4052-45c4-937d-55289cf9db19"
        },
        {
          "SchemaColumnUId": "a04f0a3d-39e9-13be-c7fd-526596f3fb48",
          "Value": "43a23098-3eb1-4a3f-b1de-6d2f62b696b9",
          "DisplayValue": "Естественные монополии"
        }
      ]
    },
    {
      "Row": [
        {
          "SchemaColumnUId": "ae0e45ca-c495-4fe7-a39d-3ab7278e1617",
          "Value": "9db56d86-22b7-4a5e-80a6-4f7c11ecaad4"
        },
        {
          "SchemaColumnUId": "a04f0a3d-39e9-13be-c7fd-526596f3fb48",
          "Value": "bf3fa30c-45fe-494f-b388-c22ede643736",
          "DisplayValue": "СХТП"
        }
      ]
    },
    {
      "Row": [
        {
          "SchemaColumnUId": "ae0e45ca-c495-4fe7-a39d-3ab7278e1617",
          "Value": "bcb24423-f25d-437e-9b33-662685733c2a"
        },
        {
          "SchemaColumnUId": "a04f0a3d-39e9-13be-c7fd-526596f3fb48",
          "Value": "10b7bbd6-cb0d-4bc7-903e-c0763bf65490",
          "DisplayValue": "Государственные учреждения"
        }
      ]
    },
    {
      "Row": [
        {
          "SchemaColumnUId": "ae0e45ca-c495-4fe7-a39d-3ab7278e1617",
          "Value": "ce2d3915-d9e6-4f4e-bbc2-0fba4b67cced"
        },
        {
          "SchemaColumnUId": "a04f0a3d-39e9-13be-c7fd-526596f3fb48",
          "Value": "db442939-3a9f-4402-ae0f-621425a00515",
          "DisplayValue": "Физическое лицо"
        }
      ]
    },
    {
      "Row": [
        {
          "SchemaColumnUId": "ae0e45ca-c495-4fe7-a39d-3ab7278e1617",
          "Value": "de169696-22c6-4f7b-8bb7-1d2388781dd5"
        },
        {
          "SchemaColumnUId": "a04f0a3d-39e9-13be-c7fd-526596f3fb48",
          "Value": "2816701a-6d82-4838-a400-ba499f6cad60",
          "DisplayValue": "Автомобильный экспедитор"
        }
      ]
    },
    {
      "Row": [
        {
          "SchemaColumnUId": "ae0e45ca-c495-4fe7-a39d-3ab7278e1617",
          "Value": "ec3ce50e-8807-44dd-9a4d-9878f315fa71"
        },
        {
          "SchemaColumnUId": "a04f0a3d-39e9-13be-c7fd-526596f3fb48",
          "Value": "8bb23f8e-ced1-4b17-aea4-b6fdfa6cd131",
          "DisplayValue": "Покупатель-резидент РФ"
        }
      ]
    }
  ]
}