﻿{
  "PackageData": [
    {
      "Row": [
        {
          "SchemaColumnUId": "ae0e45ca-c495-4fe7-a39d-3ab7278e1617",
          "Value": "8b079497-485a-46c3-8f4e-368ff67f4813"
        },
        {
          "SchemaColumnUId": "003b3696-6b59-5c09-526f-26448561fc9e",
          "Value": "2fe968e8-4dad-4e59-923f-a5b1fe7a334d",
          "DisplayValue": "demetra2 local"
        },
        {
          "SchemaColumnUId": "11974fc6-4289-d1fa-96ef-eabdb7c0adcd",
          "Value": "9ecdd197-a78f-47da-90a9-9fdecabc31fe",
          "DisplayValue": "Ожидание"
        },
        {
          "SchemaColumnUId": "3015559e-cbc6-406a-88af-07f7930be832",
          "Value": "410006e1-ca4e-4502-a9ec-e54d922d2c00",
          "DisplayValue": "Supervisor"
        },
        {
          "SchemaColumnUId": "3203afbf-b510-8ee7-f1bb-2471b845bfeb",
          "Value": 1
        },
        {
          "SchemaColumnUId": "3fabd836-6a53-4d8d-9069-6df88d9dae1e",
          "Value": 0
        },
        {
          "SchemaColumnUId": "4ad06558-1fbb-e041-facf-93905049a03a",
          "Value": false
        },
        {
          "SchemaColumnUId": "6d0945e6-6aff-47a2-a773-ef7b713d611e",
          "Value": "Синхронизация Ленты уведомлений"
        },
        {
          "SchemaColumnUId": "9928edec-4272-425a-93bb-48743fee4b04",
          "Value": "\/Date(1665751943424+0300)\/"
        },
        {
          "SchemaColumnUId": "b07af592-b0a1-5b80-7c94-0538bec7a3ee",
          "Value": "0 0 9 * * *"
        },
        {
          "SchemaColumnUId": "c07cd1ec-8178-4f03-be30-f50cc36a8438",
          "Value": ""
        },
        {
          "SchemaColumnUId": "e80190a5-03b2-4095-90f7-a193a960adee",
          "Value": "\/Date(1664371400058+0300)\/"
        },
        {
          "SchemaColumnUId": "ebf6bb93-8aa6-4a01-900d-c6ea67affe21",
          "Value": "410006e1-ca4e-4502-a9ec-e54d922d2c00",
          "DisplayValue": "Supervisor"
        }
      ]
    }
  ]
}