﻿{
  "Descriptor": {
    "UId": "8a927b28-0f8f-4df0-859e-eca1dde4a419",
    "Name": "CrocDocumentRegistry",
    "ModifiedOnUtc": "\/Date(1671017602000)\/",
    "Parent": {
      "UId": "1bab9dcf-17d5-49f8-9536-8e0064f1dce0",
      "Name": "BaseEntity"
    },
    "ManagerName": "EntitySchemaManager",
    "Caption": "Документ с реестрами погрузки"
  }
}