﻿{
  "Descriptor": {
    "UId": "ce8ca547-9d72-4ee6-8953-b113dc7068ff",
    "Name": "CrocPortQuotaTag",
    "ModifiedOnUtc": "\/Date(1658398880000)\/",
    "Parent": {
      "UId": "9e3f203c-e905-4de5-9468-335b193f2439",
      "Name": "BaseTag"
    },
    "ManagerName": "EntitySchemaManager",
    "Caption": "Тег раздела Квота порта"
  }
}