﻿{
  "Descriptor": {
    "UId": "4d77d1f4-26cb-4be2-8c79-ac601b0bcf01",
    "Name": "CrocCaseSalePlan",
    "ModifiedOnUtc": "\/Date(1659953513000)\/",
    "ManagerName": "DcmSchemaManager",
    "Caption": "Кейс План позиций"
  }
}