﻿{
  "Descriptor": {
    "UId": "e9cc78c9-dadb-4b5d-ab2f-22832d6e8493",
    "Name": "CrocPosition",
    "ModifiedOnUtc": "\/Date(1669716661000)\/",
    "Parent": {
      "UId": "1bab9dcf-17d5-49f8-9536-8e0064f1dce0",
      "Name": "BaseEntity"
    },
    "ManagerName": "EntitySchemaManager",
    "Caption": "Позиция",
    "DependsOn": []
  }
}