﻿{
  "PackageData": [
    {
      "Row": [
        {
          "SchemaColumnUId": "ae0e45ca-c495-4fe7-a39d-3ab7278e1617",
          "Value": "20acdd3b-9d38-4d65-9257-359e88c5f0b0"
        },
        {
          "SchemaColumnUId": "2bf9d686-2f7e-464b-a049-041c3225dc51",
          "Value": "null"
        },
        {
          "SchemaColumnUId": "42ed2383-1455-49ec-82df-1a184c12a398",
          "Value": "[{\"columnUId\":null}]"
        },
        {
          "SchemaColumnUId": "beb7f6b2-f338-45ac-80a8-7177238b52a9",
          "Value": "dcf353db-1ead-b3c8-10e5-cc857029ea7d"
        },
        {
          "SchemaColumnUId": "fa51db91-37a6-4df4-bbcd-8481740c5d8c",
          "Value": "a0b69e7e-6e0c-4ed5-982a-2feab05d1d8c",
          "DisplayValue": "null"
        }
      ]
    }
  ]
}