﻿{
  "Descriptor": {
    "UId": "35e7ab15-0f64-4e24-b868-6e13249cdeff",
    "Name": "CrocNotificationEvent",
    "ModifiedOnUtc": "\/Date(1657730101000)\/",
    "Parent": {
      "UId": "11ab4bcb-9b23-4b6d-9c86-520fae925d75",
      "Name": "BaseLookup"
    },
    "ManagerName": "EntitySchemaManager",
    "Caption": "Событие для уведомления"
  }
}