﻿{
  "Descriptor": {
    "UId": "c22bab28-15af-464e-1afb-29eb6323bada",
    "Name": "SysSettingsInFolder_CrocBaseSmartSeedsUrl",
    "ModifiedOnUtc": "\/Date(1662446349000)\/",
    "InstallType": 0,
    "Schema": {
      "UId": "fcd1648a-01fd-47f9-a42f-24f245d37768",
      "Name": "SysSettingsInFolder"
    },
    "Columns": [
      {
        "ColumnUId": "ae0e45ca-c495-4fe7-a39d-3ab7278e1617",
        "IsForceUpdate": false,
        "IsKey": true,
        "ColumnName": "Id",
        "DataTypeValueUId": "23018567-a13c-4320-8687-fd6f9e3699bd"
      },
      {
        "ColumnUId": "9e46bb69-9788-423c-b7cd-4c624081082d",
        "IsForceUpdate": true,
        "IsKey": false,
        "ColumnName": "Folder",
        "DataTypeValueUId": "b295071f-7ea9-4e62-8d1a-919bf3732ff2"
      },
      {
        "ColumnUId": "34982036-bcf9-408a-a293-d6b35c45edd5",
        "IsForceUpdate": true,
        "IsKey": false,
        "ColumnName": "SysSettings",
        "DataTypeValueUId": "b295071f-7ea9-4e62-8d1a-919bf3732ff2"
      },
      {
        "ColumnUId": "9928edec-4272-425a-93bb-48743fee4b04",
        "IsForceUpdate": true,
        "IsKey": false,
        "ColumnName": "ModifiedOn",
        "DataTypeValueUId": "d21e9ef4-c064-4012-b286-fa1a8171da44"
      },
      {
        "ColumnUId": "e80190a5-03b2-4095-90f7-a193a960adee",
        "IsForceUpdate": false,
        "IsKey": false,
        "ColumnName": "CreatedOn",
        "DataTypeValueUId": "d21e9ef4-c064-4012-b286-fa1a8171da44"
      }
    ]
  }
}