﻿{
  "PackageData": [
    {
      "Row": [
        {
          "SchemaColumnUId": "ae0e45ca-c495-4fe7-a39d-3ab7278e1617",
          "ColumnName": "Id",
          "Value": "f7f25323-a16e-467c-bdcf-e19887e426bc"
        },
        {
          "SchemaColumnUId": "55132174-2b96-4e0a-830c-b8e952b12c45",
          "ColumnName": "PageCaption",
          "Value": "Страница редактирования: \"Договор\" (Рамочный договор)"
        },
        {
          "SchemaColumnUId": "a19bf4bf-e22b-49b5-b6e0-918ff6290020",
          "ColumnName": "ActionKindCaption",
          "Value": "Дополнительное соглашение"
        }
      ]
    }
  ]
}