﻿{
  "Descriptor": {
    "UId": "6883a69e-01f2-46f0-8622-9584b205f9a5",
    "Name": "CrocReplacementEmployeeClientUnit",
    "ModifiedOnUtc": "\/Date(1671544313000)\/",
    "Parent": {
      "UId": "5826ff24-46c6-4169-9223-2aaad9ec2e18",
      "Name": "BasePageSimpleProcessTemplate"
    },
    "ManagerName": "ClientUnitSchemaManager",
    "Caption": "Изменить закрепленного сотрудника"
  }
}