﻿{
  "Descriptor": {
    "UId": "f497149d-2fb8-474f-a835-42f0f8d9af43",
    "Name": "CrocLoanInFolder",
    "ModifiedOnUtc": "\/Date(1658249861000)\/",
    "Parent": {
      "UId": "4f63bafb-e9e7-4082-b92e-66b97c14017c",
      "Name": "BaseItemInFolder"
    },
    "ManagerName": "EntitySchemaManager",
    "Caption": "Займ в группе"
  }
}