﻿{
  "Descriptor": {
    "UId": "d0965963-3d7f-4d50-bae7-fe7e9f077e06",
    "Name": "CrocPositionPlanInFolder",
    "ModifiedOnUtc": "\/Date(1658992225000)\/",
    "Parent": {
      "UId": "4f63bafb-e9e7-4082-b92e-66b97c14017c",
      "Name": "BaseItemInFolder"
    },
    "ManagerName": "EntitySchemaManager",
    "Caption": "План позиций в группе"
  }
}